ligne non conforme : 1
ligne non conforme : 2
ligne non conforme : 4
ligne non conforme : 5
ligne non conforme : 7
ligne non conforme : 8
ligne non conforme : 10
ligne non conforme : 11
ligne non conforme : 13
ligne non conforme : 14
ligne non conforme : 16
ligne non conforme : 17
ligne non conforme : 19
ligne non conforme : 20
ligne non conforme : 22
ligne non conforme : 23
ligne non conforme : 25
ligne non conforme : 26
ligne non conforme : 28
ligne non conforme : 29
ligne non conforme : 31
ligne non conforme : 32
ligne non conforme : 34
ligne non conforme : 35
ligne non conforme : 37
ligne non conforme : 38
ligne non conforme : 40
ligne non conforme : 41
ligne non conforme : 43
ligne non conforme : 44
ligne non conforme : 46
ligne non conforme : 47
ligne non conforme : 49
ligne non conforme : 50
ligne non conforme : 52
ligne non conforme : 53
ligne non conforme : 55
ligne non conforme : 56
ligne non conforme : 58
ligne non conforme : 59
ligne non conforme : 61
ligne non conforme : 62
ligne non conforme : 64
ligne non conforme : 65
ligne non conforme : 67
ligne non conforme : 68
ligne non conforme : 70
ligne non conforme : 71
ligne non conforme : 73
ligne non conforme : 74
ligne non conforme : 76
ligne non conforme : 77
ligne non conforme : 79
ligne non conforme : 80
ligne non conforme : 82
ligne non conforme : 83
ligne non conforme : 85
ligne non conforme : 86
ligne non conforme : 88
ligne non conforme : 89
ligne non conforme : 91
ligne non conforme : 92
ligne non conforme : 94
ligne non conforme : 95
ligne non conforme : 97
ligne non conforme : 98
ligne non conforme : 100
ligne non conforme : 101
ligne non conforme : 103
ligne non conforme : 104
ligne non conforme : 106
ligne non conforme : 107
ligne non conforme : 109
ligne non conforme : 110
ligne non conforme : 112
ligne non conforme : 113
ligne non conforme : 115
ligne non conforme : 116
ligne non conforme : 118
ligne non conforme : 119
ligne non conforme : 121
ligne non conforme : 122
ligne non conforme : 124
ligne non conforme : 125
ligne non conforme : 127
ligne non conforme : 128
ligne non conforme : 130
ligne non conforme : 131
ligne non conforme : 133
ligne non conforme : 134
ligne non conforme : 136
ligne non conforme : 137
ligne non conforme : 139
ligne non conforme : 140
ligne non conforme : 142
ligne non conforme : 143
ligne non conforme : 145
ligne non conforme : 146
ligne non conforme : 148
ligne non conforme : 149
ligne non conforme : 151
ligne non conforme : 152
ligne non conforme : 154
ligne non conforme : 155
ligne non conforme : 157
ligne non conforme : 158
ligne non conforme : 160
ligne non conforme : 161
ligne non conforme : 163
ligne non conforme : 164
ligne non conforme : 166
ligne non conforme : 167
ligne non conforme : 169
ligne non conforme : 170
ligne non conforme : 172
ligne non conforme : 173
ligne non conforme : 175
ligne non conforme : 176
ligne non conforme : 178
ligne non conforme : 179
ligne non conforme : 181
ligne non conforme : 182
ligne non conforme : 184
ligne non conforme : 185
ligne non conforme : 187
ligne non conforme : 188
ligne non conforme : 190
ligne non conforme : 191
ligne non conforme : 193
ligne non conforme : 194
ligne non conforme : 196
ligne non conforme : 197
ligne non conforme : 199
ligne non conforme : 200
ligne non conforme : 202
ligne non conforme : 203
ligne non conforme : 205
ligne non conforme : 206
ligne non conforme : 208
ligne non conforme : 209
ligne non conforme : 211
ligne non conforme : 212
ligne non conforme : 214
ligne non conforme : 215
ligne non conforme : 217
ligne non conforme : 218
ligne non conforme : 220
ligne non conforme : 221
ligne non conforme : 223
ligne non conforme : 224
ligne non conforme : 226
ligne non conforme : 227
ligne non conforme : 229
ligne non conforme : 230
ligne non conforme : 232
ligne non conforme : 233
ligne non conforme : 235
ligne non conforme : 236
ligne non conforme : 238
ligne non conforme : 239
ligne non conforme : 241
ligne non conforme : 242
ligne non conforme : 244
ligne non conforme : 245
ligne non conforme : 247
ligne non conforme : 248
ligne non conforme : 250
ligne non conforme : 251
ligne non conforme : 253
ligne non conforme : 254
ligne non conforme : 256
ligne non conforme : 257
ligne non conforme : 259
ligne non conforme : 260
ligne non conforme : 262
ligne non conforme : 263
ligne non conforme : 265
ligne non conforme : 266
ligne non conforme : 268
ligne non conforme : 269
ligne non conforme : 271
ligne non conforme : 272
ligne non conforme : 274
ligne non conforme : 275
ligne non conforme : 277
ligne non conforme : 278
ligne non conforme : 280
ligne non conforme : 281
ligne non conforme : 283
ligne non conforme : 284
ligne non conforme : 286
ligne non conforme : 287
ligne non conforme : 289
ligne non conforme : 290
ligne non conforme : 292
ligne non conforme : 293
ligne non conforme : 295
ligne non conforme : 296
ligne non conforme : 298
ligne non conforme : 299
ligne non conforme : 301
ligne non conforme : 302
ligne non conforme : 304
ligne non conforme : 305
ligne non conforme : 307
ligne non conforme : 308
ligne non conforme : 310
ligne non conforme : 311
ligne non conforme : 313
ligne non conforme : 314
ligne non conforme : 316
ligne non conforme : 317
ligne non conforme : 319
ligne non conforme : 320
ligne non conforme : 322
ligne non conforme : 323
ligne non conforme : 325
ligne non conforme : 326
ligne non conforme : 328
ligne non conforme : 329
ligne non conforme : 331
ligne non conforme : 332
ligne non conforme : 334
ligne non conforme : 335
ligne non conforme : 337
ligne non conforme : 338
ligne non conforme : 340
ligne non conforme : 341
ligne non conforme : 343
ligne non conforme : 344
ligne non conforme : 346
ligne non conforme : 347
ligne non conforme : 349
ligne non conforme : 350
ligne non conforme : 352
ligne non conforme : 353
ligne non conforme : 355
ligne non conforme : 356
ligne non conforme : 358
ligne non conforme : 359
ligne non conforme : 361
ligne non conforme : 362
ligne non conforme : 364
ligne non conforme : 365
ligne non conforme : 367
ligne non conforme : 368
ligne non conforme : 370
ligne non conforme : 371
ligne non conforme : 373
ligne non conforme : 374
ligne non conforme : 376
ligne non conforme : 377
ligne non conforme : 379
ligne non conforme : 380
ligne non conforme : 382
ligne non conforme : 383
ligne non conforme : 385
ligne non conforme : 386
ligne non conforme : 388
ligne non conforme : 389
ligne non conforme : 391
ligne non conforme : 392
ligne non conforme : 393
ligne non conforme : 394
