<?xml version="1.0" encoding="utf-8" ?>
<gpx version="1.1" creator="OpenCPN" xmlns:xsi="http://www.w3.org/2001/XMLSchema-instance" xmlns="http://www.topografix.com/GPX/1/1" xsi:schemaLocation="http://www.topografix.com/GPX/1/1 http://www.topografix.com/GPX/1/1/gpx.xsd" xmlns:opencpn="http://www.opencpn.org">
    <trk>
        <name>20110806_Bx_Bgc</name>
        <extensions>
            <opencpn:start>Bordeaux</opencpn:start>
            <opencpn:end>Bergerac</opencpn:end>
            <opencpn:viz>1</opencpn:viz>
            <opencpn:guid>14aa0000-61f8-44f1-8f49-79905948ffff</opencpn:guid>
        </extensions>
        <trkseg>
            <trkpt lat="44.868723333" lon="-0.710281667">
                <time>2011-08-06T16:41:23Z</time>
                <name>001</name>
                <sym>empty</sym>
                <type>WPT</type>
                <extensions>
                    <opencpn:guid>3cca0000-ded1-4f25-b137-d02b7dfdffff</opencpn:guid>
                    <opencpn:viz>1</opencpn:viz>
                    <opencpn:viz_name>0</opencpn:viz_name>
                    <opencpn:auto_name>1</opencpn:auto_name>
                    <opencpn:shared>0</opencpn:shared>
                </extensions>
            </trkpt>
            <trkpt lat="44.868545000" lon="-0.710383333">
                <time>2011-08-06T16:41:24Z</time>
                <name>002</name>
                <sym>empty</sym>
                <type>WPT</type>
                <extensions>
                    <opencpn:guid>00260000-3c4e-45eb-9345-5c2a20ad0000</opencpn:guid>
                    <opencpn:viz>1</opencpn:viz>
                    <opencpn:viz_name>0</opencpn:viz_name>
                    <opencpn:auto_name>1</opencpn:auto_name>
                    <opencpn:shared>0</opencpn:shared>
                </extensions>
            </trkpt>
            <trkpt lat="44.865631667" lon="-0.709303333">
                <time>2011-08-06T16:42:24Z</time>
                <name>003</name>
                <sym>empty</sym>
                <type>WPT</type>
                <extensions>
                    <opencpn:guid>7c70ffff-920d-45da-b0d2-65e409dd0000</opencpn:guid>
                    <opencpn:viz>1</opencpn:viz>
                    <opencpn:viz_name>0</opencpn:viz_name>
                    <opencpn:auto_name>1</opencpn:auto_name>
                    <opencpn:shared>0</opencpn:shared>
                </extensions>
            </trkpt>
            <trkpt lat="44.862920000" lon="-0.700473333">
                <time>2011-08-06T16:43:24Z</time>
                <name>004</name>
                <sym>empty</sym>
                <type>WPT</type>
                <extensions>
                    <opencpn:guid>4994ffff-cc65-42eb-9ee0-ee3d0a5b0000</opencpn:guid>
                    <opencpn:viz>1</opencpn:viz>
                    <opencpn:viz_name>0</opencpn:viz_name>
                    <opencpn:auto_name>1</opencpn:auto_name>
                    <opencpn:shared>0</opencpn:shared>
                </extensions>
            </trkpt>
            <trkpt lat="44.860403333" lon="-0.690106667">
                <time>2011-08-06T16:44:24Z</time>
                <name>005</name>
                <sym>empty</sym>
                <type>WPT</type>
                <extensions>
                    <opencpn:guid>22a30000-8d8d-452e-9243-165a09cc0000</opencpn:guid>
                    <opencpn:viz>1</opencpn:viz>
                    <opencpn:viz_name>0</opencpn:viz_name>
                    <opencpn:auto_name>1</opencpn:auto_name>
                    <opencpn:shared>0</opencpn:shared>
                </extensions>
            </trkpt>
            <trkpt lat="44.858556667" lon="-0.676226667">
                <time>2011-08-06T16:45:24Z</time>
                <name>006</name>
                <sym>empty</sym>
                <type>WPT</type>
                <extensions>
                    <opencpn:guid>184d0000-aabb-4aba-b9ee-f38f7122ffff</opencpn:guid>
                    <opencpn:viz>1</opencpn:viz>
                    <opencpn:viz_name>0</opencpn:viz_name>
                    <opencpn:auto_name>1</opencpn:auto_name>
                    <opencpn:shared>0</opencpn:shared>
                </extensions>
            </trkpt>
            <trkpt lat="44.857741667" lon="-0.662333333">
                <time>2011-08-06T16:46:24Z</time>
                <name>007</name>
                <sym>empty</sym>
                <type>WPT</type>
                <extensions>
                    <opencpn:guid>75dfffff-755a-41cd-8ee7-988774c3ffff</opencpn:guid>
                    <opencpn:viz>1</opencpn:viz>
                    <opencpn:viz_name>0</opencpn:viz_name>
                    <opencpn:auto_name>1</opencpn:auto_name>
                    <opencpn:shared>0</opencpn:shared>
                </extensions>
            </trkpt>
            <trkpt lat="44.862283333" lon="-0.657036667">
                <time>2011-08-06T16:47:24Z</time>
                <name>008</name>
                <sym>empty</sym>
                <type>WPT</type>
                <extensions>
                    <opencpn:guid>6a4effff-d939-48f9-86db-1e727258ffff</opencpn:guid>
                    <opencpn:viz>1</opencpn:viz>
                    <opencpn:viz_name>0</opencpn:viz_name>
                    <opencpn:auto_name>1</opencpn:auto_name>
                    <opencpn:shared>0</opencpn:shared>
                </extensions>
            </trkpt>
            <trkpt lat="44.871530000" lon="-0.641643333">
                <time>2011-08-06T16:48:24Z</time>
                <name>009</name>
                <sym>empty</sym>
                <type>WPT</type>
                <extensions>
                    <opencpn:guid>6a8effff-f9bb-4c0d-aee9-3d9207330000</opencpn:guid>
                    <opencpn:viz>1</opencpn:viz>
                    <opencpn:viz_name>0</opencpn:viz_name>
                    <opencpn:auto_name>1</opencpn:auto_name>
                    <opencpn:shared>0</opencpn:shared>
                </extensions>
            </trkpt>
            <trkpt lat="44.880256667" lon="-0.626456667">
                <time>2011-08-06T16:49:24Z</time>
                <name>010</name>
                <sym>empty</sym>
                <type>WPT</type>
                <extensions>
                    <opencpn:guid>16710000-b569-4b4a-a8e7-00c66044ffff</opencpn:guid>
                    <opencpn:viz>1</opencpn:viz>
                    <opencpn:viz_name>0</opencpn:viz_name>
                    <opencpn:auto_name>1</opencpn:auto_name>
                    <opencpn:shared>0</opencpn:shared>
                </extensions>
            </trkpt>
            <trkpt lat="44.890065000" lon="-0.613591667">
                <time>2011-08-06T16:50:24Z</time>
                <name>011</name>
                <sym>empty</sym>
                <type>WPT</type>
                <extensions>
                    <opencpn:guid>01ed0000-467a-4bc0-bb16-8c7f4235ffff</opencpn:guid>
                    <opencpn:viz>1</opencpn:viz>
                    <opencpn:viz_name>0</opencpn:viz_name>
                    <opencpn:auto_name>1</opencpn:auto_name>
                    <opencpn:shared>0</opencpn:shared>
                </extensions>
            </trkpt>
            <trkpt lat="44.888860000" lon="-0.595845000">
                <time>2011-08-06T16:51:24Z</time>
                <name>012</name>
                <sym>empty</sym>
                <type>WPT</type>
                <extensions>
                    <opencpn:guid>06110000-1670-4397-86d0-5fd63dbc0000</opencpn:guid>
                    <opencpn:viz>1</opencpn:viz>
                    <opencpn:viz_name>0</opencpn:viz_name>
                    <opencpn:auto_name>1</opencpn:auto_name>
                    <opencpn:shared>0</opencpn:shared>
                </extensions>
            </trkpt>
            <trkpt lat="44.887613333" lon="-0.577546667">
                <time>2011-08-06T16:52:25Z</time>
                <name>013</name>
                <sym>empty</sym>
                <type>WPT</type>
                <extensions>
                    <opencpn:guid>4889ffff-0d80-45b2-af89-459c26cd0000</opencpn:guid>
                    <opencpn:viz>1</opencpn:viz>
                    <opencpn:viz_name>0</opencpn:viz_name>
                    <opencpn:auto_name>1</opencpn:auto_name>
                    <opencpn:shared>0</opencpn:shared>
                </extensions>
            </trkpt>
            <trkpt lat="44.884305000" lon="-0.559630000">
                <time>2011-08-06T16:53:25Z</time>
                <name>014</name>
                <sym>empty</sym>
                <type>WPT</type>
                <extensions>
                    <opencpn:guid>59ddffff-f45d-4133-b688-a8c77bb7ffff</opencpn:guid>
                    <opencpn:viz>1</opencpn:viz>
                    <opencpn:viz_name>0</opencpn:viz_name>
                    <opencpn:auto_name>1</opencpn:auto_name>
                    <opencpn:shared>0</opencpn:shared>
                </extensions>
            </trkpt>
            <trkpt lat="44.881441667" lon="-0.545275000">
                <time>2011-08-06T16:54:25Z</time>
                <name>015</name>
                <sym>empty</sym>
                <type>WPT</type>
                <extensions>
                    <opencpn:guid>781cffff-f477-454b-be07-b7270ed00000</opencpn:guid>
                    <opencpn:viz>1</opencpn:viz>
                    <opencpn:viz_name>0</opencpn:viz_name>
                    <opencpn:auto_name>1</opencpn:auto_name>
                    <opencpn:shared>0</opencpn:shared>
                </extensions>
            </trkpt>
            <trkpt lat="44.878745000" lon="-0.531228333">
                <time>2011-08-06T16:55:25Z</time>
                <name>016</name>
                <sym>empty</sym>
                <type>WPT</type>
                <extensions>
                    <opencpn:guid>1e360000-3bd4-4315-91b5-58706bc7ffff</opencpn:guid>
                    <opencpn:viz>1</opencpn:viz>
                    <opencpn:viz_name>0</opencpn:viz_name>
                    <opencpn:auto_name>1</opencpn:auto_name>
                    <opencpn:shared>0</opencpn:shared>
                </extensions>
            </trkpt>
            <trkpt lat="44.884461667" lon="-0.517453333">
                <time>2011-08-06T16:56:25Z</time>
                <name>017</name>
                <sym>empty</sym>
                <type>WPT</type>
                <extensions>
                    <opencpn:guid>5c31ffff-c121-439f-8bba-481a3b430000</opencpn:guid>
                    <opencpn:viz>1</opencpn:viz>
                    <opencpn:viz_name>0</opencpn:viz_name>
                    <opencpn:auto_name>1</opencpn:auto_name>
                    <opencpn:shared>0</opencpn:shared>
                </extensions>
            </trkpt>
            <trkpt lat="44.877010000" lon="-0.508771667">
                <time>2011-08-06T16:57:25Z</time>
                <name>018</name>
                <sym>empty</sym>
                <type>WPT</type>
                <extensions>
                    <opencpn:guid>41d6ffff-7a04-42f2-804c-f57347feffff</opencpn:guid>
                    <opencpn:viz>1</opencpn:viz>
                    <opencpn:viz_name>0</opencpn:viz_name>
                    <opencpn:auto_name>1</opencpn:auto_name>
                    <opencpn:shared>0</opencpn:shared>
                </extensions>
            </trkpt>
            <trkpt lat="44.868320000" lon="-0.506466667">
                <time>2011-08-06T16:58:25Z</time>
                <name>019</name>
                <sym>empty</sym>
                <type>WPT</type>
                <extensions>
                    <opencpn:guid>21c40000-59c8-454d-b5f4-8d132a880000</opencpn:guid>
                    <opencpn:viz>1</opencpn:viz>
                    <opencpn:viz_name>0</opencpn:viz_name>
                    <opencpn:auto_name>1</opencpn:auto_name>
                    <opencpn:shared>0</opencpn:shared>
                </extensions>
            </trkpt>
            <trkpt lat="44.867928333" lon="-0.506560000">
                <time>2011-08-06T16:59:25Z</time>
                <name>020</name>
                <sym>empty</sym>
                <type>WPT</type>
                <extensions>
                    <opencpn:guid>05ca0000-0a7a-4cd2-95c5-6b605693ffff</opencpn:guid>
                    <opencpn:viz>1</opencpn:viz>
                    <opencpn:viz_name>0</opencpn:viz_name>
                    <opencpn:auto_name>1</opencpn:auto_name>
                    <opencpn:shared>0</opencpn:shared>
                </extensions>
            </trkpt>
            <trkpt lat="44.868675000" lon="-0.499596667">
                <time>2011-08-06T17:00:25Z</time>
                <name>021</name>
                <sym>empty</sym>
                <type>WPT</type>
                <extensions>
                    <opencpn:guid>07fc0000-a673-4017-8ebb-327620dc0000</opencpn:guid>
                    <opencpn:viz>1</opencpn:viz>
                    <opencpn:viz_name>0</opencpn:viz_name>
                    <opencpn:auto_name>1</opencpn:auto_name>
                    <opencpn:shared>0</opencpn:shared>
                </extensions>
            </trkpt>
            <trkpt lat="44.866126667" lon="-0.479483333">
                <time>2011-08-06T17:01:25Z</time>
                <name>022</name>
                <sym>empty</sym>
                <type>WPT</type>
                <extensions>
                    <opencpn:guid>33800000-6cde-4d82-9a54-f9dd4a20ffff</opencpn:guid>
                    <opencpn:viz>1</opencpn:viz>
                    <opencpn:viz_name>0</opencpn:viz_name>
                    <opencpn:auto_name>1</opencpn:auto_name>
                    <opencpn:shared>0</opencpn:shared>
                </extensions>
            </trkpt>
            <trkpt lat="44.868678333" lon="-0.459225000">
                <time>2011-08-06T17:02:25Z</time>
                <name>023</name>
                <sym>empty</sym>
                <type>WPT</type>
                <extensions>
                    <opencpn:guid>03830000-b6e1-44f6-a8bf-f4356092ffff</opencpn:guid>
                    <opencpn:viz>1</opencpn:viz>
                    <opencpn:viz_name>0</opencpn:viz_name>
                    <opencpn:auto_name>1</opencpn:auto_name>
                    <opencpn:shared>0</opencpn:shared>
                </extensions>
            </trkpt>
            <trkpt lat="44.870445000" lon="-0.439168333">
                <time>2011-08-06T17:03:25Z</time>
                <name>024</name>
                <sym>empty</sym>
                <type>WPT</type>
                <extensions>
                    <opencpn:guid>4a02ffff-77b0-4bb8-9672-efdb709affff</opencpn:guid>
                    <opencpn:viz>1</opencpn:viz>
                    <opencpn:viz_name>0</opencpn:viz_name>
                    <opencpn:auto_name>1</opencpn:auto_name>
                    <opencpn:shared>0</opencpn:shared>
                </extensions>
            </trkpt>
            <trkpt lat="44.877371667" lon="-0.420253333">
                <time>2011-08-06T17:04:25Z</time>
                <name>025</name>
                <sym>empty</sym>
                <type>WPT</type>
                <extensions>
                    <opencpn:guid>4175ffff-a55d-4cb2-bad5-25106427ffff</opencpn:guid>
                    <opencpn:viz>1</opencpn:viz>
                    <opencpn:viz_name>0</opencpn:viz_name>
                    <opencpn:auto_name>1</opencpn:auto_name>
                    <opencpn:shared>0</opencpn:shared>
                </extensions>
            </trkpt>
            <trkpt lat="44.875300000" lon="-0.400700000">
                <time>2011-08-06T17:05:25Z</time>
                <name>026</name>
                <sym>empty</sym>
                <type>WPT</type>
                <extensions>
                    <opencpn:guid>680effff-7268-435a-b903-dae96c42ffff</opencpn:guid>
                    <opencpn:viz>1</opencpn:viz>
                    <opencpn:viz_name>0</opencpn:viz_name>
                    <opencpn:auto_name>1</opencpn:auto_name>
                    <opencpn:shared>0</opencpn:shared>
                </extensions>
            </trkpt>
            <trkpt lat="44.878601667" lon="-0.381135000">
                <time>2011-08-06T17:06:26Z</time>
                <name>027</name>
                <sym>empty</sym>
                <type>WPT</type>
                <extensions>
                    <opencpn:guid>60a8ffff-93e7-4fa0-b293-6c306e24ffff</opencpn:guid>
                    <opencpn:viz>1</opencpn:viz>
                    <opencpn:viz_name>0</opencpn:viz_name>
                    <opencpn:auto_name>1</opencpn:auto_name>
                    <opencpn:shared>0</opencpn:shared>
                </extensions>
            </trkpt>
            <trkpt lat="44.880736667" lon="-0.360430000">
                <time>2011-08-06T17:07:26Z</time>
                <name>028</name>
                <sym>empty</sym>
                <type>WPT</type>
                <extensions>
                    <opencpn:guid>6c37ffff-52fa-4e02-aae4-1e724e58ffff</opencpn:guid>
                    <opencpn:viz>1</opencpn:viz>
                    <opencpn:viz_name>0</opencpn:viz_name>
                    <opencpn:auto_name>1</opencpn:auto_name>
                    <opencpn:shared>0</opencpn:shared>
                </extensions>
            </trkpt>
            <trkpt lat="44.882923333" lon="-0.339365000">
                <time>2011-08-06T17:08:26Z</time>
                <name>029</name>
                <sym>empty</sym>
                <type>WPT</type>
                <extensions>
                    <opencpn:guid>76beffff-3652-4094-b05e-e07f2da10000</opencpn:guid>
                    <opencpn:viz>1</opencpn:viz>
                    <opencpn:viz_name>0</opencpn:viz_name>
                    <opencpn:auto_name>1</opencpn:auto_name>
                    <opencpn:shared>0</opencpn:shared>
                </extensions>
            </trkpt>
            <trkpt lat="44.883450000" lon="-0.318073333">
                <time>2011-08-06T17:09:26Z</time>
                <name>030</name>
                <sym>empty</sym>
                <type>WPT</type>
                <extensions>
                    <opencpn:guid>3ca20000-3bbe-48ad-a6f4-663421710000</opencpn:guid>
                    <opencpn:viz>1</opencpn:viz>
                    <opencpn:viz_name>0</opencpn:viz_name>
                    <opencpn:auto_name>1</opencpn:auto_name>
                    <opencpn:shared>0</opencpn:shared>
                </extensions>
            </trkpt>
            <trkpt lat="44.879538333" lon="-0.297815000">
                <time>2011-08-06T17:10:26Z</time>
                <name>031</name>
                <sym>empty</sym>
                <type>WPT</type>
                <extensions>
                    <opencpn:guid>6d2bffff-ca4b-4ac5-beb3-595e33fe0000</opencpn:guid>
                    <opencpn:viz>1</opencpn:viz>
                    <opencpn:viz_name>0</opencpn:viz_name>
                    <opencpn:auto_name>1</opencpn:auto_name>
                    <opencpn:shared>0</opencpn:shared>
                </extensions>
            </trkpt>
            <trkpt lat="44.872201667" lon="-0.282321667">
                <time>2011-08-06T17:11:26Z</time>
                <name>032</name>
                <sym>empty</sym>
                <type>WPT</type>
                <extensions>
                    <opencpn:guid>23e70000-e1b5-42c5-832c-c02f5206ffff</opencpn:guid>
                    <opencpn:viz>1</opencpn:viz>
                    <opencpn:viz_name>0</opencpn:viz_name>
                    <opencpn:auto_name>1</opencpn:auto_name>
                    <opencpn:shared>0</opencpn:shared>
                </extensions>
            </trkpt>
            <trkpt lat="44.869896667" lon="-0.266291667">
                <time>2011-08-06T17:12:26Z</time>
                <name>033</name>
                <sym>empty</sym>
                <type>WPT</type>
                <extensions>
                    <opencpn:guid>2e350000-b5af-4234-a0b6-af0938be0000</opencpn:guid>
                    <opencpn:viz>1</opencpn:viz>
                    <opencpn:viz_name>0</opencpn:viz_name>
                    <opencpn:auto_name>1</opencpn:auto_name>
                    <opencpn:shared>0</opencpn:shared>
                </extensions>
            </trkpt>
            <trkpt lat="44.867115000" lon="-0.247831667">
                <time>2011-08-06T17:13:26Z</time>
                <name>034</name>
                <sym>empty</sym>
                <type>WPT</type>
                <extensions>
                    <opencpn:guid>03570000-a261-4ac4-b6f9-eec558c0ffff</opencpn:guid>
                    <opencpn:viz>1</opencpn:viz>
                    <opencpn:viz_name>0</opencpn:viz_name>
                    <opencpn:auto_name>1</opencpn:auto_name>
                    <opencpn:shared>0</opencpn:shared>
                </extensions>
            </trkpt>
            <trkpt lat="44.873840000" lon="-0.231753333">
                <time>2011-08-06T17:14:26Z</time>
                <name>035</name>
                <sym>empty</sym>
                <type>WPT</type>
                <extensions>
                    <opencpn:guid>3bc40000-b129-4e0d-9323-385c26e00000</opencpn:guid>
                    <opencpn:viz>1</opencpn:viz>
                    <opencpn:viz_name>0</opencpn:viz_name>
                    <opencpn:auto_name>1</opencpn:auto_name>
                    <opencpn:shared>0</opencpn:shared>
                </extensions>
            </trkpt>
            <trkpt lat="44.885100000" lon="-0.221295000">
                <time>2011-08-06T17:15:26Z</time>
                <name>036</name>
                <sym>empty</sym>
                <type>WPT</type>
                <extensions>
                    <opencpn:guid>33750000-894d-4ae1-b430-c15169e6ffff</opencpn:guid>
                    <opencpn:viz>1</opencpn:viz>
                    <opencpn:viz_name>0</opencpn:viz_name>
                    <opencpn:auto_name>1</opencpn:auto_name>
                    <opencpn:shared>0</opencpn:shared>
                </extensions>
            </trkpt>
            <trkpt lat="44.897465000" lon="-0.215880000">
                <time>2011-08-06T17:16:26Z</time>
                <name>037</name>
                <sym>empty</sym>
                <type>WPT</type>
                <extensions>
                    <opencpn:guid>2dcb0000-d9e5-43e1-a576-a37f2c9d0000</opencpn:guid>
                    <opencpn:viz>1</opencpn:viz>
                    <opencpn:viz_name>0</opencpn:viz_name>
                    <opencpn:auto_name>1</opencpn:auto_name>
                    <opencpn:shared>0</opencpn:shared>
                </extensions>
            </trkpt>
            <trkpt lat="44.899368333" lon="-0.213100000">
                <time>2011-08-06T17:17:26Z</time>
                <name>038</name>
                <sym>empty</sym>
                <type>WPT</type>
                <extensions>
                    <opencpn:guid>64a6ffff-d399-4e90-bc4d-9f7532e70000</opencpn:guid>
                    <opencpn:viz>1</opencpn:viz>
                    <opencpn:viz_name>0</opencpn:viz_name>
                    <opencpn:auto_name>1</opencpn:auto_name>
                    <opencpn:shared>0</opencpn:shared>
                </extensions>
            </trkpt>
            <trkpt lat="44.896888333" lon="-0.207286667">
                <time>2011-08-06T17:18:26Z</time>
                <name>039</name>
                <sym>empty</sym>
                <type>WPT</type>
                <extensions>
                    <opencpn:guid>65a4ffff-18b2-40ce-b993-edc344a4ffff</opencpn:guid>
                    <opencpn:viz>1</opencpn:viz>
                    <opencpn:viz_name>0</opencpn:viz_name>
                    <opencpn:auto_name>1</opencpn:auto_name>
                    <opencpn:shared>0</opencpn:shared>
                </extensions>
            </trkpt>
            <trkpt lat="44.892780000" lon="-0.197545000">
                <time>2011-08-06T17:19:26Z</time>
                <name>040</name>
                <sym>empty</sym>
                <type>WPT</type>
                <extensions>
                    <opencpn:guid>2be90000-a7cb-4886-a997-fb3b1ea30000</opencpn:guid>
                    <opencpn:viz>1</opencpn:viz>
                    <opencpn:viz_name>0</opencpn:viz_name>
                    <opencpn:auto_name>1</opencpn:auto_name>
                    <opencpn:shared>0</opencpn:shared>
                </extensions>
            </trkpt>
            <trkpt lat="44.886970000" lon="-0.183848333">
                <time>2011-08-06T17:20:26Z</time>
                <name>041</name>
                <sym>empty</sym>
                <type>WPT</type>
                <extensions>
                    <opencpn:guid>4fa4ffff-3d36-4273-95b7-b97f53b4ffff</opencpn:guid>
                    <opencpn:viz>1</opencpn:viz>
                    <opencpn:viz_name>0</opencpn:viz_name>
                    <opencpn:auto_name>1</opencpn:auto_name>
                    <opencpn:shared>0</opencpn:shared>
                </extensions>
            </trkpt>
            <trkpt lat="44.880850000" lon="-0.170231667">
                <time>2011-08-06T17:21:26Z</time>
                <name>042</name>
                <sym>empty</sym>
                <type>WPT</type>
                <extensions>
                    <opencpn:guid>799bffff-8709-4e43-b70b-813f60d7ffff</opencpn:guid>
                    <opencpn:viz>1</opencpn:viz>
                    <opencpn:viz_name>0</opencpn:viz_name>
                    <opencpn:auto_name>1</opencpn:auto_name>
                    <opencpn:shared>0</opencpn:shared>
                </extensions>
            </trkpt>
            <trkpt lat="44.875635000" lon="-0.159716667">
                <time>2011-08-06T17:22:26Z</time>
                <name>043</name>
                <sym>empty</sym>
                <type>WPT</type>
                <extensions>
                    <opencpn:guid>07070000-e00d-4ca5-9ee7-c4a71ddd0000</opencpn:guid>
                    <opencpn:viz>1</opencpn:viz>
                    <opencpn:viz_name>0</opencpn:viz_name>
                    <opencpn:auto_name>1</opencpn:auto_name>
                    <opencpn:shared>0</opencpn:shared>
                </extensions>
            </trkpt>
            <trkpt lat="44.870178333" lon="-0.148690000">
                <time>2011-08-06T17:23:26Z</time>
                <name>044</name>
                <sym>empty</sym>
                <type>WPT</type>
                <extensions>
                    <opencpn:guid>7b3fffff-179a-4bf2-8445-01aa17eb0000</opencpn:guid>
                    <opencpn:viz>1</opencpn:viz>
                    <opencpn:viz_name>0</opencpn:viz_name>
                    <opencpn:auto_name>1</opencpn:auto_name>
                    <opencpn:shared>0</opencpn:shared>
                </extensions>
            </trkpt>
            <trkpt lat="44.862886667" lon="-0.134015000">
                <time>2011-08-06T17:24:26Z</time>
                <name>045</name>
                <sym>empty</sym>
                <type>WPT</type>
                <extensions>
                    <opencpn:guid>4c74ffff-b3cb-4e32-b573-94bd7e82ffff</opencpn:guid>
                    <opencpn:viz>1</opencpn:viz>
                    <opencpn:viz_name>0</opencpn:viz_name>
                    <opencpn:auto_name>1</opencpn:auto_name>
                    <opencpn:shared>0</opencpn:shared>
                </extensions>
            </trkpt>
            <trkpt lat="44.855765000" lon="-0.119596667">
                <time>2011-08-06T17:25:26Z</time>
                <name>046</name>
                <sym>empty</sym>
                <type>WPT</type>
                <extensions>
                    <opencpn:guid>465dffff-7a5a-4818-9442-62f632270000</opencpn:guid>
                    <opencpn:viz>1</opencpn:viz>
                    <opencpn:viz_name>0</opencpn:viz_name>
                    <opencpn:auto_name>1</opencpn:auto_name>
                    <opencpn:shared>0</opencpn:shared>
                </extensions>
            </trkpt>
            <trkpt lat="44.855646667" lon="-0.112121667">
                <time>2011-08-06T17:26:26Z</time>
                <name>047</name>
                <sym>empty</sym>
                <type>WPT</type>
                <extensions>
                    <opencpn:guid>6815ffff-f6c5-46c3-84b8-746e6343ffff</opencpn:guid>
                    <opencpn:viz>1</opencpn:viz>
                    <opencpn:viz_name>0</opencpn:viz_name>
                    <opencpn:auto_name>1</opencpn:auto_name>
                    <opencpn:shared>0</opencpn:shared>
                </extensions>
            </trkpt>
            <trkpt lat="44.855318333" lon="-0.097516667">
                <time>2011-08-06T17:27:27Z</time>
                <name>048</name>
                <sym>empty</sym>
                <type>WPT</type>
                <extensions>
                    <opencpn:guid>29580000-3882-4aa5-8ea6-40f83aca0000</opencpn:guid>
                    <opencpn:viz>1</opencpn:viz>
                    <opencpn:viz_name>0</opencpn:viz_name>
                    <opencpn:auto_name>1</opencpn:auto_name>
                    <opencpn:shared>0</opencpn:shared>
                </extensions>
            </trkpt>
            <trkpt lat="44.854980000" lon="-0.080696667">
                <time>2011-08-06T17:28:27Z</time>
                <name>049</name>
                <sym>empty</sym>
                <type>WPT</type>
                <extensions>
                    <opencpn:guid>628effff-9dc9-4fc7-90ac-1b6c5533ffff</opencpn:guid>
                    <opencpn:viz>1</opencpn:viz>
                    <opencpn:viz_name>0</opencpn:viz_name>
                    <opencpn:auto_name>1</opencpn:auto_name>
                    <opencpn:shared>0</opencpn:shared>
                </extensions>
            </trkpt>
            <trkpt lat="44.854591667" lon="-0.064141667">
                <time>2011-08-06T17:29:27Z</time>
                <name>050</name>
                <sym>empty</sym>
                <type>WPT</type>
                <extensions>
                    <opencpn:guid>5a18ffff-197e-4cf5-86a5-141e1eee0000</opencpn:guid>
                    <opencpn:viz>1</opencpn:viz>
                    <opencpn:viz_name>0</opencpn:viz_name>
                    <opencpn:auto_name>1</opencpn:auto_name>
                    <opencpn:shared>0</opencpn:shared>
                </extensions>
            </trkpt>
            <trkpt lat="44.854420000" lon="-0.053850000">
                <time>2011-08-06T17:30:27Z</time>
                <name>051</name>
                <sym>empty</sym>
                <type>WPT</type>
                <extensions>
                    <opencpn:guid>48e8ffff-06ca-483c-8aba-25c833150000</opencpn:guid>
                    <opencpn:viz>1</opencpn:viz>
                    <opencpn:viz_name>0</opencpn:viz_name>
                    <opencpn:auto_name>1</opencpn:auto_name>
                    <opencpn:shared>0</opencpn:shared>
                </extensions>
            </trkpt>
            <trkpt lat="44.855455000" lon="-0.047500000">
                <time>2011-08-06T17:31:27Z</time>
                <name>052</name>
                <sym>empty</sym>
                <type>WPT</type>
                <extensions>
                    <opencpn:guid>3d130000-3eb8-4fd1-9f8d-02a85f04ffff</opencpn:guid>
                    <opencpn:viz>1</opencpn:viz>
                    <opencpn:viz_name>0</opencpn:viz_name>
                    <opencpn:auto_name>1</opencpn:auto_name>
                    <opencpn:shared>0</opencpn:shared>
                </extensions>
            </trkpt>
            <trkpt lat="44.854485000" lon="-0.042178333">
                <time>2011-08-06T17:32:27Z</time>
                <name>053</name>
                <sym>empty</sym>
                <type>WPT</type>
                <extensions>
                    <opencpn:guid>5ce1ffff-6296-4bc9-a59b-71c642eeffff</opencpn:guid>
                    <opencpn:viz>1</opencpn:viz>
                    <opencpn:viz_name>0</opencpn:viz_name>
                    <opencpn:auto_name>1</opencpn:auto_name>
                    <opencpn:shared>0</opencpn:shared>
                </extensions>
            </trkpt>
            <trkpt lat="44.857060000" lon="-0.033006667">
                <time>2011-08-06T17:33:27Z</time>
                <name>054</name>
                <sym>empty</sym>
                <type>WPT</type>
                <extensions>
                    <opencpn:guid>1c2f0000-b2f3-41d5-ba9b-e1f77e95ffff</opencpn:guid>
                    <opencpn:viz>1</opencpn:viz>
                    <opencpn:viz_name>0</opencpn:viz_name>
                    <opencpn:auto_name>1</opencpn:auto_name>
                    <opencpn:shared>0</opencpn:shared>
                </extensions>
            </trkpt>
            <trkpt lat="44.858640000" lon="-0.018946667">
                <time>2011-08-06T17:34:27Z</time>
                <name>055</name>
                <sym>empty</sym>
                <type>WPT</type>
                <extensions>
                    <opencpn:guid>50fbffff-123e-4fc6-ac71-37847174ffff</opencpn:guid>
                    <opencpn:viz>1</opencpn:viz>
                    <opencpn:viz_name>0</opencpn:viz_name>
                    <opencpn:auto_name>1</opencpn:auto_name>
                    <opencpn:shared>0</opencpn:shared>
                </extensions>
            </trkpt>
            <trkpt lat="44.857528333" lon="-0.004208333">
                <time>2011-08-06T17:35:27Z</time>
                <name>056</name>
                <sym>empty</sym>
                <type>WPT</type>
                <extensions>
                    <opencpn:guid>3f970000-8a5d-46be-bd5f-3fc01b8b0000</opencpn:guid>
                    <opencpn:viz>1</opencpn:viz>
                    <opencpn:viz_name>0</opencpn:viz_name>
                    <opencpn:auto_name>1</opencpn:auto_name>
                    <opencpn:shared>0</opencpn:shared>
                </extensions>
            </trkpt>
            <trkpt lat="44.854110000" lon="0.011255000">
                <time>2011-08-06T17:36:27Z</time>
                <name>057</name>
                <sym>empty</sym>
                <type>WPT</type>
                <extensions>
                    <opencpn:guid>0d140000-d899-4daf-a7f3-fd150c420000</opencpn:guid>
                    <opencpn:viz>1</opencpn:viz>
                    <opencpn:viz_name>0</opencpn:viz_name>
                    <opencpn:auto_name>1</opencpn:auto_name>
                    <opencpn:shared>0</opencpn:shared>
                </extensions>
            </trkpt>
            <trkpt lat="44.852048333" lon="0.022333333">
                <time>2011-08-06T17:37:27Z</time>
                <name>058</name>
                <sym>empty</sym>
                <type>WPT</type>
                <extensions>
                    <opencpn:guid>2a530000-6472-4406-824f-ee5b05fb0000</opencpn:guid>
                    <opencpn:viz>1</opencpn:viz>
                    <opencpn:viz_name>0</opencpn:viz_name>
                    <opencpn:auto_name>1</opencpn:auto_name>
                    <opencpn:shared>0</opencpn:shared>
                </extensions>
            </trkpt>
            <trkpt lat="44.852106667" lon="0.033610000">
                <time>2011-08-06T17:38:28Z</time>
                <name>059</name>
                <sym>empty</sym>
                <type>WPT</type>
                <extensions>
                    <opencpn:guid>743dffff-b9cb-4c8e-8dd2-060650a2ffff</opencpn:guid>
                    <opencpn:viz>1</opencpn:viz>
                    <opencpn:viz_name>0</opencpn:viz_name>
                    <opencpn:auto_name>1</opencpn:auto_name>
                    <opencpn:shared>0</opencpn:shared>
                </extensions>
            </trkpt>
            <trkpt lat="44.852706667" lon="0.048713333">
                <time>2011-08-06T17:39:28Z</time>
                <name>060</name>
                <sym>empty</sym>
                <type>WPT</type>
                <extensions>
                    <opencpn:guid>6215ffff-41ea-4842-9d2d-f29b311d0000</opencpn:guid>
                    <opencpn:viz>1</opencpn:viz>
                    <opencpn:viz_name>0</opencpn:viz_name>
                    <opencpn:auto_name>1</opencpn:auto_name>
                    <opencpn:shared>0</opencpn:shared>
                </extensions>
            </trkpt>
            <trkpt lat="44.852810000" lon="0.061965000">
                <time>2011-08-06T17:40:28Z</time>
                <name>061</name>
                <sym>empty</sym>
                <type>WPT</type>
                <extensions>
                    <opencpn:guid>032b0000-2102-4c65-a6f4-9809027a0000</opencpn:guid>
                    <opencpn:viz>1</opencpn:viz>
                    <opencpn:viz_name>0</opencpn:viz_name>
                    <opencpn:auto_name>1</opencpn:auto_name>
                    <opencpn:shared>0</opencpn:shared>
                </extensions>
            </trkpt>
            <trkpt lat="44.853438333" lon="0.073933333">
                <time>2011-08-06T17:41:28Z</time>
                <name>062</name>
                <sym>empty</sym>
                <type>WPT</type>
                <extensions>
                    <opencpn:guid>20610000-f70d-42e0-8f23-5996228f0000</opencpn:guid>
                    <opencpn:viz>1</opencpn:viz>
                    <opencpn:viz_name>0</opencpn:viz_name>
                    <opencpn:auto_name>1</opencpn:auto_name>
                    <opencpn:shared>0</opencpn:shared>
                </extensions>
            </trkpt>
            <trkpt lat="44.851936667" lon="0.091258333">
                <time>2011-08-06T17:42:28Z</time>
                <name>063</name>
                <sym>empty</sym>
                <type>WPT</type>
                <extensions>
                    <opencpn:guid>6cd1ffff-764e-464d-b5f8-f3f34c6fffff</opencpn:guid>
                    <opencpn:viz>1</opencpn:viz>
                    <opencpn:viz_name>0</opencpn:viz_name>
                    <opencpn:auto_name>1</opencpn:auto_name>
                    <opencpn:shared>0</opencpn:shared>
                </extensions>
            </trkpt>
            <trkpt lat="44.850316667" lon="0.103135000">
                <time>2011-08-06T17:43:28Z</time>
                <name>064</name>
                <sym>empty</sym>
                <type>WPT</type>
                <extensions>
                    <opencpn:guid>77bfffff-86d3-4d16-bbb7-c6e913910000</opencpn:guid>
                    <opencpn:viz>1</opencpn:viz>
                    <opencpn:viz_name>0</opencpn:viz_name>
                    <opencpn:auto_name>1</opencpn:auto_name>
                    <opencpn:shared>0</opencpn:shared>
                </extensions>
            </trkpt>
            <trkpt lat="44.849030000" lon="0.117441667">
                <time>2011-08-06T17:44:28Z</time>
                <name>065</name>
                <sym>empty</sym>
                <type>WPT</type>
                <extensions>
                    <opencpn:guid>0eb50000-28a4-441e-a3ee-c4d729ee0000</opencpn:guid>
                    <opencpn:viz>1</opencpn:viz>
                    <opencpn:viz_name>0</opencpn:viz_name>
                    <opencpn:auto_name>1</opencpn:auto_name>
                    <opencpn:shared>0</opencpn:shared>
                </extensions>
            </trkpt>
            <trkpt lat="44.847185000" lon="0.134315000">
                <time>2011-08-06T17:45:28Z</time>
                <name>066</name>
                <sym>empty</sym>
                <type>WPT</type>
                <extensions>
                    <opencpn:guid>2c270000-16e0-464c-8a6e-bf1f6b8fffff</opencpn:guid>
                    <opencpn:viz>1</opencpn:viz>
                    <opencpn:viz_name>0</opencpn:viz_name>
                    <opencpn:auto_name>1</opencpn:auto_name>
                    <opencpn:shared>0</opencpn:shared>
                </extensions>
            </trkpt>
            <trkpt lat="44.843096667" lon="0.144325000">
                <time>2011-08-06T17:46:28Z</time>
                <name>067</name>
                <sym>empty</sym>
                <type>WPT</type>
                <extensions>
                    <opencpn:guid>32ac0000-e3e3-4904-a1bc-bec12fb10000</opencpn:guid>
                    <opencpn:viz>1</opencpn:viz>
                    <opencpn:viz_name>0</opencpn:viz_name>
                    <opencpn:auto_name>1</opencpn:auto_name>
                    <opencpn:shared>0</opencpn:shared>
                </extensions>
            </trkpt>
            <trkpt lat="44.835325000" lon="0.157545000">
                <time>2011-08-06T17:47:28Z</time>
                <name>068</name>
                <sym>empty</sym>
                <type>WPT</type>
                <extensions>
                    <opencpn:guid>12010000-3fde-4535-b584-5c064089ffff</opencpn:guid>
                    <opencpn:viz>1</opencpn:viz>
                    <opencpn:viz_name>0</opencpn:viz_name>
                    <opencpn:auto_name>1</opencpn:auto_name>
                    <opencpn:shared>0</opencpn:shared>
                </extensions>
            </trkpt>
            <trkpt lat="44.832956667" lon="0.172565000">
                <time>2011-08-06T17:48:28Z</time>
                <name>069</name>
                <sym>empty</sym>
                <type>WPT</type>
                <extensions>
                    <opencpn:guid>0e8f0000-74c4-4265-93c5-b7754e36ffff</opencpn:guid>
                    <opencpn:viz>1</opencpn:viz>
                    <opencpn:viz_name>0</opencpn:viz_name>
                    <opencpn:auto_name>1</opencpn:auto_name>
                    <opencpn:shared>0</opencpn:shared>
                </extensions>
            </trkpt>
            <trkpt lat="44.832808333" lon="0.186336667">
                <time>2011-08-06T17:49:28Z</time>
                <name>070</name>
                <sym>empty</sym>
                <type>WPT</type>
                <extensions>
                    <opencpn:guid>0b1f0000-ab81-4cfb-88e9-abad55fbffff</opencpn:guid>
                    <opencpn:viz>1</opencpn:viz>
                    <opencpn:viz_name>0</opencpn:viz_name>
                    <opencpn:auto_name>1</opencpn:auto_name>
                    <opencpn:shared>0</opencpn:shared>
                </extensions>
            </trkpt>
            <trkpt lat="44.834073333" lon="0.197948333">
                <time>2011-08-06T17:50:28Z</time>
                <name>071</name>
                <sym>empty</sym>
                <type>WPT</type>
                <extensions>
                    <opencpn:guid>3ad20000-6b60-4abf-8044-29966a05ffff</opencpn:guid>
                    <opencpn:viz>1</opencpn:viz>
                    <opencpn:viz_name>0</opencpn:viz_name>
                    <opencpn:auto_name>1</opencpn:auto_name>
                    <opencpn:shared>0</opencpn:shared>
                </extensions>
            </trkpt>
            <trkpt lat="44.828105000" lon="0.212563333">
                <time>2011-08-06T17:51:28Z</time>
                <name>072</name>
                <sym>empty</sym>
                <type>WPT</type>
                <extensions>
                    <opencpn:guid>5d8cffff-f881-46f9-ac7b-be097a29ffff</opencpn:guid>
                    <opencpn:viz>1</opencpn:viz>
                    <opencpn:viz_name>0</opencpn:viz_name>
                    <opencpn:auto_name>1</opencpn:auto_name>
                    <opencpn:shared>0</opencpn:shared>
                </extensions>
            </trkpt>
            <trkpt lat="44.826430000" lon="0.224151667">
                <time>2011-08-06T17:52:28Z</time>
                <name>073</name>
                <sym>empty</sym>
                <type>WPT</type>
                <extensions>
                    <opencpn:guid>36260000-63ae-4f32-8496-7fee1d7d0000</opencpn:guid>
                    <opencpn:viz>1</opencpn:viz>
                    <opencpn:viz_name>0</opencpn:viz_name>
                    <opencpn:auto_name>1</opencpn:auto_name>
                    <opencpn:shared>0</opencpn:shared>
                </extensions>
            </trkpt>
            <trkpt lat="44.830186667" lon="0.235035000">
                <time>2011-08-06T17:53:29Z</time>
                <name>074</name>
                <sym>empty</sym>
                <type>WPT</type>
                <extensions>
                    <opencpn:guid>720bffff-114c-49ec-b28d-63464a8fffff</opencpn:guid>
                    <opencpn:viz>1</opencpn:viz>
                    <opencpn:viz_name>0</opencpn:viz_name>
                    <opencpn:auto_name>1</opencpn:auto_name>
                    <opencpn:shared>0</opencpn:shared>
                </extensions>
            </trkpt>
            <trkpt lat="44.837515000" lon="0.238571667">
                <time>2011-08-06T17:54:29Z</time>
                <name>075</name>
                <sym>empty</sym>
                <type>WPT</type>
                <extensions>
                    <opencpn:guid>0d9e0000-24c2-480f-a4ea-f91d551affff</opencpn:guid>
                    <opencpn:viz>1</opencpn:viz>
                    <opencpn:viz_name>0</opencpn:viz_name>
                    <opencpn:auto_name>1</opencpn:auto_name>
                    <opencpn:shared>0</opencpn:shared>
                </extensions>
            </trkpt>
            <trkpt lat="44.841301667" lon="0.249966667">
                <time>2011-08-06T17:55:29Z</time>
                <name>076</name>
                <sym>empty</sym>
                <type>WPT</type>
                <extensions>
                    <opencpn:guid>205c0000-4c38-477b-9b4e-a18f539dffff</opencpn:guid>
                    <opencpn:viz>1</opencpn:viz>
                    <opencpn:viz_name>0</opencpn:viz_name>
                    <opencpn:auto_name>1</opencpn:auto_name>
                    <opencpn:shared>0</opencpn:shared>
                </extensions>
            </trkpt>
            <trkpt lat="44.840661667" lon="0.262071667">
                <time>2011-08-06T17:56:29Z</time>
                <name>077</name>
                <sym>empty</sym>
                <type>WPT</type>
                <extensions>
                    <opencpn:guid>4bdaffff-49a6-421b-a414-8f2105330000</opencpn:guid>
                    <opencpn:viz>1</opencpn:viz>
                    <opencpn:viz_name>0</opencpn:viz_name>
                    <opencpn:auto_name>1</opencpn:auto_name>
                    <opencpn:shared>0</opencpn:shared>
                </extensions>
            </trkpt>
            <trkpt lat="44.839821667" lon="0.278766667">
                <time>2011-08-06T17:57:29Z</time>
                <name>078</name>
                <sym>empty</sym>
                <type>WPT</type>
                <extensions>
                    <opencpn:guid>049c0000-2b9e-4e86-a718-90e53bd00000</opencpn:guid>
                    <opencpn:viz>1</opencpn:viz>
                    <opencpn:viz_name>0</opencpn:viz_name>
                    <opencpn:auto_name>1</opencpn:auto_name>
                    <opencpn:shared>0</opencpn:shared>
                </extensions>
            </trkpt>
            <trkpt lat="44.838861667" lon="0.296128333">
                <time>2011-08-06T17:58:29Z</time>
                <name>079</name>
                <sym>empty</sym>
                <type>WPT</type>
                <extensions>
                    <opencpn:guid>1cd90000-df1f-40d3-a7cd-58224be0ffff</opencpn:guid>
                    <opencpn:viz>1</opencpn:viz>
                    <opencpn:viz_name>0</opencpn:viz_name>
                    <opencpn:auto_name>1</opencpn:auto_name>
                    <opencpn:shared>0</opencpn:shared>
                </extensions>
            </trkpt>
            <trkpt lat="44.837913333" lon="0.313208333">
                <time>2011-08-06T17:59:29Z</time>
                <name>080</name>
                <sym>empty</sym>
                <type>WPT</type>
                <extensions>
                    <opencpn:guid>377b0000-1900-4648-8df9-662438520000</opencpn:guid>
                    <opencpn:viz>1</opencpn:viz>
                    <opencpn:viz_name>0</opencpn:viz_name>
                    <opencpn:auto_name>1</opencpn:auto_name>
                    <opencpn:shared>0</opencpn:shared>
                </extensions>
            </trkpt>
            <trkpt lat="44.837103333" lon="0.327621667">
                <time>2011-08-06T18:00:29Z</time>
                <name>081</name>
                <sym>empty</sym>
                <type>WPT</type>
                <extensions>
                    <opencpn:guid>169a0000-8ead-42af-83b5-17600f110000</opencpn:guid>
                    <opencpn:viz>1</opencpn:viz>
                    <opencpn:viz_name>0</opencpn:viz_name>
                    <opencpn:auto_name>1</opencpn:auto_name>
                    <opencpn:shared>0</opencpn:shared>
                </extensions>
            </trkpt>
            <trkpt lat="44.836996667" lon="0.335080000">
                <time>2011-08-06T18:01:29Z</time>
                <name>082</name>
                <sym>empty</sym>
                <type>WPT</type>
                <extensions>
                    <opencpn:guid>079f0000-1eaa-4f83-8af7-4f6e6ae7ffff</opencpn:guid>
                    <opencpn:viz>1</opencpn:viz>
                    <opencpn:viz_name>0</opencpn:viz_name>
                    <opencpn:auto_name>1</opencpn:auto_name>
                    <opencpn:shared>0</opencpn:shared>
                </extensions>
            </trkpt>
            <trkpt lat="44.838405000" lon="0.345920000">
                <time>2011-08-06T18:02:29Z</time>
                <name>083</name>
                <sym>empty</sym>
                <type>WPT</type>
                <extensions>
                    <opencpn:guid>785affff-c1e9-46aa-a97d-99ab03c40000</opencpn:guid>
                    <opencpn:viz>1</opencpn:viz>
                    <opencpn:viz_name>0</opencpn:viz_name>
                    <opencpn:auto_name>1</opencpn:auto_name>
                    <opencpn:shared>0</opencpn:shared>
                </extensions>
            </trkpt>
            <trkpt lat="44.840341667" lon="0.360976667">
                <time>2011-08-06T18:03:29Z</time>
                <name>084</name>
                <sym>empty</sym>
                <type>WPT</type>
                <extensions>
                    <opencpn:guid>0e950000-4586-4c0c-879d-5c8a4a71ffff</opencpn:guid>
                    <opencpn:viz>1</opencpn:viz>
                    <opencpn:viz_name>0</opencpn:viz_name>
                    <opencpn:auto_name>1</opencpn:auto_name>
                    <opencpn:shared>0</opencpn:shared>
                </extensions>
            </trkpt>
            <trkpt lat="44.842243333" lon="0.375695000">
                <time>2011-08-06T18:04:29Z</time>
                <name>085</name>
                <sym>empty</sym>
                <type>WPT</type>
                <extensions>
                    <opencpn:guid>51eeffff-933f-430a-8048-32264870ffff</opencpn:guid>
                    <opencpn:viz>1</opencpn:viz>
                    <opencpn:viz_name>0</opencpn:viz_name>
                    <opencpn:auto_name>1</opencpn:auto_name>
                    <opencpn:shared>0</opencpn:shared>
                </extensions>
            </trkpt>
            <trkpt lat="44.841755000" lon="0.385690000">
                <time>2011-08-06T18:05:29Z</time>
                <name>086</name>
                <sym>empty</sym>
                <type>WPT</type>
                <extensions>
                    <opencpn:guid>6942ffff-53f8-4ce8-b862-c0632ae80000</opencpn:guid>
                    <opencpn:viz>1</opencpn:viz>
                    <opencpn:viz_name>0</opencpn:viz_name>
                    <opencpn:auto_name>1</opencpn:auto_name>
                    <opencpn:shared>0</opencpn:shared>
                </extensions>
            </trkpt>
            <trkpt lat="44.839655000" lon="0.396836667">
                <time>2011-08-06T18:06:29Z</time>
                <name>087</name>
                <sym>empty</sym>
                <type>WPT</type>
                <extensions>
                    <opencpn:guid>483bffff-611a-4945-ae7e-fdd96bacffff</opencpn:guid>
                    <opencpn:viz>1</opencpn:viz>
                    <opencpn:viz_name>0</opencpn:viz_name>
                    <opencpn:auto_name>1</opencpn:auto_name>
                    <opencpn:shared>0</opencpn:shared>
                </extensions>
            </trkpt>
            <trkpt lat="44.836595000" lon="0.413126667">
                <time>2011-08-06T18:07:30Z</time>
                <name>088</name>
                <sym>empty</sym>
                <type>WPT</type>
                <extensions>
                    <opencpn:guid>11b10000-1434-4444-99c2-bdbd2d640000</opencpn:guid>
                    <opencpn:viz>1</opencpn:viz>
                    <opencpn:viz_name>0</opencpn:viz_name>
                    <opencpn:auto_name>1</opencpn:auto_name>
                    <opencpn:shared>0</opencpn:shared>
                </extensions>
            </trkpt>
            <trkpt lat="44.834110000" lon="0.429128333">
                <time>2011-08-06T18:08:30Z</time>
                <name>089</name>
                <sym>empty</sym>
                <type>WPT</type>
                <extensions>
                    <opencpn:guid>4074ffff-ae2b-4156-89b5-09ec492bffff</opencpn:guid>
                    <opencpn:viz>1</opencpn:viz>
                    <opencpn:viz_name>0</opencpn:viz_name>
                    <opencpn:auto_name>1</opencpn:auto_name>
                    <opencpn:shared>0</opencpn:shared>
                </extensions>
            </trkpt>
            <trkpt lat="44.833775000" lon="0.441373333">
                <time>2011-08-06T18:09:30Z</time>
                <name>090</name>
                <sym>empty</sym>
                <type>WPT</type>
                <extensions>
                    <opencpn:guid>3c0c0000-98a5-44f2-8bd0-36fa036a0000</opencpn:guid>
                    <opencpn:viz>1</opencpn:viz>
                    <opencpn:viz_name>0</opencpn:viz_name>
                    <opencpn:auto_name>1</opencpn:auto_name>
                    <opencpn:shared>0</opencpn:shared>
                </extensions>
            </trkpt>
            <trkpt lat="44.835816667" lon="0.451928333">
                <time>2011-08-06T18:10:30Z</time>
                <name>091</name>
                <sym>empty</sym>
                <type>WPT</type>
                <extensions>
                    <opencpn:guid>18240000-954d-4cf8-90c4-62b47f53ffff</opencpn:guid>
                    <opencpn:viz>1</opencpn:viz>
                    <opencpn:viz_name>0</opencpn:viz_name>
                    <opencpn:auto_name>1</opencpn:auto_name>
                    <opencpn:shared>0</opencpn:shared>
                </extensions>
            </trkpt>
            <trkpt lat="44.839743333" lon="0.460890000">
                <time>2011-08-06T18:11:30Z</time>
                <name>092</name>
                <sym>empty</sym>
                <type>WPT</type>
                <extensions>
                    <opencpn:guid>5473ffff-17c0-4ad4-9940-b0252d7d0000</opencpn:guid>
                    <opencpn:viz>1</opencpn:viz>
                    <opencpn:viz_name>0</opencpn:viz_name>
                    <opencpn:auto_name>1</opencpn:auto_name>
                    <opencpn:shared>0</opencpn:shared>
                </extensions>
            </trkpt>
            <trkpt lat="44.838681667" lon="0.462655000">
                <time>2011-08-06T18:12:30Z</time>
                <name>093</name>
                <sym>empty</sym>
                <type>WPT</type>
                <extensions>
                    <opencpn:guid>4890ffff-15e4-4467-a784-e74d06550000</opencpn:guid>
                    <opencpn:viz>1</opencpn:viz>
                    <opencpn:viz_name>0</opencpn:viz_name>
                    <opencpn:auto_name>1</opencpn:auto_name>
                    <opencpn:shared>0</opencpn:shared>
                </extensions>
            </trkpt>
            <trkpt lat="44.837016667" lon="0.464693333">
                <time>2011-08-06T18:13:30Z</time>
                <name>094</name>
                <sym>empty</sym>
                <type>WPT</type>
                <extensions>
                    <opencpn:guid>3ecb0000-a72f-4727-9bc3-9a9b4f2cffff</opencpn:guid>
                    <opencpn:viz>1</opencpn:viz>
                    <opencpn:viz_name>0</opencpn:viz_name>
                    <opencpn:auto_name>1</opencpn:auto_name>
                    <opencpn:shared>0</opencpn:shared>
                </extensions>
            </trkpt>
        </trkseg>
    </trk>
</gpx>
