<?xml version="1.0"?>
<gpx version="1.1" creator="OpenCPN" xmlns:xsi="http://www.w3.org/2001/XMLSchema-instance" xmlns="http://www.topografix.com/GPX/1/1" xmlns:gpxx="http://www.garmin.com/xmlschemas/GpxExtensions/v3" xsi:schemaLocation="http://www.topografix.com/GPX/1/1 http://www.topografix.com/GPX/1/1/gpx.xsd" xmlns:opencpn="http://www.opencpn.org">
  <wpt lat="47.406835000" lon="-3.000983333">
    <time>2018-07-26T12:37:20Z</time>
    <name>ATT Beniguet</name>
    <sym>triangle</sym>
    <type>WPT</type>
    <extensions>
      <opencpn:guid>58393b47-760a-43fd-8e05-7e781e25fcc7</opencpn:guid>
      <opencpn:viz_name>1</opencpn:viz_name>
      <opencpn:arrival_radius>0.050</opencpn:arrival_radius>
      <opencpn:waypoint_range_rings visible="false" number="0" step="1" units="0" colour="#FF0000" />
    </extensions>
  </wpt>
  <wpt lat="47.421088333" lon="-2.938413333">
    <time>2018-07-26T13:14:45Z</time>
    <name>N_La_Vieille</name>
    <desc>Relevee le 26//07/2018
Au nord des 2 bouées du parc a moules</desc>
    <sym>triangle</sym>
    <type>WPT</type>
    <extensions>
      <opencpn:guid>1ab559ca-d12d-4c4f-a28c-f4024d357bc5</opencpn:guid>
      <opencpn:viz_name>1</opencpn:viz_name>
      <opencpn:arrival_radius>0.050</opencpn:arrival_radius>
      <opencpn:waypoint_range_rings visible="false" number="0" step="1" units="0" colour="#FF0000" />
    </extensions>
  </wpt>
  <wpt lat="47.483786667" lon="-2.581233333">
    <time>2018-07-26T16:38:26Z</time>
    <name>S_Les_mats</name>
    <desc>Relevee le 26/07/2018</desc>
    <sym>triangle</sym>
    <type>WPT</type>
    <extensions>
      <opencpn:guid>18fc71a6-54dd-4cf1-b694-9a8c7e98f2ea</opencpn:guid>
      <opencpn:viz_name>1</opencpn:viz_name>
      <opencpn:arrival_radius>0.050</opencpn:arrival_radius>
      <opencpn:waypoint_range_rings visible="false" number="0" step="1" units="0" colour="#FF0000" />
    </extensions>
  </wpt>
  <trk>
    <extensions>
      <opencpn:guid>2a72428f-17d3-41b6-a15a-d8b657d4ede5</opencpn:guid>
      <opencpn:viz>1</opencpn:viz>
      <gpxx:TrackExtension>
        <gpxx:DisplayColor>Red</gpxx:DisplayColor>
      </gpxx:TrackExtension>
    </extensions>
    <trkseg>
      <trkpt lat="47.347686667" lon="-3.151626667">
        <time>2018-07-24T06:49:43Z</time>
      </trkpt>
      <trkpt lat="47.347658333" lon="-3.151673333">
        <time>2018-07-24T07:13:29Z</time>
      </trkpt>
      <trkpt lat="47.347535000" lon="-3.151621667">
        <time>2018-07-24T07:13:45Z</time>
      </trkpt>
      <trkpt lat="47.347246667" lon="-3.151666667">
        <time>2018-07-24T07:14:11Z</time>
      </trkpt>
      <trkpt lat="47.347113333" lon="-3.151811667">
        <time>2018-07-24T07:37:19Z</time>
      </trkpt>
      <trkpt lat="47.347190000" lon="-3.151735000">
        <time>2018-07-24T07:38:09Z</time>
      </trkpt>
      <trkpt lat="47.347325000" lon="-3.151788333">
        <time>2018-07-24T07:38:34Z</time>
      </trkpt>
      <trkpt lat="47.347190000" lon="-3.151106667">
        <time>2018-07-24T07:39:38Z</time>
      </trkpt>
      <trkpt lat="47.346920000" lon="-3.150238333">
        <time>2018-07-24T07:40:21Z</time>
      </trkpt>
      <trkpt lat="47.346821667" lon="-3.149748333">
        <time>2018-07-24T07:40:41Z</time>
      </trkpt>
      <trkpt lat="47.346790000" lon="-3.149420000">
        <time>2018-07-24T07:40:56Z</time>
      </trkpt>
      <trkpt lat="47.346835000" lon="-3.149283333">
        <time>2018-07-24T07:41:06Z</time>
      </trkpt>
      <trkpt lat="47.347078333" lon="-3.149136667">
        <time>2018-07-24T07:41:38Z</time>
      </trkpt>
      <trkpt lat="47.347140000" lon="-3.149050000">
        <time>2018-07-24T07:41:48Z</time>
      </trkpt>
      <trkpt lat="47.347148333" lon="-3.148796667">
        <time>2018-07-24T07:42:04Z</time>
      </trkpt>
      <trkpt lat="47.347093333" lon="-3.148366667">
        <time>2018-07-24T07:42:29Z</time>
      </trkpt>
      <trkpt lat="47.346676667" lon="-3.146381667">
        <time>2018-07-24T07:44:14Z</time>
      </trkpt>
      <trkpt lat="47.346175000" lon="-3.143568333">
        <time>2018-07-24T07:46:55Z</time>
      </trkpt>
      <trkpt lat="47.345933333" lon="-3.141600000">
        <time>2018-07-24T07:48:18Z</time>
      </trkpt>
      <trkpt lat="47.345800000" lon="-3.141033333">
        <time>2018-07-24T07:48:43Z</time>
      </trkpt>
      <trkpt lat="47.345766667" lon="-3.140700000">
        <time>2018-07-24T07:48:57Z</time>
      </trkpt>
      <trkpt lat="47.345783333" lon="-3.140216667">
        <time>2018-07-24T07:49:15Z</time>
      </trkpt>
      <trkpt lat="47.345516667" lon="-3.138616667">
        <time>2018-07-24T07:50:18Z</time>
      </trkpt>
      <trkpt lat="47.345350000" lon="-3.138050000">
        <time>2018-07-24T07:50:43Z</time>
      </trkpt>
      <trkpt lat="47.345183333" lon="-3.137333333">
        <time>2018-07-24T07:51:11Z</time>
      </trkpt>
      <trkpt lat="47.345150000" lon="-3.136850000">
        <time>2018-07-24T07:51:32Z</time>
      </trkpt>
      <trkpt lat="47.344616667" lon="-3.134916667">
        <time>2018-07-24T07:53:01Z</time>
      </trkpt>
      <trkpt lat="47.344400000" lon="-3.133966667">
        <time>2018-07-24T07:53:48Z</time>
      </trkpt>
      <trkpt lat="47.344066667" lon="-3.132800000">
        <time>2018-07-24T07:54:45Z</time>
      </trkpt>
      <trkpt lat="47.343933333" lon="-3.132166667">
        <time>2018-07-24T07:55:15Z</time>
      </trkpt>
      <trkpt lat="47.343566667" lon="-3.130933333">
        <time>2018-07-24T07:56:14Z</time>
      </trkpt>
      <trkpt lat="47.343366667" lon="-3.130066667">
        <time>2018-07-24T07:56:55Z</time>
      </trkpt>
      <trkpt lat="47.343100000" lon="-3.129233333">
        <time>2018-07-24T07:57:36Z</time>
      </trkpt>
      <trkpt lat="47.343033333" lon="-3.128883333">
        <time>2018-07-24T07:57:52Z</time>
      </trkpt>
      <trkpt lat="47.342750000" lon="-3.127950000">
        <time>2018-07-24T07:58:37Z</time>
      </trkpt>
      <trkpt lat="47.342500000" lon="-3.127016667">
        <time>2018-07-24T07:59:20Z</time>
      </trkpt>
      <trkpt lat="47.342400000" lon="-3.126433333">
        <time>2018-07-24T07:59:44Z</time>
      </trkpt>
      <trkpt lat="47.342116667" lon="-3.125250000">
        <time>2018-07-24T08:00:37Z</time>
      </trkpt>
      <trkpt lat="47.341883333" lon="-3.124533333">
        <time>2018-07-24T08:01:11Z</time>
      </trkpt>
      <trkpt lat="47.341766667" lon="-3.123950000">
        <time>2018-07-24T08:01:40Z</time>
      </trkpt>
      <trkpt lat="47.341600000" lon="-3.123466667">
        <time>2018-07-24T08:02:04Z</time>
      </trkpt>
      <trkpt lat="47.341366667" lon="-3.122516667">
        <time>2018-07-24T08:02:49Z</time>
      </trkpt>
      <trkpt lat="47.341183333" lon="-3.121566667">
        <time>2018-07-24T08:03:30Z</time>
      </trkpt>
      <trkpt lat="47.341033333" lon="-3.120433333">
        <time>2018-07-24T08:04:18Z</time>
      </trkpt>
      <trkpt lat="47.340950000" lon="-3.119100000">
        <time>2018-07-24T08:05:11Z</time>
      </trkpt>
      <trkpt lat="47.340900000" lon="-3.118650000">
        <time>2018-07-24T08:05:30Z</time>
      </trkpt>
      <trkpt lat="47.340683333" lon="-3.117800000">
        <time>2018-07-24T08:06:06Z</time>
      </trkpt>
      <trkpt lat="47.340633333" lon="-3.117516667">
        <time>2018-07-24T08:06:18Z</time>
      </trkpt>
      <trkpt lat="47.340600000" lon="-3.116766667">
        <time>2018-07-24T08:06:47Z</time>
      </trkpt>
      <trkpt lat="47.340516667" lon="-3.116333333">
        <time>2018-07-24T08:07:05Z</time>
      </trkpt>
      <trkpt lat="47.340466667" lon="-3.116250000">
        <time>2018-07-24T08:07:09Z</time>
      </trkpt>
      <trkpt lat="47.340366667" lon="-3.115750000">
        <time>2018-07-24T08:07:32Z</time>
      </trkpt>
      <trkpt lat="47.340350000" lon="-3.115100000">
        <time>2018-07-24T08:07:58Z</time>
      </trkpt>
      <trkpt lat="47.340133333" lon="-3.114100000">
        <time>2018-07-24T08:08:41Z</time>
      </trkpt>
      <trkpt lat="47.340066667" lon="-3.113566667">
        <time>2018-07-24T08:09:03Z</time>
      </trkpt>
      <trkpt lat="47.339816667" lon="-3.112866667">
        <time>2018-07-24T08:09:36Z</time>
      </trkpt>
      <trkpt lat="47.339733333" lon="-3.112550000">
        <time>2018-07-24T08:09:52Z</time>
      </trkpt>
      <trkpt lat="47.339666667" lon="-3.111966667">
        <time>2018-07-24T08:10:14Z</time>
      </trkpt>
      <trkpt lat="47.339366667" lon="-3.111250000">
        <time>2018-07-24T08:10:49Z</time>
      </trkpt>
      <trkpt lat="47.339233333" lon="-3.110716667">
        <time>2018-07-24T08:11:11Z</time>
      </trkpt>
      <trkpt lat="47.338916667" lon="-3.109983333">
        <time>2018-07-24T08:11:48Z</time>
      </trkpt>
      <trkpt lat="47.338833333" lon="-3.109633333">
        <time>2018-07-24T08:12:04Z</time>
      </trkpt>
      <trkpt lat="47.338666667" lon="-3.109250000">
        <time>2018-07-24T08:12:24Z</time>
      </trkpt>
      <trkpt lat="47.338333333" lon="-3.108200000">
        <time>2018-07-24T08:13:15Z</time>
      </trkpt>
      <trkpt lat="47.338183333" lon="-3.107866667">
        <time>2018-07-24T08:13:33Z</time>
      </trkpt>
      <trkpt lat="47.338050000" lon="-3.107383333">
        <time>2018-07-24T08:13:56Z</time>
      </trkpt>
      <trkpt lat="47.337900000" lon="-3.106983333">
        <time>2018-07-24T08:14:14Z</time>
      </trkpt>
      <trkpt lat="47.337733333" lon="-3.106683333">
        <time>2018-07-24T08:14:32Z</time>
      </trkpt>
      <trkpt lat="47.337683333" lon="-3.106433333">
        <time>2018-07-24T08:14:45Z</time>
      </trkpt>
      <trkpt lat="47.337366667" lon="-3.105616667">
        <time>2018-07-24T08:15:23Z</time>
      </trkpt>
      <trkpt lat="47.337016667" lon="-3.104333333">
        <time>2018-07-24T08:16:18Z</time>
      </trkpt>
      <trkpt lat="47.336950000" lon="-3.103883333">
        <time>2018-07-24T08:16:35Z</time>
      </trkpt>
      <trkpt lat="47.336766667" lon="-3.103483333">
        <time>2018-07-24T08:16:55Z</time>
      </trkpt>
      <trkpt lat="47.336550000" lon="-3.102733333">
        <time>2018-07-24T08:17:32Z</time>
      </trkpt>
      <trkpt lat="47.336350000" lon="-3.102283333">
        <time>2018-07-24T08:17:54Z</time>
      </trkpt>
      <trkpt lat="47.336233333" lon="-3.101850000">
        <time>2018-07-24T08:18:14Z</time>
      </trkpt>
      <trkpt lat="47.336150000" lon="-3.101316667">
        <time>2018-07-24T08:18:37Z</time>
      </trkpt>
      <trkpt lat="47.336016667" lon="-3.100833333">
        <time>2018-07-24T08:18:55Z</time>
      </trkpt>
      <trkpt lat="47.335683333" lon="-3.100050000">
        <time>2018-07-24T08:19:36Z</time>
      </trkpt>
      <trkpt lat="47.335633333" lon="-3.099783333">
        <time>2018-07-24T08:19:48Z</time>
      </trkpt>
      <trkpt lat="47.335650000" lon="-3.099533333">
        <time>2018-07-24T08:19:58Z</time>
      </trkpt>
      <trkpt lat="47.335800000" lon="-3.098950000">
        <time>2018-07-24T08:20:26Z</time>
      </trkpt>
      <trkpt lat="47.335783333" lon="-3.098066667">
        <time>2018-07-24T08:20:59Z</time>
      </trkpt>
      <trkpt lat="47.335883333" lon="-3.097416667">
        <time>2018-07-24T08:21:21Z</time>
      </trkpt>
      <trkpt lat="47.335850000" lon="-3.096833333">
        <time>2018-07-24T08:21:40Z</time>
      </trkpt>
      <trkpt lat="47.335866667" lon="-3.096083333">
        <time>2018-07-24T08:22:04Z</time>
      </trkpt>
      <trkpt lat="47.335800000" lon="-3.095666667">
        <time>2018-07-24T08:22:18Z</time>
      </trkpt>
      <trkpt lat="47.335716667" lon="-3.094383333">
        <time>2018-07-24T08:23:01Z</time>
      </trkpt>
      <trkpt lat="47.335616667" lon="-3.091166667">
        <time>2018-07-24T08:24:49Z</time>
      </trkpt>
      <trkpt lat="47.335533333" lon="-3.090116667">
        <time>2018-07-24T08:25:23Z</time>
      </trkpt>
      <trkpt lat="47.335516667" lon="-3.088000000">
        <time>2018-07-24T08:26:36Z</time>
      </trkpt>
      <trkpt lat="47.335550000" lon="-3.087350000">
        <time>2018-07-24T08:27:07Z</time>
      </trkpt>
      <trkpt lat="47.335483333" lon="-3.086133333">
        <time>2018-07-24T08:27:54Z</time>
      </trkpt>
      <trkpt lat="47.335483333" lon="-3.084566667">
        <time>2018-07-24T08:28:51Z</time>
      </trkpt>
      <trkpt lat="47.335516667" lon="-3.083883333">
        <time>2018-07-24T08:29:13Z</time>
      </trkpt>
      <trkpt lat="47.335416667" lon="-3.083283333">
        <time>2018-07-24T08:29:35Z</time>
      </trkpt>
      <trkpt lat="47.335300000" lon="-3.081983333">
        <time>2018-07-24T08:30:32Z</time>
      </trkpt>
      <trkpt lat="47.335050000" lon="-3.080100000">
        <time>2018-07-24T08:32:10Z</time>
      </trkpt>
      <trkpt lat="47.334800000" lon="-3.077966667">
        <time>2018-07-24T08:34:03Z</time>
      </trkpt>
      <trkpt lat="47.334650000" lon="-3.076166667">
        <time>2018-07-24T08:35:33Z</time>
      </trkpt>
      <trkpt lat="47.334633333" lon="-3.074283333">
        <time>2018-07-24T08:37:00Z</time>
      </trkpt>
      <trkpt lat="47.334750000" lon="-3.072950000">
        <time>2018-07-24T08:37:57Z</time>
      </trkpt>
      <trkpt lat="47.334733333" lon="-3.072200000">
        <time>2018-07-24T08:38:27Z</time>
      </trkpt>
      <trkpt lat="47.334783333" lon="-3.070833333">
        <time>2018-07-24T08:39:26Z</time>
      </trkpt>
      <trkpt lat="47.334650000" lon="-3.070066667">
        <time>2018-07-24T08:40:07Z</time>
      </trkpt>
      <trkpt lat="47.334450000" lon="-3.068216667">
        <time>2018-07-24T08:41:53Z</time>
      </trkpt>
      <trkpt lat="47.334300000" lon="-3.067216667">
        <time>2018-07-24T08:42:50Z</time>
      </trkpt>
      <trkpt lat="47.334050000" lon="-3.064716667">
        <time>2018-07-24T08:45:10Z</time>
      </trkpt>
      <trkpt lat="47.333966667" lon="-3.064266667">
        <time>2018-07-24T08:45:36Z</time>
      </trkpt>
      <trkpt lat="47.333716667" lon="-3.061683333">
        <time>2018-07-24T08:47:58Z</time>
      </trkpt>
      <trkpt lat="47.333583333" lon="-3.060750000">
        <time>2018-07-24T08:48:49Z</time>
      </trkpt>
      <trkpt lat="47.333400000" lon="-3.058716667">
        <time>2018-07-24T08:50:39Z</time>
      </trkpt>
      <trkpt lat="47.333400000" lon="-3.058150000">
        <time>2018-07-24T08:51:09Z</time>
      </trkpt>
      <trkpt lat="47.333183333" lon="-3.055733333">
        <time>2018-07-24T08:53:25Z</time>
      </trkpt>
      <trkpt lat="47.333116667" lon="-3.054750000">
        <time>2018-07-24T08:54:24Z</time>
      </trkpt>
      <trkpt lat="47.333116667" lon="-3.054150000">
        <time>2018-07-24T08:54:59Z</time>
      </trkpt>
      <trkpt lat="47.333250000" lon="-3.053016667">
        <time>2018-07-24T08:56:04Z</time>
      </trkpt>
      <trkpt lat="47.333266667" lon="-3.052550000">
        <time>2018-07-24T08:56:32Z</time>
      </trkpt>
      <trkpt lat="47.333366667" lon="-3.051900000">
        <time>2018-07-24T08:57:09Z</time>
      </trkpt>
      <trkpt lat="47.333483333" lon="-3.051566667">
        <time>2018-07-24T08:57:29Z</time>
      </trkpt>
      <trkpt lat="47.333650000" lon="-3.050066667">
        <time>2018-07-24T08:58:57Z</time>
      </trkpt>
      <trkpt lat="47.333783333" lon="-3.049466667">
        <time>2018-07-24T08:59:33Z</time>
      </trkpt>
      <trkpt lat="47.333816667" lon="-3.049033333">
        <time>2018-07-24T08:59:58Z</time>
      </trkpt>
      <trkpt lat="47.333950000" lon="-3.048366667">
        <time>2018-07-24T09:00:36Z</time>
      </trkpt>
      <trkpt lat="47.333950000" lon="-3.048200000">
        <time>2018-07-24T09:00:46Z</time>
      </trkpt>
      <trkpt lat="47.334033333" lon="-3.047866667">
        <time>2018-07-24T09:01:07Z</time>
      </trkpt>
      <trkpt lat="47.334133333" lon="-3.047666667">
        <time>2018-07-24T09:01:19Z</time>
      </trkpt>
      <trkpt lat="47.334183333" lon="-3.047450000">
        <time>2018-07-24T09:01:29Z</time>
      </trkpt>
      <trkpt lat="47.334200000" lon="-3.046950000">
        <time>2018-07-24T09:01:57Z</time>
      </trkpt>
      <trkpt lat="47.334283333" lon="-3.046633333">
        <time>2018-07-24T09:02:16Z</time>
      </trkpt>
      <trkpt lat="47.334433333" lon="-3.045616667">
        <time>2018-07-24T09:03:14Z</time>
      </trkpt>
      <trkpt lat="47.334483333" lon="-3.044983333">
        <time>2018-07-24T09:03:49Z</time>
      </trkpt>
      <trkpt lat="47.334633333" lon="-3.044016667">
        <time>2018-07-24T09:04:38Z</time>
      </trkpt>
      <trkpt lat="47.334966667" lon="-3.040966667">
        <time>2018-07-24T09:07:20Z</time>
      </trkpt>
      <trkpt lat="47.335000000" lon="-3.040350000">
        <time>2018-07-24T09:07:53Z</time>
      </trkpt>
      <trkpt lat="47.335583333" lon="-3.035816667">
        <time>2018-07-24T09:11:30Z</time>
      </trkpt>
      <trkpt lat="47.335633333" lon="-3.034850000">
        <time>2018-07-24T09:12:15Z</time>
      </trkpt>
      <trkpt lat="47.335800000" lon="-3.033816667">
        <time>2018-07-24T09:13:02Z</time>
      </trkpt>
      <trkpt lat="47.335966667" lon="-3.032150000">
        <time>2018-07-24T09:14:17Z</time>
      </trkpt>
      <trkpt lat="47.336133333" lon="-3.031216667">
        <time>2018-07-24T09:15:00Z</time>
      </trkpt>
      <trkpt lat="47.336316667" lon="-3.029416667">
        <time>2018-07-24T09:16:17Z</time>
      </trkpt>
      <trkpt lat="47.336466667" lon="-3.028533333">
        <time>2018-07-24T09:16:52Z</time>
      </trkpt>
      <trkpt lat="47.336516667" lon="-3.027900000">
        <time>2018-07-24T09:17:18Z</time>
      </trkpt>
      <trkpt lat="47.336883333" lon="-3.025783333">
        <time>2018-07-24T09:18:48Z</time>
      </trkpt>
      <trkpt lat="47.337200000" lon="-3.022533333">
        <time>2018-07-24T09:20:58Z</time>
      </trkpt>
      <trkpt lat="47.337283333" lon="-3.021983333">
        <time>2018-07-24T09:21:20Z</time>
      </trkpt>
      <trkpt lat="47.337283333" lon="-3.021633333">
        <time>2018-07-24T09:21:34Z</time>
      </trkpt>
      <trkpt lat="47.337450000" lon="-3.020116667">
        <time>2018-07-24T09:22:37Z</time>
      </trkpt>
      <trkpt lat="47.337533333" lon="-3.018866667">
        <time>2018-07-24T09:23:32Z</time>
      </trkpt>
      <trkpt lat="47.337600000" lon="-3.018466667">
        <time>2018-07-24T09:23:48Z</time>
      </trkpt>
      <trkpt lat="47.337666667" lon="-3.017383333">
        <time>2018-07-24T09:24:31Z</time>
      </trkpt>
      <trkpt lat="47.337766667" lon="-3.016583333">
        <time>2018-07-24T09:25:03Z</time>
      </trkpt>
      <trkpt lat="47.337850000" lon="-3.015350000">
        <time>2018-07-24T09:25:54Z</time>
      </trkpt>
      <trkpt lat="47.338000000" lon="-3.013783333">
        <time>2018-07-24T09:26:59Z</time>
      </trkpt>
      <trkpt lat="47.338166667" lon="-3.012550000">
        <time>2018-07-24T09:27:52Z</time>
      </trkpt>
      <trkpt lat="47.338416667" lon="-3.011183333">
        <time>2018-07-24T09:28:51Z</time>
      </trkpt>
      <trkpt lat="47.338483333" lon="-3.010466667">
        <time>2018-07-24T09:29:24Z</time>
      </trkpt>
      <trkpt lat="47.338616667" lon="-3.009833333">
        <time>2018-07-24T09:29:52Z</time>
      </trkpt>
      <trkpt lat="47.338750000" lon="-3.008533333">
        <time>2018-07-24T09:30:55Z</time>
      </trkpt>
      <trkpt lat="47.338966667" lon="-3.007266667">
        <time>2018-07-24T09:31:58Z</time>
      </trkpt>
      <trkpt lat="47.339500000" lon="-3.004833333">
        <time>2018-07-24T09:33:50Z</time>
      </trkpt>
      <trkpt lat="47.340116667" lon="-3.001516667">
        <time>2018-07-24T09:36:29Z</time>
      </trkpt>
      <trkpt lat="47.340166667" lon="-3.001050000">
        <time>2018-07-24T09:36:49Z</time>
      </trkpt>
      <trkpt lat="47.340450000" lon="-2.999533333">
        <time>2018-07-24T09:38:04Z</time>
      </trkpt>
      <trkpt lat="47.340866667" lon="-2.998050000">
        <time>2018-07-24T09:39:11Z</time>
      </trkpt>
      <trkpt lat="47.341333333" lon="-2.996216667">
        <time>2018-07-24T09:40:37Z</time>
      </trkpt>
      <trkpt lat="47.341466667" lon="-2.995383333">
        <time>2018-07-24T09:41:20Z</time>
      </trkpt>
      <trkpt lat="47.341666667" lon="-2.994516667">
        <time>2018-07-24T09:42:02Z</time>
      </trkpt>
      <trkpt lat="47.341766667" lon="-2.993816667">
        <time>2018-07-24T09:42:35Z</time>
      </trkpt>
      <trkpt lat="47.342333333" lon="-2.991250000">
        <time>2018-07-24T09:44:45Z</time>
      </trkpt>
      <trkpt lat="47.342383333" lon="-2.990500000">
        <time>2018-07-24T09:45:26Z</time>
      </trkpt>
      <trkpt lat="47.342616667" lon="-2.989150000">
        <time>2018-07-24T09:46:39Z</time>
      </trkpt>
      <trkpt lat="47.342766667" lon="-2.987850000">
        <time>2018-07-24T09:47:52Z</time>
      </trkpt>
      <trkpt lat="47.343033333" lon="-2.986350000">
        <time>2018-07-24T09:49:13Z</time>
      </trkpt>
      <trkpt lat="47.343350000" lon="-2.984916667">
        <time>2018-07-24T09:50:28Z</time>
      </trkpt>
      <trkpt lat="47.343483333" lon="-2.984116667">
        <time>2018-07-24T09:51:07Z</time>
      </trkpt>
      <trkpt lat="47.344516667" lon="-2.979116667">
        <time>2018-07-24T09:55:19Z</time>
      </trkpt>
      <trkpt lat="47.344916667" lon="-2.976950000">
        <time>2018-07-24T09:57:11Z</time>
      </trkpt>
      <trkpt lat="47.345700000" lon="-2.971766667">
        <time>2018-07-24T10:01:37Z</time>
      </trkpt>
      <trkpt lat="47.345933333" lon="-2.969900000">
        <time>2018-07-24T10:03:07Z</time>
      </trkpt>
      <trkpt lat="47.346266667" lon="-2.966533333">
        <time>2018-07-24T10:05:53Z</time>
      </trkpt>
      <trkpt lat="47.346416667" lon="-2.964333333">
        <time>2018-07-24T10:07:38Z</time>
      </trkpt>
      <trkpt lat="47.346533333" lon="-2.963733333">
        <time>2018-07-24T10:08:06Z</time>
      </trkpt>
      <trkpt lat="47.346783333" lon="-2.963000000">
        <time>2018-07-24T10:08:39Z</time>
      </trkpt>
      <trkpt lat="47.347300000" lon="-2.961883333">
        <time>2018-07-24T10:09:23Z</time>
      </trkpt>
      <trkpt lat="47.347400000" lon="-2.961566667">
        <time>2018-07-24T10:09:36Z</time>
      </trkpt>
      <trkpt lat="47.347500000" lon="-2.961400000">
        <time>2018-07-24T10:09:42Z</time>
      </trkpt>
      <trkpt lat="47.348050000" lon="-2.960066667">
        <time>2018-07-24T10:10:31Z</time>
      </trkpt>
      <trkpt lat="47.348266667" lon="-2.959483333">
        <time>2018-07-24T10:10:51Z</time>
      </trkpt>
      <trkpt lat="47.348466667" lon="-2.958783333">
        <time>2018-07-24T10:11:15Z</time>
      </trkpt>
      <trkpt lat="47.348466667" lon="-2.958666667">
        <time>2018-07-24T10:11:17Z</time>
      </trkpt>
      <trkpt lat="47.348600000" lon="-2.958216667">
        <time>2018-07-24T10:11:36Z</time>
      </trkpt>
      <trkpt lat="47.348850000" lon="-2.957666667">
        <time>2018-07-24T10:11:58Z</time>
      </trkpt>
      <trkpt lat="47.349266667" lon="-2.956266667">
        <time>2018-07-24T10:12:49Z</time>
      </trkpt>
      <trkpt lat="47.349983333" lon="-2.953066667">
        <time>2018-07-24T10:14:49Z</time>
      </trkpt>
      <trkpt lat="47.350133333" lon="-2.952100000">
        <time>2018-07-24T10:15:26Z</time>
      </trkpt>
      <trkpt lat="47.350350000" lon="-2.951250000">
        <time>2018-07-24T10:15:56Z</time>
      </trkpt>
      <trkpt lat="47.350533333" lon="-2.950266667">
        <time>2018-07-24T10:16:23Z</time>
      </trkpt>
      <trkpt lat="47.350666667" lon="-2.949116667">
        <time>2018-07-24T10:16:57Z</time>
      </trkpt>
      <trkpt lat="47.350883333" lon="-2.948183333">
        <time>2018-07-24T10:17:26Z</time>
      </trkpt>
      <trkpt lat="47.351166667" lon="-2.946083333">
        <time>2018-07-24T10:18:33Z</time>
      </trkpt>
      <trkpt lat="47.351200000" lon="-2.945566667">
        <time>2018-07-24T10:18:53Z</time>
      </trkpt>
      <trkpt lat="47.351433333" lon="-2.944350000">
        <time>2018-07-24T10:19:36Z</time>
      </trkpt>
      <trkpt lat="47.351550000" lon="-2.943483333">
        <time>2018-07-24T10:20:07Z</time>
      </trkpt>
      <trkpt lat="47.351916667" lon="-2.941666667">
        <time>2018-07-24T10:21:08Z</time>
      </trkpt>
      <trkpt lat="47.352250000" lon="-2.940283333">
        <time>2018-07-24T10:21:54Z</time>
      </trkpt>
      <trkpt lat="47.352433333" lon="-2.939333333">
        <time>2018-07-24T10:22:27Z</time>
      </trkpt>
      <trkpt lat="47.352516667" lon="-2.938466667">
        <time>2018-07-24T10:23:00Z</time>
      </trkpt>
      <trkpt lat="47.352816667" lon="-2.936883333">
        <time>2018-07-24T10:24:05Z</time>
      </trkpt>
      <trkpt lat="47.352966667" lon="-2.935916667">
        <time>2018-07-24T10:24:43Z</time>
      </trkpt>
      <trkpt lat="47.353000000" lon="-2.935083333">
        <time>2018-07-24T10:25:26Z</time>
      </trkpt>
      <trkpt lat="47.353083333" lon="-2.934433333">
        <time>2018-07-24T10:25:54Z</time>
      </trkpt>
      <trkpt lat="47.353266667" lon="-2.931300000">
        <time>2018-07-24T10:28:04Z</time>
      </trkpt>
      <trkpt lat="47.353366667" lon="-2.930516667">
        <time>2018-07-24T10:28:35Z</time>
      </trkpt>
      <trkpt lat="47.353683333" lon="-2.929016667">
        <time>2018-07-24T10:29:28Z</time>
      </trkpt>
      <trkpt lat="47.354183333" lon="-2.927166667">
        <time>2018-07-24T10:30:27Z</time>
      </trkpt>
      <trkpt lat="47.354466667" lon="-2.925750000">
        <time>2018-07-24T10:31:07Z</time>
      </trkpt>
      <trkpt lat="47.354666667" lon="-2.925083333">
        <time>2018-07-24T10:31:28Z</time>
      </trkpt>
      <trkpt lat="47.355133333" lon="-2.923050000">
        <time>2018-07-24T10:32:31Z</time>
      </trkpt>
      <trkpt lat="47.355583333" lon="-2.920700000">
        <time>2018-07-24T10:33:44Z</time>
      </trkpt>
      <trkpt lat="47.355716667" lon="-2.919716667">
        <time>2018-07-24T10:34:16Z</time>
      </trkpt>
      <trkpt lat="47.355733333" lon="-2.919050000">
        <time>2018-07-24T10:34:41Z</time>
      </trkpt>
      <trkpt lat="47.355783333" lon="-2.918550000">
        <time>2018-07-24T10:35:01Z</time>
      </trkpt>
      <trkpt lat="47.356116667" lon="-2.917000000">
        <time>2018-07-24T10:36:00Z</time>
      </trkpt>
      <trkpt lat="47.356416667" lon="-2.915850000">
        <time>2018-07-24T10:36:41Z</time>
      </trkpt>
      <trkpt lat="47.356550000" lon="-2.915166667">
        <time>2018-07-24T10:37:03Z</time>
      </trkpt>
      <trkpt lat="47.356833333" lon="-2.913200000">
        <time>2018-07-24T10:38:14Z</time>
      </trkpt>
      <trkpt lat="47.356950000" lon="-2.911883333">
        <time>2018-07-24T10:39:10Z</time>
      </trkpt>
      <trkpt lat="47.356966667" lon="-2.911250000">
        <time>2018-07-24T10:39:36Z</time>
      </trkpt>
      <trkpt lat="47.357083333" lon="-2.910116667">
        <time>2018-07-24T10:40:27Z</time>
      </trkpt>
      <trkpt lat="47.357133333" lon="-2.908666667">
        <time>2018-07-24T10:41:26Z</time>
      </trkpt>
      <trkpt lat="47.357116667" lon="-2.907483333">
        <time>2018-07-24T10:42:13Z</time>
      </trkpt>
      <trkpt lat="47.357066667" lon="-2.906333333">
        <time>2018-07-24T10:43:20Z</time>
      </trkpt>
      <trkpt lat="47.356933333" lon="-2.905233333">
        <time>2018-07-24T10:44:24Z</time>
      </trkpt>
      <trkpt lat="47.356766667" lon="-2.903483333">
        <time>2018-07-24T10:46:08Z</time>
      </trkpt>
      <trkpt lat="47.356716667" lon="-2.902350000">
        <time>2018-07-24T10:47:05Z</time>
      </trkpt>
      <trkpt lat="47.356666667" lon="-2.901816667">
        <time>2018-07-24T10:47:33Z</time>
      </trkpt>
      <trkpt lat="47.356533333" lon="-2.900933333">
        <time>2018-07-24T10:48:20Z</time>
      </trkpt>
      <trkpt lat="47.356133333" lon="-2.899350000">
        <time>2018-07-24T10:49:56Z</time>
      </trkpt>
      <trkpt lat="47.355950000" lon="-2.898083333">
        <time>2018-07-24T10:51:07Z</time>
      </trkpt>
      <trkpt lat="47.355833333" lon="-2.897433333">
        <time>2018-07-24T10:51:44Z</time>
      </trkpt>
      <trkpt lat="47.355716667" lon="-2.896933333">
        <time>2018-07-24T10:52:15Z</time>
      </trkpt>
      <trkpt lat="47.355550000" lon="-2.896400000">
        <time>2018-07-24T10:52:45Z</time>
      </trkpt>
      <trkpt lat="47.355350000" lon="-2.895983333">
        <time>2018-07-24T10:53:14Z</time>
      </trkpt>
      <trkpt lat="47.355166667" lon="-2.895416667">
        <time>2018-07-24T10:53:48Z</time>
      </trkpt>
      <trkpt lat="47.354650000" lon="-2.894333333">
        <time>2018-07-24T10:54:55Z</time>
      </trkpt>
      <trkpt lat="47.354400000" lon="-2.893666667">
        <time>2018-07-24T10:55:36Z</time>
      </trkpt>
      <trkpt lat="47.354300000" lon="-2.893066667">
        <time>2018-07-24T10:56:09Z</time>
      </trkpt>
      <trkpt lat="47.354200000" lon="-2.892050000">
        <time>2018-07-24T10:57:08Z</time>
      </trkpt>
      <trkpt lat="47.354016667" lon="-2.891366667">
        <time>2018-07-24T10:57:50Z</time>
      </trkpt>
      <trkpt lat="47.353966667" lon="-2.890950000">
        <time>2018-07-24T10:58:13Z</time>
      </trkpt>
      <trkpt lat="47.353766667" lon="-2.890116667">
        <time>2018-07-24T10:59:06Z</time>
      </trkpt>
      <trkpt lat="47.353700000" lon="-2.889666667">
        <time>2018-07-24T10:59:34Z</time>
      </trkpt>
      <trkpt lat="47.353433333" lon="-2.888516667">
        <time>2018-07-24T11:00:46Z</time>
      </trkpt>
      <trkpt lat="47.353266667" lon="-2.888000000">
        <time>2018-07-24T11:01:18Z</time>
      </trkpt>
      <trkpt lat="47.353033333" lon="-2.887516667">
        <time>2018-07-24T11:01:51Z</time>
      </trkpt>
      <trkpt lat="47.352783333" lon="-2.886733333">
        <time>2018-07-24T11:02:40Z</time>
      </trkpt>
      <trkpt lat="47.352016667" lon="-2.885100000">
        <time>2018-07-24T11:04:28Z</time>
      </trkpt>
      <trkpt lat="47.351383333" lon="-2.883133333">
        <time>2018-07-24T11:06:28Z</time>
      </trkpt>
      <trkpt lat="47.350866667" lon="-2.881750000">
        <time>2018-07-24T11:07:55Z</time>
      </trkpt>
      <trkpt lat="47.350466667" lon="-2.880950000">
        <time>2018-07-24T11:08:52Z</time>
      </trkpt>
      <trkpt lat="47.350166667" lon="-2.880450000">
        <time>2018-07-24T11:09:29Z</time>
      </trkpt>
      <trkpt lat="47.348983333" lon="-2.878916667">
        <time>2018-07-24T11:11:29Z</time>
      </trkpt>
      <trkpt lat="47.348133333" lon="-2.877983333">
        <time>2018-07-24T11:13:35Z</time>
      </trkpt>
      <trkpt lat="47.347700000" lon="-2.877633333">
        <time>2018-07-24T11:14:38Z</time>
      </trkpt>
      <trkpt lat="47.347216667" lon="-2.876916667">
        <time>2018-07-24T11:16:06Z</time>
      </trkpt>
      <trkpt lat="47.346916667" lon="-2.876583333">
        <time>2018-07-24T11:16:47Z</time>
      </trkpt>
      <trkpt lat="47.346683333" lon="-2.876233333">
        <time>2018-07-24T11:17:21Z</time>
      </trkpt>
      <trkpt lat="47.346216667" lon="-2.875683333">
        <time>2018-07-24T11:18:28Z</time>
      </trkpt>
      <trkpt lat="47.346066667" lon="-2.875450000">
        <time>2018-07-24T11:19:01Z</time>
      </trkpt>
      <trkpt lat="47.345983333" lon="-2.875200000">
        <time>2018-07-24T11:19:31Z</time>
      </trkpt>
      <trkpt lat="47.345883333" lon="-2.875100000">
        <time>2018-07-24T11:19:48Z</time>
      </trkpt>
      <trkpt lat="47.345450000" lon="-2.874933333">
        <time>2018-07-24T11:20:49Z</time>
      </trkpt>
      <trkpt lat="47.345133333" lon="-2.874700000">
        <time>2018-07-24T11:21:29Z</time>
      </trkpt>
      <trkpt lat="47.344733333" lon="-2.874500000">
        <time>2018-07-24T11:22:10Z</time>
      </trkpt>
      <trkpt lat="47.344583333" lon="-2.874366667">
        <time>2018-07-24T11:22:28Z</time>
      </trkpt>
      <trkpt lat="47.344466667" lon="-2.874316667">
        <time>2018-07-24T11:22:39Z</time>
      </trkpt>
      <trkpt lat="47.344366667" lon="-2.874316667">
        <time>2018-07-24T11:22:49Z</time>
      </trkpt>
      <trkpt lat="47.344200000" lon="-2.874400000">
        <time>2018-07-24T11:23:05Z</time>
      </trkpt>
      <trkpt lat="47.344033333" lon="-2.874600000">
        <time>2018-07-24T11:23:33Z</time>
      </trkpt>
      <trkpt lat="47.343816667" lon="-2.875000000">
        <time>2018-07-24T11:24:26Z</time>
      </trkpt>
      <trkpt lat="47.343766667" lon="-2.875016667">
        <time>2018-07-24T11:24:43Z</time>
      </trkpt>
      <trkpt lat="47.343783333" lon="-2.874883333">
        <time>2018-07-24T11:25:05Z</time>
      </trkpt>
      <trkpt lat="47.343900000" lon="-2.874733333">
        <time>2018-07-24T11:25:34Z</time>
      </trkpt>
      <trkpt lat="47.343900000" lon="-2.874466667">
        <time>2018-07-24T11:26:04Z</time>
      </trkpt>
      <trkpt lat="47.343866667" lon="-2.874233333">
        <time>2018-07-24T11:26:29Z</time>
      </trkpt>
      <trkpt lat="47.343800000" lon="-2.874133333">
        <time>2018-07-24T11:26:41Z</time>
      </trkpt>
      <trkpt lat="47.343750000" lon="-2.874150000">
        <time>2018-07-24T11:26:45Z</time>
      </trkpt>
      <trkpt lat="47.343700000" lon="-2.874300000">
        <time>2018-07-24T11:27:19Z</time>
      </trkpt>
      <trkpt lat="47.343650000" lon="-2.874316667">
        <time>2018-07-24T12:20:26Z</time>
      </trkpt>
      <trkpt lat="47.343633333" lon="-2.874250000">
        <time>2018-07-24T13:31:57Z</time>
      </trkpt>
      <trkpt lat="47.343866667" lon="-2.874200000">
        <time>2018-07-24T13:32:18Z</time>
      </trkpt>
      <trkpt lat="47.344416667" lon="-2.873833333">
        <time>2018-07-24T13:32:56Z</time>
      </trkpt>
      <trkpt lat="47.344800000" lon="-2.873750000">
        <time>2018-07-24T13:33:23Z</time>
      </trkpt>
      <trkpt lat="47.345450000" lon="-2.873716667">
        <time>2018-07-24T13:34:10Z</time>
      </trkpt>
      <trkpt lat="47.345566667" lon="-2.873783333">
        <time>2018-07-24T13:34:20Z</time>
      </trkpt>
      <trkpt lat="47.345766667" lon="-2.874150000">
        <time>2018-07-24T13:34:47Z</time>
      </trkpt>
      <trkpt lat="47.345983333" lon="-2.874733333">
        <time>2018-07-24T13:35:25Z</time>
      </trkpt>
      <trkpt lat="47.346366667" lon="-2.875416667">
        <time>2018-07-24T13:36:12Z</time>
      </trkpt>
      <trkpt lat="47.347416667" lon="-2.877900000">
        <time>2018-07-24T13:38:41Z</time>
      </trkpt>
      <trkpt lat="47.347983333" lon="-2.879150000">
        <time>2018-07-24T13:39:58Z</time>
      </trkpt>
      <trkpt lat="47.348466667" lon="-2.879833333">
        <time>2018-07-24T13:40:45Z</time>
      </trkpt>
      <trkpt lat="47.350066667" lon="-2.881383333">
        <time>2018-07-24T13:42:17Z</time>
      </trkpt>
      <trkpt lat="47.350216667" lon="-2.881700000">
        <time>2018-07-24T13:42:33Z</time>
      </trkpt>
      <trkpt lat="47.351033333" lon="-2.882350000">
        <time>2018-07-24T13:43:22Z</time>
      </trkpt>
      <trkpt lat="47.351833333" lon="-2.883116667">
        <time>2018-07-24T13:44:07Z</time>
      </trkpt>
      <trkpt lat="47.352383333" lon="-2.883550000">
        <time>2018-07-24T13:44:33Z</time>
      </trkpt>
      <trkpt lat="47.354400000" lon="-2.885616667">
        <time>2018-07-24T13:46:21Z</time>
      </trkpt>
      <trkpt lat="47.354816667" lon="-2.886116667">
        <time>2018-07-24T13:46:44Z</time>
      </trkpt>
      <trkpt lat="47.355600000" lon="-2.887166667">
        <time>2018-07-24T13:47:31Z</time>
      </trkpt>
      <trkpt lat="47.355650000" lon="-2.887300000">
        <time>2018-07-24T13:47:35Z</time>
      </trkpt>
      <trkpt lat="47.355916667" lon="-2.887600000">
        <time>2018-07-24T13:47:49Z</time>
      </trkpt>
      <trkpt lat="47.356650000" lon="-2.888616667">
        <time>2018-07-24T13:48:38Z</time>
      </trkpt>
      <trkpt lat="47.359466667" lon="-2.892016667">
        <time>2018-07-24T13:51:19Z</time>
      </trkpt>
      <trkpt lat="47.359550000" lon="-2.892183333">
        <time>2018-07-24T13:51:27Z</time>
      </trkpt>
      <trkpt lat="47.360316667" lon="-2.893066667">
        <time>2018-07-24T13:52:12Z</time>
      </trkpt>
      <trkpt lat="47.362566667" lon="-2.896000000">
        <time>2018-07-24T13:54:37Z</time>
      </trkpt>
      <trkpt lat="47.362766667" lon="-2.896333333">
        <time>2018-07-24T13:54:51Z</time>
      </trkpt>
      <trkpt lat="47.363400000" lon="-2.897100000">
        <time>2018-07-24T13:55:30Z</time>
      </trkpt>
      <trkpt lat="47.364716667" lon="-2.898850000">
        <time>2018-07-24T13:56:51Z</time>
      </trkpt>
      <trkpt lat="47.366250000" lon="-2.901066667">
        <time>2018-07-24T13:58:39Z</time>
      </trkpt>
      <trkpt lat="47.367766667" lon="-2.903133333">
        <time>2018-07-24T14:00:19Z</time>
      </trkpt>
      <trkpt lat="47.367833333" lon="-2.903166667">
        <time>2018-07-24T14:00:23Z</time>
      </trkpt>
      <trkpt lat="47.369116667" lon="-2.905016667">
        <time>2018-07-24T14:01:59Z</time>
      </trkpt>
      <trkpt lat="47.369166667" lon="-2.905166667">
        <time>2018-07-24T14:02:05Z</time>
      </trkpt>
      <trkpt lat="47.370266667" lon="-2.907016667">
        <time>2018-07-24T14:03:45Z</time>
      </trkpt>
      <trkpt lat="47.370616667" lon="-2.907716667">
        <time>2018-07-24T14:04:19Z</time>
      </trkpt>
      <trkpt lat="47.370716667" lon="-2.907783333">
        <time>2018-07-24T14:04:25Z</time>
      </trkpt>
      <trkpt lat="47.370783333" lon="-2.907916667">
        <time>2018-07-24T14:04:31Z</time>
      </trkpt>
      <trkpt lat="47.370850000" lon="-2.907950000">
        <time>2018-07-24T14:04:33Z</time>
      </trkpt>
      <trkpt lat="47.371233333" lon="-2.908533333">
        <time>2018-07-24T14:05:00Z</time>
      </trkpt>
      <trkpt lat="47.371533333" lon="-2.909100000">
        <time>2018-07-24T14:05:26Z</time>
      </trkpt>
      <trkpt lat="47.371633333" lon="-2.909383333">
        <time>2018-07-24T14:05:39Z</time>
      </trkpt>
      <trkpt lat="47.371633333" lon="-2.909500000">
        <time>2018-07-24T14:05:49Z</time>
      </trkpt>
      <trkpt lat="47.370950000" lon="-2.910400000">
        <time>2018-07-24T14:06:28Z</time>
      </trkpt>
      <trkpt lat="47.370916667" lon="-2.910533333">
        <time>2018-07-24T14:06:32Z</time>
      </trkpt>
      <trkpt lat="47.370833333" lon="-2.910600000">
        <time>2018-07-24T14:06:34Z</time>
      </trkpt>
      <trkpt lat="47.370533333" lon="-2.911116667">
        <time>2018-07-24T14:06:50Z</time>
      </trkpt>
      <trkpt lat="47.370016667" lon="-2.911866667">
        <time>2018-07-24T14:07:14Z</time>
      </trkpt>
      <trkpt lat="47.369000000" lon="-2.913133333">
        <time>2018-07-24T14:07:55Z</time>
      </trkpt>
      <trkpt lat="47.367933333" lon="-2.914916667">
        <time>2018-07-24T14:08:48Z</time>
      </trkpt>
      <trkpt lat="47.367933333" lon="-2.914983333">
        <time>2018-07-24T14:08:50Z</time>
      </trkpt>
      <trkpt lat="47.367766667" lon="-2.915183333">
        <time>2018-07-24T14:08:56Z</time>
      </trkpt>
      <trkpt lat="47.366133333" lon="-2.917933333">
        <time>2018-07-24T14:10:16Z</time>
      </trkpt>
      <trkpt lat="47.364900000" lon="-2.920233333">
        <time>2018-07-24T14:11:23Z</time>
      </trkpt>
      <trkpt lat="47.364516667" lon="-2.920850000">
        <time>2018-07-24T14:11:41Z</time>
      </trkpt>
      <trkpt lat="47.363900000" lon="-2.921966667">
        <time>2018-07-24T14:12:14Z</time>
      </trkpt>
      <trkpt lat="47.362433333" lon="-2.924983333">
        <time>2018-07-24T14:13:40Z</time>
      </trkpt>
      <trkpt lat="47.361783333" lon="-2.926216667">
        <time>2018-07-24T14:14:16Z</time>
      </trkpt>
      <trkpt lat="47.361750000" lon="-2.926366667">
        <time>2018-07-24T14:14:20Z</time>
      </trkpt>
      <trkpt lat="47.359600000" lon="-2.930783333">
        <time>2018-07-24T14:16:27Z</time>
      </trkpt>
      <trkpt lat="47.358750000" lon="-2.932250000">
        <time>2018-07-24T14:17:12Z</time>
      </trkpt>
      <trkpt lat="47.358100000" lon="-2.933466667">
        <time>2018-07-24T14:17:48Z</time>
      </trkpt>
      <trkpt lat="47.357183333" lon="-2.935366667">
        <time>2018-07-24T14:18:43Z</time>
      </trkpt>
      <trkpt lat="47.356183333" lon="-2.937633333">
        <time>2018-07-24T14:19:51Z</time>
      </trkpt>
      <trkpt lat="47.355983333" lon="-2.938266667">
        <time>2018-07-24T14:20:07Z</time>
      </trkpt>
      <trkpt lat="47.355950000" lon="-2.938266667">
        <time>2018-07-24T14:20:09Z</time>
      </trkpt>
      <trkpt lat="47.355650000" lon="-2.939166667">
        <time>2018-07-24T14:20:34Z</time>
      </trkpt>
      <trkpt lat="47.354800000" lon="-2.941383333">
        <time>2018-07-24T14:21:37Z</time>
      </trkpt>
      <trkpt lat="47.354316667" lon="-2.942516667">
        <time>2018-07-24T14:22:11Z</time>
      </trkpt>
      <trkpt lat="47.354250000" lon="-2.942583333">
        <time>2018-07-24T14:22:15Z</time>
      </trkpt>
      <trkpt lat="47.354083333" lon="-2.943050000">
        <time>2018-07-24T14:22:27Z</time>
      </trkpt>
      <trkpt lat="47.352750000" lon="-2.945883333">
        <time>2018-07-24T14:23:59Z</time>
      </trkpt>
      <trkpt lat="47.352650000" lon="-2.946016667">
        <time>2018-07-24T14:24:05Z</time>
      </trkpt>
      <trkpt lat="47.352600000" lon="-2.946200000">
        <time>2018-07-24T14:24:09Z</time>
      </trkpt>
      <trkpt lat="47.352433333" lon="-2.946383333">
        <time>2018-07-24T14:24:18Z</time>
      </trkpt>
      <trkpt lat="47.351550000" lon="-2.948383333">
        <time>2018-07-24T14:25:15Z</time>
      </trkpt>
      <trkpt lat="47.350500000" lon="-2.950950000">
        <time>2018-07-24T14:26:26Z</time>
      </trkpt>
      <trkpt lat="47.350333333" lon="-2.951533333">
        <time>2018-07-24T14:26:42Z</time>
      </trkpt>
      <trkpt lat="47.350033333" lon="-2.952366667">
        <time>2018-07-24T14:27:05Z</time>
      </trkpt>
      <trkpt lat="47.349916667" lon="-2.952566667">
        <time>2018-07-24T14:27:13Z</time>
      </trkpt>
      <trkpt lat="47.349233333" lon="-2.954483333">
        <time>2018-07-24T14:28:04Z</time>
      </trkpt>
      <trkpt lat="47.348533333" lon="-2.956783333">
        <time>2018-07-24T14:29:05Z</time>
      </trkpt>
      <trkpt lat="47.348066667" lon="-2.958533333">
        <time>2018-07-24T14:29:52Z</time>
      </trkpt>
      <trkpt lat="47.347933333" lon="-2.959150000">
        <time>2018-07-24T14:30:08Z</time>
      </trkpt>
      <trkpt lat="47.347383333" lon="-2.962650000">
        <time>2018-07-24T14:31:46Z</time>
      </trkpt>
      <trkpt lat="47.347066667" lon="-2.964433333">
        <time>2018-07-24T14:32:35Z</time>
      </trkpt>
      <trkpt lat="47.346866667" lon="-2.965283333">
        <time>2018-07-24T14:33:00Z</time>
      </trkpt>
      <trkpt lat="47.346033333" lon="-2.969516667">
        <time>2018-07-24T14:35:06Z</time>
      </trkpt>
      <trkpt lat="47.345350000" lon="-2.972133333">
        <time>2018-07-24T14:36:22Z</time>
      </trkpt>
      <trkpt lat="47.344800000" lon="-2.973950000">
        <time>2018-07-24T14:37:17Z</time>
      </trkpt>
      <trkpt lat="47.344633333" lon="-2.974650000">
        <time>2018-07-24T14:37:35Z</time>
      </trkpt>
      <trkpt lat="47.344200000" lon="-2.975916667">
        <time>2018-07-24T14:38:13Z</time>
      </trkpt>
      <trkpt lat="47.343783333" lon="-2.977333333">
        <time>2018-07-24T14:38:56Z</time>
      </trkpt>
      <trkpt lat="47.343166667" lon="-2.979616667">
        <time>2018-07-24T14:40:05Z</time>
      </trkpt>
      <trkpt lat="47.343050000" lon="-2.980183333">
        <time>2018-07-24T14:40:24Z</time>
      </trkpt>
      <trkpt lat="47.342883333" lon="-2.980766667">
        <time>2018-07-24T14:40:42Z</time>
      </trkpt>
      <trkpt lat="47.342733333" lon="-2.981083333">
        <time>2018-07-24T14:40:52Z</time>
      </trkpt>
      <trkpt lat="47.342416667" lon="-2.982316667">
        <time>2018-07-24T14:41:27Z</time>
      </trkpt>
      <trkpt lat="47.342050000" lon="-2.983483333">
        <time>2018-07-24T14:41:59Z</time>
      </trkpt>
      <trkpt lat="47.341383333" lon="-2.986316667">
        <time>2018-07-24T14:43:27Z</time>
      </trkpt>
      <trkpt lat="47.341200000" lon="-2.986883333">
        <time>2018-07-24T14:43:43Z</time>
      </trkpt>
      <trkpt lat="47.341100000" lon="-2.987416667">
        <time>2018-07-24T14:44:01Z</time>
      </trkpt>
      <trkpt lat="47.340866667" lon="-2.988250000">
        <time>2018-07-24T14:44:26Z</time>
      </trkpt>
      <trkpt lat="47.340250000" lon="-2.991050000">
        <time>2018-07-24T14:45:47Z</time>
      </trkpt>
      <trkpt lat="47.339483333" lon="-2.994083333">
        <time>2018-07-24T14:47:15Z</time>
      </trkpt>
      <trkpt lat="47.339416667" lon="-2.994516667">
        <time>2018-07-24T14:47:25Z</time>
      </trkpt>
      <trkpt lat="47.339266667" lon="-2.994933333">
        <time>2018-07-24T14:47:39Z</time>
      </trkpt>
      <trkpt lat="47.339033333" lon="-2.996016667">
        <time>2018-07-24T14:48:07Z</time>
      </trkpt>
      <trkpt lat="47.338450000" lon="-2.998266667">
        <time>2018-07-24T14:49:12Z</time>
      </trkpt>
      <trkpt lat="47.337200000" lon="-3.003800000">
        <time>2018-07-24T14:51:51Z</time>
      </trkpt>
      <trkpt lat="47.336633333" lon="-3.005783333">
        <time>2018-07-24T14:52:46Z</time>
      </trkpt>
      <trkpt lat="47.336283333" lon="-3.007416667">
        <time>2018-07-24T14:53:33Z</time>
      </trkpt>
      <trkpt lat="47.335750000" lon="-3.010716667">
        <time>2018-07-24T14:55:10Z</time>
      </trkpt>
      <trkpt lat="47.335700000" lon="-3.011300000">
        <time>2018-07-24T14:55:29Z</time>
      </trkpt>
      <trkpt lat="47.335350000" lon="-3.012966667">
        <time>2018-07-24T14:56:15Z</time>
      </trkpt>
      <trkpt lat="47.335016667" lon="-3.015600000">
        <time>2018-07-24T14:57:35Z</time>
      </trkpt>
      <trkpt lat="47.334833333" lon="-3.016716667">
        <time>2018-07-24T14:58:07Z</time>
      </trkpt>
      <trkpt lat="47.334683333" lon="-3.018000000">
        <time>2018-07-24T14:58:46Z</time>
      </trkpt>
      <trkpt lat="47.334500000" lon="-3.020266667">
        <time>2018-07-24T14:59:59Z</time>
      </trkpt>
      <trkpt lat="47.334066667" lon="-3.023766667">
        <time>2018-07-24T15:01:44Z</time>
      </trkpt>
      <trkpt lat="47.334016667" lon="-3.024450000">
        <time>2018-07-24T15:02:07Z</time>
      </trkpt>
      <trkpt lat="47.333433333" lon="-3.028450000">
        <time>2018-07-24T15:04:13Z</time>
      </trkpt>
      <trkpt lat="47.332966667" lon="-3.031200000">
        <time>2018-07-24T15:05:40Z</time>
      </trkpt>
      <trkpt lat="47.332533333" lon="-3.032983333">
        <time>2018-07-24T15:06:34Z</time>
      </trkpt>
      <trkpt lat="47.332133333" lon="-3.035250000">
        <time>2018-07-24T15:07:43Z</time>
      </trkpt>
      <trkpt lat="47.331900000" lon="-3.036283333">
        <time>2018-07-24T15:08:16Z</time>
      </trkpt>
      <trkpt lat="47.331400000" lon="-3.039016667">
        <time>2018-07-24T15:09:41Z</time>
      </trkpt>
      <trkpt lat="47.331083333" lon="-3.040516667">
        <time>2018-07-24T15:10:27Z</time>
      </trkpt>
      <trkpt lat="47.330883333" lon="-3.041883333">
        <time>2018-07-24T15:11:12Z</time>
      </trkpt>
      <trkpt lat="47.330700000" lon="-3.042833333">
        <time>2018-07-24T15:11:44Z</time>
      </trkpt>
      <trkpt lat="47.330300000" lon="-3.045650000">
        <time>2018-07-24T15:13:18Z</time>
      </trkpt>
      <trkpt lat="47.330200000" lon="-3.046666667">
        <time>2018-07-24T15:13:52Z</time>
      </trkpt>
      <trkpt lat="47.330016667" lon="-3.047716667">
        <time>2018-07-24T15:14:26Z</time>
      </trkpt>
      <trkpt lat="47.329733333" lon="-3.050016667">
        <time>2018-07-24T15:15:43Z</time>
      </trkpt>
      <trkpt lat="47.329316667" lon="-3.054066667">
        <time>2018-07-24T15:18:00Z</time>
      </trkpt>
      <trkpt lat="47.329316667" lon="-3.054400000">
        <time>2018-07-24T15:18:12Z</time>
      </trkpt>
      <trkpt lat="47.329083333" lon="-3.056166667">
        <time>2018-07-24T15:19:10Z</time>
      </trkpt>
      <trkpt lat="47.328916667" lon="-3.058016667">
        <time>2018-07-24T15:20:09Z</time>
      </trkpt>
      <trkpt lat="47.328800000" lon="-3.058633333">
        <time>2018-07-24T15:20:28Z</time>
      </trkpt>
      <trkpt lat="47.328750000" lon="-3.059350000">
        <time>2018-07-24T15:20:52Z</time>
      </trkpt>
      <trkpt lat="47.328666667" lon="-3.059900000">
        <time>2018-07-24T15:21:12Z</time>
      </trkpt>
      <trkpt lat="47.328600000" lon="-3.060816667">
        <time>2018-07-24T15:21:47Z</time>
      </trkpt>
      <trkpt lat="47.328416667" lon="-3.062150000">
        <time>2018-07-24T15:22:36Z</time>
      </trkpt>
      <trkpt lat="47.328316667" lon="-3.063466667">
        <time>2018-07-24T15:23:21Z</time>
      </trkpt>
      <trkpt lat="47.328316667" lon="-3.064150000">
        <time>2018-07-24T15:23:43Z</time>
      </trkpt>
      <trkpt lat="47.328133333" lon="-3.065733333">
        <time>2018-07-24T15:24:34Z</time>
      </trkpt>
      <trkpt lat="47.327966667" lon="-3.068633333">
        <time>2018-07-24T15:26:10Z</time>
      </trkpt>
      <trkpt lat="47.327866667" lon="-3.069600000">
        <time>2018-07-24T15:26:44Z</time>
      </trkpt>
      <trkpt lat="47.327866667" lon="-3.070116667">
        <time>2018-07-24T15:27:00Z</time>
      </trkpt>
      <trkpt lat="47.327783333" lon="-3.070700000">
        <time>2018-07-24T15:27:21Z</time>
      </trkpt>
      <trkpt lat="47.327750000" lon="-3.071800000">
        <time>2018-07-24T15:27:57Z</time>
      </trkpt>
      <trkpt lat="47.327700000" lon="-3.072450000">
        <time>2018-07-24T15:28:22Z</time>
      </trkpt>
      <trkpt lat="47.327516667" lon="-3.073616667">
        <time>2018-07-24T15:29:02Z</time>
      </trkpt>
      <trkpt lat="47.327450000" lon="-3.073816667">
        <time>2018-07-24T15:29:08Z</time>
      </trkpt>
      <trkpt lat="47.327366667" lon="-3.074400000">
        <time>2018-07-24T15:29:25Z</time>
      </trkpt>
      <trkpt lat="47.327283333" lon="-3.075600000">
        <time>2018-07-24T15:30:05Z</time>
      </trkpt>
      <trkpt lat="47.327183333" lon="-3.076566667">
        <time>2018-07-24T15:30:38Z</time>
      </trkpt>
      <trkpt lat="47.327083333" lon="-3.077100000">
        <time>2018-07-24T15:30:56Z</time>
      </trkpt>
      <trkpt lat="47.326750000" lon="-3.080150000">
        <time>2018-07-24T15:32:32Z</time>
      </trkpt>
      <trkpt lat="47.326533333" lon="-3.081500000">
        <time>2018-07-24T15:33:17Z</time>
      </trkpt>
      <trkpt lat="47.326383333" lon="-3.083016667">
        <time>2018-07-24T15:34:05Z</time>
      </trkpt>
      <trkpt lat="47.325866667" lon="-3.084983333">
        <time>2018-07-24T15:35:09Z</time>
      </trkpt>
      <trkpt lat="47.325783333" lon="-3.085600000">
        <time>2018-07-24T15:35:29Z</time>
      </trkpt>
      <trkpt lat="47.325650000" lon="-3.086166667">
        <time>2018-07-24T15:35:49Z</time>
      </trkpt>
      <trkpt lat="47.325133333" lon="-3.087550000">
        <time>2018-07-24T15:36:40Z</time>
      </trkpt>
      <trkpt lat="47.325033333" lon="-3.088000000">
        <time>2018-07-24T15:36:56Z</time>
      </trkpt>
      <trkpt lat="47.324666667" lon="-3.089200000">
        <time>2018-07-24T15:37:39Z</time>
      </trkpt>
      <trkpt lat="47.324616667" lon="-3.089266667">
        <time>2018-07-24T15:37:43Z</time>
      </trkpt>
      <trkpt lat="47.324450000" lon="-3.090016667">
        <time>2018-07-24T15:38:10Z</time>
      </trkpt>
      <trkpt lat="47.324250000" lon="-3.090666667">
        <time>2018-07-24T15:38:34Z</time>
      </trkpt>
      <trkpt lat="47.324016667" lon="-3.091733333">
        <time>2018-07-24T15:39:17Z</time>
      </trkpt>
      <trkpt lat="47.323766667" lon="-3.092450000">
        <time>2018-07-24T15:39:43Z</time>
      </trkpt>
      <trkpt lat="47.323516667" lon="-3.093516667">
        <time>2018-07-24T15:40:24Z</time>
      </trkpt>
      <trkpt lat="47.323283333" lon="-3.094216667">
        <time>2018-07-24T15:40:53Z</time>
      </trkpt>
      <trkpt lat="47.323000000" lon="-3.095316667">
        <time>2018-07-24T15:41:29Z</time>
      </trkpt>
      <trkpt lat="47.322766667" lon="-3.096533333">
        <time>2018-07-24T15:42:14Z</time>
      </trkpt>
      <trkpt lat="47.322650000" lon="-3.097550000">
        <time>2018-07-24T15:42:49Z</time>
      </trkpt>
      <trkpt lat="47.322400000" lon="-3.099150000">
        <time>2018-07-24T15:43:48Z</time>
      </trkpt>
      <trkpt lat="47.322266667" lon="-3.099850000">
        <time>2018-07-24T15:44:16Z</time>
      </trkpt>
      <trkpt lat="47.321983333" lon="-3.100766667">
        <time>2018-07-24T15:44:53Z</time>
      </trkpt>
      <trkpt lat="47.321983333" lon="-3.100900000">
        <time>2018-07-24T15:45:01Z</time>
      </trkpt>
      <trkpt lat="47.322016667" lon="-3.101050000">
        <time>2018-07-24T15:45:13Z</time>
      </trkpt>
      <trkpt lat="47.323066667" lon="-3.101533333">
        <time>2018-07-24T15:46:41Z</time>
      </trkpt>
      <trkpt lat="47.323666667" lon="-3.101966667">
        <time>2018-07-24T15:47:19Z</time>
      </trkpt>
      <trkpt lat="47.324350000" lon="-3.102516667">
        <time>2018-07-24T15:48:06Z</time>
      </trkpt>
      <trkpt lat="47.324966667" lon="-3.103133333">
        <time>2018-07-24T15:48:49Z</time>
      </trkpt>
      <trkpt lat="47.325366667" lon="-3.103616667">
        <time>2018-07-24T15:49:22Z</time>
      </trkpt>
      <trkpt lat="47.326550000" lon="-3.104783333">
        <time>2018-07-24T15:50:37Z</time>
      </trkpt>
      <trkpt lat="47.327616667" lon="-3.106183333">
        <time>2018-07-24T15:51:46Z</time>
      </trkpt>
      <trkpt lat="47.328266667" lon="-3.107133333">
        <time>2018-07-24T15:52:25Z</time>
      </trkpt>
      <trkpt lat="47.328783333" lon="-3.108033333">
        <time>2018-07-24T15:53:00Z</time>
      </trkpt>
      <trkpt lat="47.329000000" lon="-3.108316667">
        <time>2018-07-24T15:53:14Z</time>
      </trkpt>
      <trkpt lat="47.329716667" lon="-3.109450000">
        <time>2018-07-24T15:54:09Z</time>
      </trkpt>
      <trkpt lat="47.329733333" lon="-3.109533333">
        <time>2018-07-24T15:54:11Z</time>
      </trkpt>
      <trkpt lat="47.329800000" lon="-3.109583333">
        <time>2018-07-24T15:54:15Z</time>
      </trkpt>
      <trkpt lat="47.330266667" lon="-3.110350000">
        <time>2018-07-24T15:54:47Z</time>
      </trkpt>
      <trkpt lat="47.330550000" lon="-3.110950000">
        <time>2018-07-24T15:55:14Z</time>
      </trkpt>
      <trkpt lat="47.330900000" lon="-3.111483333">
        <time>2018-07-24T15:55:40Z</time>
      </trkpt>
      <trkpt lat="47.331950000" lon="-3.113333333">
        <time>2018-07-24T15:56:56Z</time>
      </trkpt>
      <trkpt lat="47.331966667" lon="-3.113433333">
        <time>2018-07-24T15:57:00Z</time>
      </trkpt>
      <trkpt lat="47.332150000" lon="-3.113650000">
        <time>2018-07-24T15:57:10Z</time>
      </trkpt>
      <trkpt lat="47.332833333" lon="-3.114766667">
        <time>2018-07-24T15:58:01Z</time>
      </trkpt>
      <trkpt lat="47.333350000" lon="-3.115733333">
        <time>2018-07-24T15:58:39Z</time>
      </trkpt>
      <trkpt lat="47.333466667" lon="-3.115850000">
        <time>2018-07-24T15:58:45Z</time>
      </trkpt>
      <trkpt lat="47.334416667" lon="-3.117616667">
        <time>2018-07-24T16:00:01Z</time>
      </trkpt>
      <trkpt lat="47.335366667" lon="-3.119083333">
        <time>2018-07-24T16:01:10Z</time>
      </trkpt>
      <trkpt lat="47.336283333" lon="-3.120250000">
        <time>2018-07-24T16:02:11Z</time>
      </trkpt>
      <trkpt lat="47.336950000" lon="-3.120950000">
        <time>2018-07-24T16:02:54Z</time>
      </trkpt>
      <trkpt lat="47.337466667" lon="-3.121650000">
        <time>2018-07-24T16:03:30Z</time>
      </trkpt>
      <trkpt lat="47.337983333" lon="-3.122183333">
        <time>2018-07-24T16:03:59Z</time>
      </trkpt>
      <trkpt lat="47.338516667" lon="-3.122833333">
        <time>2018-07-24T16:04:29Z</time>
      </trkpt>
      <trkpt lat="47.339900000" lon="-3.124350000">
        <time>2018-07-24T16:05:49Z</time>
      </trkpt>
      <trkpt lat="47.340666667" lon="-3.125316667">
        <time>2018-07-24T16:06:29Z</time>
      </trkpt>
      <trkpt lat="47.341366667" lon="-3.126466667">
        <time>2018-07-24T16:07:14Z</time>
      </trkpt>
      <trkpt lat="47.341700000" lon="-3.126900000">
        <time>2018-07-24T16:07:32Z</time>
      </trkpt>
      <trkpt lat="47.341800000" lon="-3.127133333">
        <time>2018-07-24T16:07:39Z</time>
      </trkpt>
      <trkpt lat="47.341883333" lon="-3.127183333">
        <time>2018-07-24T16:07:43Z</time>
      </trkpt>
      <trkpt lat="47.342016667" lon="-3.127400000">
        <time>2018-07-24T16:07:49Z</time>
      </trkpt>
      <trkpt lat="47.342250000" lon="-3.127633333">
        <time>2018-07-24T16:07:59Z</time>
      </trkpt>
      <trkpt lat="47.342616667" lon="-3.128166667">
        <time>2018-07-24T16:08:19Z</time>
      </trkpt>
      <trkpt lat="47.342866667" lon="-3.128633333">
        <time>2018-07-24T16:08:36Z</time>
      </trkpt>
      <trkpt lat="47.343000000" lon="-3.128766667">
        <time>2018-07-24T16:08:42Z</time>
      </trkpt>
      <trkpt lat="47.343500000" lon="-3.129516667">
        <time>2018-07-24T16:09:08Z</time>
      </trkpt>
      <trkpt lat="47.343750000" lon="-3.130050000">
        <time>2018-07-24T16:09:22Z</time>
      </trkpt>
      <trkpt lat="47.344483333" lon="-3.130983333">
        <time>2018-07-24T16:09:59Z</time>
      </trkpt>
      <trkpt lat="47.344700000" lon="-3.131183333">
        <time>2018-07-24T16:10:09Z</time>
      </trkpt>
      <trkpt lat="47.344900000" lon="-3.131466667">
        <time>2018-07-24T16:10:19Z</time>
      </trkpt>
      <trkpt lat="47.345850000" lon="-3.132466667">
        <time>2018-07-24T16:11:04Z</time>
      </trkpt>
      <trkpt lat="47.346583333" lon="-3.133050000">
        <time>2018-07-24T16:11:33Z</time>
      </trkpt>
      <trkpt lat="47.347833333" lon="-3.133883333">
        <time>2018-07-24T16:12:22Z</time>
      </trkpt>
      <trkpt lat="47.347883333" lon="-3.133983333">
        <time>2018-07-24T16:12:26Z</time>
      </trkpt>
      <trkpt lat="47.347983333" lon="-3.134016667">
        <time>2018-07-24T16:12:28Z</time>
      </trkpt>
      <trkpt lat="47.349283333" lon="-3.135516667">
        <time>2018-07-24T16:13:31Z</time>
      </trkpt>
      <trkpt lat="47.349383333" lon="-3.135566667">
        <time>2018-07-24T16:13:33Z</time>
      </trkpt>
      <trkpt lat="47.350266667" lon="-3.136533333">
        <time>2018-07-24T16:14:13Z</time>
      </trkpt>
      <trkpt lat="47.350583333" lon="-3.136783333">
        <time>2018-07-24T16:14:26Z</time>
      </trkpt>
      <trkpt lat="47.350650000" lon="-3.136916667">
        <time>2018-07-24T16:14:30Z</time>
      </trkpt>
      <trkpt lat="47.350666667" lon="-3.137000000">
        <time>2018-07-24T16:14:34Z</time>
      </trkpt>
      <trkpt lat="47.350516667" lon="-3.137116667">
        <time>2018-07-24T16:14:44Z</time>
      </trkpt>
      <trkpt lat="47.350450000" lon="-3.137216667">
        <time>2018-07-24T16:14:48Z</time>
      </trkpt>
      <trkpt lat="47.350433333" lon="-3.137450000">
        <time>2018-07-24T16:15:00Z</time>
      </trkpt>
      <trkpt lat="47.350316667" lon="-3.137650000">
        <time>2018-07-24T16:15:10Z</time>
      </trkpt>
      <trkpt lat="47.350266667" lon="-3.137866667">
        <time>2018-07-24T16:15:18Z</time>
      </trkpt>
      <trkpt lat="47.350150000" lon="-3.138100000">
        <time>2018-07-24T16:15:30Z</time>
      </trkpt>
      <trkpt lat="47.349966667" lon="-3.138700000">
        <time>2018-07-24T16:15:53Z</time>
      </trkpt>
      <trkpt lat="47.349633333" lon="-3.140616667">
        <time>2018-07-24T16:17:10Z</time>
      </trkpt>
      <trkpt lat="47.349566667" lon="-3.141216667">
        <time>2018-07-24T16:17:30Z</time>
      </trkpt>
      <trkpt lat="47.349333333" lon="-3.142383333">
        <time>2018-07-24T16:18:12Z</time>
      </trkpt>
      <trkpt lat="47.349300000" lon="-3.142750000">
        <time>2018-07-24T16:18:23Z</time>
      </trkpt>
      <trkpt lat="47.349150000" lon="-3.143300000">
        <time>2018-07-24T16:18:43Z</time>
      </trkpt>
      <trkpt lat="47.349016667" lon="-3.144033333">
        <time>2018-07-24T16:19:07Z</time>
      </trkpt>
      <trkpt lat="47.349016667" lon="-3.144350000">
        <time>2018-07-24T16:19:17Z</time>
      </trkpt>
      <trkpt lat="47.348933333" lon="-3.144583333">
        <time>2018-07-24T16:19:29Z</time>
      </trkpt>
      <trkpt lat="47.348883333" lon="-3.145133333">
        <time>2018-07-24T16:19:44Z</time>
      </trkpt>
      <trkpt lat="47.348766667" lon="-3.145600000">
        <time>2018-07-24T16:20:00Z</time>
      </trkpt>
      <trkpt lat="47.348766667" lon="-3.146633333">
        <time>2018-07-24T16:20:40Z</time>
      </trkpt>
      <trkpt lat="47.348733333" lon="-3.146800000">
        <time>2018-07-24T16:20:51Z</time>
      </trkpt>
      <trkpt lat="47.348433333" lon="-3.147300000">
        <time>2018-07-24T16:21:21Z</time>
      </trkpt>
      <trkpt lat="47.348066667" lon="-3.147650000">
        <time>2018-07-24T16:21:49Z</time>
      </trkpt>
      <trkpt lat="47.347933333" lon="-3.147850000">
        <time>2018-07-24T16:22:01Z</time>
      </trkpt>
      <trkpt lat="47.347816667" lon="-3.148166667">
        <time>2018-07-24T16:22:24Z</time>
      </trkpt>
      <trkpt lat="47.347733333" lon="-3.148283333">
        <time>2018-07-24T16:22:38Z</time>
      </trkpt>
      <trkpt lat="47.347466667" lon="-3.148366667">
        <time>2018-07-24T16:23:00Z</time>
      </trkpt>
      <trkpt lat="47.347083333" lon="-3.148583333">
        <time>2018-07-24T16:23:27Z</time>
      </trkpt>
      <trkpt lat="47.346800000" lon="-3.148850000">
        <time>2018-07-24T16:23:57Z</time>
      </trkpt>
      <trkpt lat="47.346733333" lon="-3.148983333">
        <time>2018-07-24T16:24:05Z</time>
      </trkpt>
      <trkpt lat="47.346716667" lon="-3.149150000">
        <time>2018-07-24T16:24:18Z</time>
      </trkpt>
      <trkpt lat="47.346750000" lon="-3.149300000">
        <time>2018-07-24T16:24:34Z</time>
      </trkpt>
      <trkpt lat="47.346750000" lon="-3.149433333">
        <time>2018-07-24T16:24:54Z</time>
      </trkpt>
      <trkpt lat="47.346450000" lon="-3.149650000">
        <time>2018-07-24T16:25:33Z</time>
      </trkpt>
      <trkpt lat="47.346283333" lon="-3.149566667">
        <time>2018-07-24T16:25:45Z</time>
      </trkpt>
      <trkpt lat="47.346016667" lon="-3.149233333">
        <time>2018-07-24T16:26:05Z</time>
      </trkpt>
      <trkpt lat="47.345850000" lon="-3.149116667">
        <time>2018-07-24T16:26:15Z</time>
      </trkpt>
      <trkpt lat="47.345433333" lon="-3.149050000">
        <time>2018-07-24T16:26:42Z</time>
      </trkpt>
      <trkpt lat="47.345316667" lon="-3.148966667">
        <time>2018-07-24T16:26:50Z</time>
      </trkpt>
      <trkpt lat="47.345066667" lon="-3.148533333">
        <time>2018-07-24T16:27:12Z</time>
      </trkpt>
      <trkpt lat="47.344966667" lon="-3.148250000">
        <time>2018-07-24T16:27:25Z</time>
      </trkpt>
      <trkpt lat="47.344816667" lon="-3.147033333">
        <time>2018-07-24T16:28:11Z</time>
      </trkpt>
      <trkpt lat="47.344700000" lon="-3.146650000">
        <time>2018-07-24T16:28:30Z</time>
      </trkpt>
      <trkpt lat="47.344633333" lon="-3.146583333">
        <time>2018-07-24T16:28:38Z</time>
      </trkpt>
      <trkpt lat="47.344533333" lon="-3.146666667">
        <time>2018-07-24T16:28:46Z</time>
      </trkpt>
      <trkpt lat="47.344583333" lon="-3.146850000">
        <time>2018-07-24T16:29:06Z</time>
      </trkpt>
      <trkpt lat="47.344616667" lon="-3.146833333">
        <time>2018-07-24T16:46:17Z</time>
      </trkpt>
      <trkpt lat="47.344550000" lon="-3.146833333">
        <time>2018-07-24T17:37:29Z</time>
      </trkpt>
      <trkpt lat="47.344600000" lon="-3.146816667">
        <time>2018-07-24T18:09:22Z</time>
      </trkpt>
      <trkpt lat="47.344583333" lon="-3.146833333">
        <time>2018-07-24T18:25:29Z</time>
      </trkpt>
    </trkseg>
  </trk>
</gpx>
