<?xml version="1.0"?>
<gpx version="1.1" creator="OpenCPN" xmlns:xsi="http://www.w3.org/2001/XMLSchema-instance" xmlns="http://www.topografix.com/GPX/1/1" xmlns:gpxx="http://www.garmin.com/xmlschemas/GpxExtensions/v3" xsi:schemaLocation="http://www.topografix.com/GPX/1/1 http://www.topografix.com/GPX/1/1/gpx.xsd" xmlns:opencpn="http://www.opencpn.org">
  <wpt lat="47.406835000" lon="-3.000983333">
    <time>2018-07-26T12:37:20Z</time>
    <name>ATT Beniguet</name>
    <sym>triangle</sym>
    <type>WPT</type>
    <extensions>
      <opencpn:guid>58393b47-760a-43fd-8e05-7e781e25fcc7</opencpn:guid>
      <opencpn:viz_name>1</opencpn:viz_name>
      <opencpn:arrival_radius>0.050</opencpn:arrival_radius>
      <opencpn:waypoint_range_rings visible="false" number="0" step="1" units="0" colour="#FF0000" />
    </extensions>
  </wpt>
  <wpt lat="47.421088333" lon="-2.938413333">
    <time>2018-07-26T13:14:45Z</time>
    <name>N_La_Vieille</name>
    <desc>Relevee le 26//07/2018
Au nord des 2 bouées du parc a moules</desc>
    <sym>triangle</sym>
    <type>WPT</type>
    <extensions>
      <opencpn:guid>1ab559ca-d12d-4c4f-a28c-f4024d357bc5</opencpn:guid>
      <opencpn:viz_name>1</opencpn:viz_name>
      <opencpn:arrival_radius>0.050</opencpn:arrival_radius>
      <opencpn:waypoint_range_rings visible="false" number="0" step="1" units="0" colour="#FF0000" />
    </extensions>
  </wpt>
  <wpt lat="47.483786667" lon="-2.581233333">
    <time>2018-07-26T16:38:26Z</time>
    <name>S_Les_mats</name>
    <desc>Relevee le 26/07/2018</desc>
    <sym>triangle</sym>
    <type>WPT</type>
    <extensions>
      <opencpn:guid>18fc71a6-54dd-4cf1-b694-9a8c7e98f2ea</opencpn:guid>
      <opencpn:viz_name>1</opencpn:viz_name>
      <opencpn:arrival_radius>0.050</opencpn:arrival_radius>
      <opencpn:waypoint_range_rings visible="false" number="0" step="1" units="0" colour="#FF0000" />
    </extensions>
  </wpt>
  <wpt lat="47.506033333" lon="-2.479533333">
    <time>2018-09-26T14:57:35Z</time>
    <name>Vilaine_IN</name>
    <desc>Porte d'entree de la Vilaine,, bouees 1 et 2</desc>
    <sym>boundary</sym>
    <type>WPT</type>
    <extensions>
      <opencpn:guid>3173d0b9-867d-407d-a6c9-1137392cae1d</opencpn:guid>
      <opencpn:viz_name>1</opencpn:viz_name>
      <opencpn:arrival_radius>-0.100</opencpn:arrival_radius>
      <opencpn:waypoint_range_rings visible="false" number="0" step="1" units="0" colour="#FF0000" />
    </extensions>
  </wpt>
  <trk>
    <name>sortie du mercredi 27 ou 28 septembre 2018</name>
    <extensions>
      <opencpn:guid>5a0807f0-2ac3-4a87-90f2-af6467ae4c13</opencpn:guid>
      <opencpn:viz>1</opencpn:viz>
      <opencpn:start>arzal</opencpn:start>
      <opencpn:end>arzal</opencpn:end>
    </extensions>
    <trkseg>
      <trkpt lat="47.503533333" lon="-2.386866667">
        <time>2018-09-26T07:23:07Z</time>
      </trkpt>
      <trkpt lat="47.503650000" lon="-2.386866667">
        <time>2018-09-26T07:28:42Z</time>
      </trkpt>
      <trkpt lat="47.503866667" lon="-2.387116667">
        <time>2018-09-26T07:29:20Z</time>
      </trkpt>
      <trkpt lat="47.504083333" lon="-2.387683333">
        <time>2018-09-26T07:29:49Z</time>
      </trkpt>
      <trkpt lat="47.504233333" lon="-2.388266667">
        <time>2018-09-26T07:30:15Z</time>
      </trkpt>
      <trkpt lat="47.504500000" lon="-2.389766667">
        <time>2018-09-26T07:31:10Z</time>
      </trkpt>
      <trkpt lat="47.504950000" lon="-2.392750000">
        <time>2018-09-26T07:32:47Z</time>
      </trkpt>
      <trkpt lat="47.505033333" lon="-2.393450000">
        <time>2018-09-26T07:33:09Z</time>
      </trkpt>
      <trkpt lat="47.505050000" lon="-2.394283333">
        <time>2018-09-26T07:33:35Z</time>
      </trkpt>
      <trkpt lat="47.505000000" lon="-2.394933333">
        <time>2018-09-26T07:33:54Z</time>
      </trkpt>
      <trkpt lat="47.504800000" lon="-2.396066667">
        <time>2018-09-26T07:34:32Z</time>
      </trkpt>
      <trkpt lat="47.504616667" lon="-2.396816667">
        <time>2018-09-26T07:34:54Z</time>
      </trkpt>
      <trkpt lat="47.504433333" lon="-2.397433333">
        <time>2018-09-26T07:35:14Z</time>
      </trkpt>
      <trkpt lat="47.504183333" lon="-2.398016667">
        <time>2018-09-26T07:35:35Z</time>
      </trkpt>
      <trkpt lat="47.503950000" lon="-2.398433333">
        <time>2018-09-26T07:35:51Z</time>
      </trkpt>
      <trkpt lat="47.503366667" lon="-2.399183333">
        <time>2018-09-26T07:36:25Z</time>
      </trkpt>
      <trkpt lat="47.501483333" lon="-2.401083333">
        <time>2018-09-26T07:38:00Z</time>
      </trkpt>
      <trkpt lat="47.500933333" lon="-2.401716667">
        <time>2018-09-26T07:38:29Z</time>
      </trkpt>
      <trkpt lat="47.500133333" lon="-2.402500000">
        <time>2018-09-26T07:39:07Z</time>
      </trkpt>
      <trkpt lat="47.499816667" lon="-2.402716667">
        <time>2018-09-26T07:39:19Z</time>
      </trkpt>
      <trkpt lat="47.499733333" lon="-2.402833333">
        <time>2018-09-26T07:39:25Z</time>
      </trkpt>
      <trkpt lat="47.498816667" lon="-2.403516667">
        <time>2018-09-26T07:40:04Z</time>
      </trkpt>
      <trkpt lat="47.496883333" lon="-2.405133333">
        <time>2018-09-26T07:41:31Z</time>
      </trkpt>
      <trkpt lat="47.495183333" lon="-2.406333333">
        <time>2018-09-26T07:42:42Z</time>
      </trkpt>
      <trkpt lat="47.494583333" lon="-2.406816667">
        <time>2018-09-26T07:43:08Z</time>
      </trkpt>
      <trkpt lat="47.494316667" lon="-2.407100000">
        <time>2018-09-26T07:43:20Z</time>
      </trkpt>
      <trkpt lat="47.493866667" lon="-2.407800000">
        <time>2018-09-26T07:43:44Z</time>
      </trkpt>
      <trkpt lat="47.493500000" lon="-2.408600000">
        <time>2018-09-26T07:44:09Z</time>
      </trkpt>
      <trkpt lat="47.493216667" lon="-2.409466667">
        <time>2018-09-26T07:44:33Z</time>
      </trkpt>
      <trkpt lat="47.493050000" lon="-2.410150000">
        <time>2018-09-26T07:44:51Z</time>
      </trkpt>
      <trkpt lat="47.492966667" lon="-2.410616667">
        <time>2018-09-26T07:45:03Z</time>
      </trkpt>
      <trkpt lat="47.492916667" lon="-2.411183333">
        <time>2018-09-26T07:45:16Z</time>
      </trkpt>
      <trkpt lat="47.492916667" lon="-2.411916667">
        <time>2018-09-26T07:45:34Z</time>
      </trkpt>
      <trkpt lat="47.493000000" lon="-2.412550000">
        <time>2018-09-26T07:45:52Z</time>
      </trkpt>
      <trkpt lat="47.493166667" lon="-2.413150000">
        <time>2018-09-26T07:46:06Z</time>
      </trkpt>
      <trkpt lat="47.493716667" lon="-2.414583333">
        <time>2018-09-26T07:46:49Z</time>
      </trkpt>
      <trkpt lat="47.494450000" lon="-2.416366667">
        <time>2018-09-26T07:47:41Z</time>
      </trkpt>
      <trkpt lat="47.494566667" lon="-2.416566667">
        <time>2018-09-26T07:47:49Z</time>
      </trkpt>
      <trkpt lat="47.494600000" lon="-2.400033333">
        <time>2018-09-26T07:47:51Z</time>
      </trkpt>
      <trkpt lat="47.494650000" lon="-2.416766667">
        <time>2018-09-26T07:47:54Z</time>
      </trkpt>
      <trkpt lat="47.494683333" lon="-2.416900000">
        <time>2018-09-26T07:47:58Z</time>
      </trkpt>
      <trkpt lat="47.494716667" lon="-2.416900000">
        <time>2018-09-26T07:48:00Z</time>
      </trkpt>
      <trkpt lat="47.494750000" lon="-2.417033333">
        <time>2018-09-26T07:48:02Z</time>
      </trkpt>
      <trkpt lat="47.494816667" lon="-2.417100000">
        <time>2018-09-26T07:48:04Z</time>
      </trkpt>
      <trkpt lat="47.494950000" lon="-2.417516667">
        <time>2018-09-26T07:48:16Z</time>
      </trkpt>
      <trkpt lat="47.495016667" lon="-2.417583333">
        <time>2018-09-26T07:48:18Z</time>
      </trkpt>
      <trkpt lat="47.495466667" lon="-2.418566667">
        <time>2018-09-26T07:48:48Z</time>
      </trkpt>
      <trkpt lat="47.495850000" lon="-2.419250000">
        <time>2018-09-26T07:49:10Z</time>
      </trkpt>
      <trkpt lat="47.496533333" lon="-2.420700000">
        <time>2018-09-26T07:49:55Z</time>
      </trkpt>
      <trkpt lat="47.496800000" lon="-2.421416667">
        <time>2018-09-26T07:50:15Z</time>
      </trkpt>
      <trkpt lat="47.497116667" lon="-2.422833333">
        <time>2018-09-26T07:50:49Z</time>
      </trkpt>
      <trkpt lat="47.497283333" lon="-2.424266667">
        <time>2018-09-26T07:51:26Z</time>
      </trkpt>
      <trkpt lat="47.497333333" lon="-2.425933333">
        <time>2018-09-26T07:52:10Z</time>
      </trkpt>
      <trkpt lat="47.497433333" lon="-2.426883333">
        <time>2018-09-26T07:52:37Z</time>
      </trkpt>
      <trkpt lat="47.497466667" lon="-2.427500000">
        <time>2018-09-26T07:52:53Z</time>
      </trkpt>
      <trkpt lat="47.497450000" lon="-2.428716667">
        <time>2018-09-26T07:53:23Z</time>
      </trkpt>
      <trkpt lat="47.496866667" lon="-2.434866667">
        <time>2018-09-26T07:55:51Z</time>
      </trkpt>
      <trkpt lat="47.496383333" lon="-2.440750000">
        <time>2018-09-26T07:58:08Z</time>
      </trkpt>
      <trkpt lat="47.496166667" lon="-2.444066667">
        <time>2018-09-26T07:59:25Z</time>
      </trkpt>
      <trkpt lat="47.495616667" lon="-2.450950000">
        <time>2018-09-26T08:02:01Z</time>
      </trkpt>
      <trkpt lat="47.495450000" lon="-2.452566667">
        <time>2018-09-26T08:02:37Z</time>
      </trkpt>
      <trkpt lat="47.495266667" lon="-2.456600000">
        <time>2018-09-26T08:04:07Z</time>
      </trkpt>
      <trkpt lat="47.495266667" lon="-2.457833333">
        <time>2018-09-26T08:04:35Z</time>
      </trkpt>
      <trkpt lat="47.495316667" lon="-2.458600000">
        <time>2018-09-26T08:04:53Z</time>
      </trkpt>
      <trkpt lat="47.495433333" lon="-2.459500000">
        <time>2018-09-26T08:05:15Z</time>
      </trkpt>
      <trkpt lat="47.495583333" lon="-2.460200000">
        <time>2018-09-26T08:05:34Z</time>
      </trkpt>
      <trkpt lat="47.495833333" lon="-2.461100000">
        <time>2018-09-26T08:05:58Z</time>
      </trkpt>
      <trkpt lat="47.496550000" lon="-2.462933333">
        <time>2018-09-26T08:06:50Z</time>
      </trkpt>
      <trkpt lat="47.497566667" lon="-2.464850000">
        <time>2018-09-26T08:07:55Z</time>
      </trkpt>
      <trkpt lat="47.498166667" lon="-2.465850000">
        <time>2018-09-26T08:08:30Z</time>
      </trkpt>
      <trkpt lat="47.498266667" lon="-2.466100000">
        <time>2018-09-26T08:08:36Z</time>
      </trkpt>
      <trkpt lat="47.498316667" lon="-2.466100000">
        <time>2018-09-26T08:08:38Z</time>
      </trkpt>
      <trkpt lat="47.498450000" lon="-2.466400000">
        <time>2018-09-26T08:08:46Z</time>
      </trkpt>
      <trkpt lat="47.498600000" lon="-2.466583333">
        <time>2018-09-26T08:08:52Z</time>
      </trkpt>
      <trkpt lat="47.498700000" lon="-2.466816667">
        <time>2018-09-26T08:09:00Z</time>
      </trkpt>
      <trkpt lat="47.498783333" lon="-2.466866667">
        <time>2018-09-26T08:09:02Z</time>
      </trkpt>
      <trkpt lat="47.498883333" lon="-2.467116667">
        <time>2018-09-26T08:09:10Z</time>
      </trkpt>
      <trkpt lat="47.498966667" lon="-2.467166667">
        <time>2018-09-26T08:09:12Z</time>
      </trkpt>
      <trkpt lat="47.499650000" lon="-2.468316667">
        <time>2018-09-26T08:09:50Z</time>
      </trkpt>
      <trkpt lat="47.500750000" lon="-2.469950000">
        <time>2018-09-26T08:10:49Z</time>
      </trkpt>
      <trkpt lat="47.501450000" lon="-2.471133333">
        <time>2018-09-26T08:11:29Z</time>
      </trkpt>
      <trkpt lat="47.502316667" lon="-2.472466667">
        <time>2018-09-26T08:12:18Z</time>
      </trkpt>
      <trkpt lat="47.502750000" lon="-2.473250000">
        <time>2018-09-26T08:12:42Z</time>
      </trkpt>
      <trkpt lat="47.502916667" lon="-2.473633333">
        <time>2018-09-26T08:12:54Z</time>
      </trkpt>
      <trkpt lat="47.503350000" lon="-2.474950000">
        <time>2018-09-26T08:13:33Z</time>
      </trkpt>
      <trkpt lat="47.504116667" lon="-2.476650000">
        <time>2018-09-26T08:14:25Z</time>
      </trkpt>
      <trkpt lat="47.504150000" lon="-2.476650000">
        <time>2018-09-26T08:14:27Z</time>
      </trkpt>
      <trkpt lat="47.504416667" lon="-2.477116667">
        <time>2018-09-26T08:14:44Z</time>
      </trkpt>
      <trkpt lat="47.504433333" lon="-2.477233333">
        <time>2018-09-26T08:14:46Z</time>
      </trkpt>
      <trkpt lat="47.504866667" lon="-2.478050000">
        <time>2018-09-26T08:15:14Z</time>
      </trkpt>
      <trkpt lat="47.505716667" lon="-2.479800000">
        <time>2018-09-26T08:16:12Z</time>
      </trkpt>
      <trkpt lat="47.505800000" lon="-2.480050000">
        <time>2018-09-26T08:16:21Z</time>
      </trkpt>
      <trkpt lat="47.505900000" lon="-2.481083333">
        <time>2018-09-26T08:16:49Z</time>
      </trkpt>
      <trkpt lat="47.506016667" lon="-2.483400000">
        <time>2018-09-26T08:17:47Z</time>
      </trkpt>
      <trkpt lat="47.506100000" lon="-2.486783333">
        <time>2018-09-26T08:19:18Z</time>
      </trkpt>
      <trkpt lat="47.506100000" lon="-2.491450000">
        <time>2018-09-26T08:21:24Z</time>
      </trkpt>
      <trkpt lat="47.506016667" lon="-2.496266667">
        <time>2018-09-26T08:23:33Z</time>
      </trkpt>
      <trkpt lat="47.505950000" lon="-2.498133333">
        <time>2018-09-26T08:24:24Z</time>
      </trkpt>
      <trkpt lat="47.505900000" lon="-2.498700000">
        <time>2018-09-26T08:24:40Z</time>
      </trkpt>
      <trkpt lat="47.504833333" lon="-2.502783333">
        <time>2018-09-26T08:26:40Z</time>
      </trkpt>
      <trkpt lat="47.504066667" lon="-2.505933333">
        <time>2018-09-26T08:28:09Z</time>
      </trkpt>
      <trkpt lat="47.503366667" lon="-2.508466667">
        <time>2018-09-26T08:29:20Z</time>
      </trkpt>
      <trkpt lat="47.503300000" lon="-2.508533333">
        <time>2018-09-26T08:29:24Z</time>
      </trkpt>
      <trkpt lat="47.503283333" lon="-2.508650000">
        <time>2018-09-26T08:29:28Z</time>
      </trkpt>
      <trkpt lat="47.503100000" lon="-2.508983333">
        <time>2018-09-26T08:29:40Z</time>
      </trkpt>
      <trkpt lat="47.502983333" lon="-2.508966667">
        <time>2018-09-26T08:29:54Z</time>
      </trkpt>
      <trkpt lat="47.503016667" lon="-2.508966667">
        <time>2018-09-26T08:31:53Z</time>
      </trkpt>
      <trkpt lat="47.503033333" lon="-2.509100000">
        <time>2018-09-26T08:32:05Z</time>
      </trkpt>
      <trkpt lat="47.502966667" lon="-2.509316667">
        <time>2018-09-26T08:32:13Z</time>
      </trkpt>
      <trkpt lat="47.502566667" lon="-2.511633333">
        <time>2018-09-26T08:33:16Z</time>
      </trkpt>
      <trkpt lat="47.502300000" lon="-2.513000000">
        <time>2018-09-26T08:33:54Z</time>
      </trkpt>
      <trkpt lat="47.501900000" lon="-2.514400000">
        <time>2018-09-26T08:34:37Z</time>
      </trkpt>
      <trkpt lat="47.501550000" lon="-2.515433333">
        <time>2018-09-26T08:35:05Z</time>
      </trkpt>
      <trkpt lat="47.501200000" lon="-2.516600000">
        <time>2018-09-26T08:35:37Z</time>
      </trkpt>
      <trkpt lat="47.501150000" lon="-2.516883333">
        <time>2018-09-26T08:35:43Z</time>
      </trkpt>
      <trkpt lat="47.501116667" lon="-2.516883333">
        <time>2018-09-26T08:35:45Z</time>
      </trkpt>
      <trkpt lat="47.500316667" lon="-2.519716667">
        <time>2018-09-26T08:37:02Z</time>
      </trkpt>
      <trkpt lat="47.500100000" lon="-2.520633333">
        <time>2018-09-26T08:37:27Z</time>
      </trkpt>
      <trkpt lat="47.499350000" lon="-2.523166667">
        <time>2018-09-26T08:38:33Z</time>
      </trkpt>
      <trkpt lat="47.499100000" lon="-2.524166667">
        <time>2018-09-26T08:39:00Z</time>
      </trkpt>
      <trkpt lat="47.497400000" lon="-2.529916667">
        <time>2018-09-26T08:41:35Z</time>
      </trkpt>
      <trkpt lat="47.497233333" lon="-2.530666667">
        <time>2018-09-26T08:41:52Z</time>
      </trkpt>
      <trkpt lat="47.497183333" lon="-2.530750000">
        <time>2018-09-26T08:41:56Z</time>
      </trkpt>
      <trkpt lat="47.496566667" lon="-2.533250000">
        <time>2018-09-26T08:42:52Z</time>
      </trkpt>
      <trkpt lat="47.496250000" lon="-2.534416667">
        <time>2018-09-26T08:43:21Z</time>
      </trkpt>
      <trkpt lat="47.495983333" lon="-2.535200000">
        <time>2018-09-26T08:43:41Z</time>
      </trkpt>
      <trkpt lat="47.495400000" lon="-2.537200000">
        <time>2018-09-26T08:44:33Z</time>
      </trkpt>
      <trkpt lat="47.494633333" lon="-2.540066667">
        <time>2018-09-26T08:45:50Z</time>
      </trkpt>
      <trkpt lat="47.494216667" lon="-2.541383333">
        <time>2018-09-26T08:46:25Z</time>
      </trkpt>
      <trkpt lat="47.493700000" lon="-2.543383333">
        <time>2018-09-26T08:47:11Z</time>
      </trkpt>
      <trkpt lat="47.493650000" lon="-2.543466667">
        <time>2018-09-26T08:47:15Z</time>
      </trkpt>
      <trkpt lat="47.493600000" lon="-2.543800000">
        <time>2018-09-26T08:47:22Z</time>
      </trkpt>
      <trkpt lat="47.493566667" lon="-2.543800000">
        <time>2018-09-26T08:47:24Z</time>
      </trkpt>
      <trkpt lat="47.493433333" lon="-2.544383333">
        <time>2018-09-26T08:47:36Z</time>
      </trkpt>
      <trkpt lat="47.493383333" lon="-2.544466667">
        <time>2018-09-26T08:47:38Z</time>
      </trkpt>
      <trkpt lat="47.493366667" lon="-2.544633333">
        <time>2018-09-26T08:47:42Z</time>
      </trkpt>
      <trkpt lat="47.493333333" lon="-2.544633333">
        <time>2018-09-26T08:47:44Z</time>
      </trkpt>
      <trkpt lat="47.492666667" lon="-2.547116667">
        <time>2018-09-26T08:48:45Z</time>
      </trkpt>
      <trkpt lat="47.492583333" lon="-2.547566667">
        <time>2018-09-26T08:48:55Z</time>
      </trkpt>
      <trkpt lat="47.492383333" lon="-2.548200000">
        <time>2018-09-26T08:49:11Z</time>
      </trkpt>
      <trkpt lat="47.492233333" lon="-2.548850000">
        <time>2018-09-26T08:49:27Z</time>
      </trkpt>
      <trkpt lat="47.492083333" lon="-2.549300000">
        <time>2018-09-26T08:49:39Z</time>
      </trkpt>
      <trkpt lat="47.491850000" lon="-2.550350000">
        <time>2018-09-26T08:50:02Z</time>
      </trkpt>
      <trkpt lat="47.491200000" lon="-2.552566667">
        <time>2018-09-26T08:50:54Z</time>
      </trkpt>
      <trkpt lat="47.490800000" lon="-2.554250000">
        <time>2018-09-26T08:51:37Z</time>
      </trkpt>
      <trkpt lat="47.490700000" lon="-2.554850000">
        <time>2018-09-26T08:51:51Z</time>
      </trkpt>
      <trkpt lat="47.490316667" lon="-2.556116667">
        <time>2018-09-26T08:52:21Z</time>
      </trkpt>
      <trkpt lat="47.489983333" lon="-2.557566667">
        <time>2018-09-26T08:52:54Z</time>
      </trkpt>
      <trkpt lat="47.489500000" lon="-2.559183333">
        <time>2018-09-26T08:53:34Z</time>
      </trkpt>
      <trkpt lat="47.488500000" lon="-2.563166667">
        <time>2018-09-26T08:55:17Z</time>
      </trkpt>
      <trkpt lat="47.488183333" lon="-2.564233333">
        <time>2018-09-26T08:55:44Z</time>
      </trkpt>
      <trkpt lat="47.487216667" lon="-2.568200000">
        <time>2018-09-26T08:57:19Z</time>
      </trkpt>
      <trkpt lat="47.486550000" lon="-2.570650000">
        <time>2018-09-26T08:58:22Z</time>
      </trkpt>
      <trkpt lat="47.485950000" lon="-2.573050000">
        <time>2018-09-26T08:59:26Z</time>
      </trkpt>
      <trkpt lat="47.485366667" lon="-2.575250000">
        <time>2018-09-26T09:00:19Z</time>
      </trkpt>
      <trkpt lat="47.485200000" lon="-2.575733333">
        <time>2018-09-26T09:00:31Z</time>
      </trkpt>
      <trkpt lat="47.484650000" lon="-2.577933333">
        <time>2018-09-26T09:01:24Z</time>
      </trkpt>
      <trkpt lat="47.484316667" lon="-2.579016667">
        <time>2018-09-26T09:01:50Z</time>
      </trkpt>
      <trkpt lat="47.483966667" lon="-2.580433333">
        <time>2018-09-26T09:02:25Z</time>
      </trkpt>
      <trkpt lat="47.483766667" lon="-2.581016667">
        <time>2018-09-26T09:02:39Z</time>
      </trkpt>
      <trkpt lat="47.483550000" lon="-2.581833333">
        <time>2018-09-26T09:02:59Z</time>
      </trkpt>
      <trkpt lat="47.483483333" lon="-2.582283333">
        <time>2018-09-26T09:03:09Z</time>
      </trkpt>
      <trkpt lat="47.483266667" lon="-2.583066667">
        <time>2018-09-26T09:03:27Z</time>
      </trkpt>
      <trkpt lat="47.482666667" lon="-2.584233333">
        <time>2018-09-26T09:04:02Z</time>
      </trkpt>
      <trkpt lat="47.482333333" lon="-2.584650000">
        <time>2018-09-26T09:04:14Z</time>
      </trkpt>
      <trkpt lat="47.481966667" lon="-2.584983333">
        <time>2018-09-26T09:04:28Z</time>
      </trkpt>
      <trkpt lat="47.481716667" lon="-2.585300000">
        <time>2018-09-26T09:04:38Z</time>
      </trkpt>
      <trkpt lat="47.481233333" lon="-2.586100000">
        <time>2018-09-26T09:05:03Z</time>
      </trkpt>
      <trkpt lat="47.480200000" lon="-2.587050000">
        <time>2018-09-26T09:05:41Z</time>
      </trkpt>
      <trkpt lat="47.479783333" lon="-2.587350000">
        <time>2018-09-26T09:05:57Z</time>
      </trkpt>
      <trkpt lat="47.479466667" lon="-2.587500000">
        <time>2018-09-26T09:06:05Z</time>
      </trkpt>
      <trkpt lat="47.479200000" lon="-2.587750000">
        <time>2018-09-26T09:06:15Z</time>
      </trkpt>
      <trkpt lat="47.478466667" lon="-2.588233333">
        <time>2018-09-26T09:06:40Z</time>
      </trkpt>
      <trkpt lat="47.477633333" lon="-2.589166667">
        <time>2018-09-26T09:07:14Z</time>
      </trkpt>
      <trkpt lat="47.476883333" lon="-2.589833333">
        <time>2018-09-26T09:07:43Z</time>
      </trkpt>
      <trkpt lat="47.476250000" lon="-2.590333333">
        <time>2018-09-26T09:08:07Z</time>
      </trkpt>
      <trkpt lat="47.474983333" lon="-2.591000000">
        <time>2018-09-26T09:08:49Z</time>
      </trkpt>
      <trkpt lat="47.474333333" lon="-2.591450000">
        <time>2018-09-26T09:09:12Z</time>
      </trkpt>
      <trkpt lat="47.473550000" lon="-2.592200000">
        <time>2018-09-26T09:09:40Z</time>
      </trkpt>
      <trkpt lat="47.473550000" lon="-2.592250000">
        <time>2018-09-26T09:09:42Z</time>
      </trkpt>
      <trkpt lat="47.473450000" lon="-2.592300000">
        <time>2018-09-26T09:09:44Z</time>
      </trkpt>
      <trkpt lat="47.473450000" lon="-2.592350000">
        <time>2018-09-26T09:09:46Z</time>
      </trkpt>
      <trkpt lat="47.473350000" lon="-2.592383333">
        <time>2018-09-26T09:09:48Z</time>
      </trkpt>
      <trkpt lat="47.472750000" lon="-2.592933333">
        <time>2018-09-26T09:10:12Z</time>
      </trkpt>
      <trkpt lat="47.472283333" lon="-2.593216667">
        <time>2018-09-26T09:10:29Z</time>
      </trkpt>
      <trkpt lat="47.471766667" lon="-2.593433333">
        <time>2018-09-26T09:10:45Z</time>
      </trkpt>
      <trkpt lat="47.471100000" lon="-2.593900000">
        <time>2018-09-26T09:11:07Z</time>
      </trkpt>
      <trkpt lat="47.470266667" lon="-2.594400000">
        <time>2018-09-26T09:11:36Z</time>
      </trkpt>
      <trkpt lat="47.469633333" lon="-2.594700000">
        <time>2018-09-26T09:11:56Z</time>
      </trkpt>
      <trkpt lat="47.468833333" lon="-2.595300000">
        <time>2018-09-26T09:12:24Z</time>
      </trkpt>
      <trkpt lat="47.468716667" lon="-2.595333333">
        <time>2018-09-26T09:12:26Z</time>
      </trkpt>
      <trkpt lat="47.467866667" lon="-2.596016667">
        <time>2018-09-26T09:12:57Z</time>
      </trkpt>
      <trkpt lat="47.466133333" lon="-2.597150000">
        <time>2018-09-26T09:13:57Z</time>
      </trkpt>
      <trkpt lat="47.465200000" lon="-2.597850000">
        <time>2018-09-26T09:14:32Z</time>
      </trkpt>
      <trkpt lat="47.463650000" lon="-2.599233333">
        <time>2018-09-26T09:15:28Z</time>
      </trkpt>
      <trkpt lat="47.462433333" lon="-2.600183333">
        <time>2018-09-26T09:16:13Z</time>
      </trkpt>
      <trkpt lat="47.461616667" lon="-2.600733333">
        <time>2018-09-26T09:16:41Z</time>
      </trkpt>
      <trkpt lat="47.460900000" lon="-2.601316667">
        <time>2018-09-26T09:17:06Z</time>
      </trkpt>
      <trkpt lat="47.459266667" lon="-2.602883333">
        <time>2018-09-26T09:18:08Z</time>
      </trkpt>
      <trkpt lat="47.459100000" lon="-2.602966667">
        <time>2018-09-26T09:18:12Z</time>
      </trkpt>
      <trkpt lat="47.459000000" lon="-2.603100000">
        <time>2018-09-26T09:18:18Z</time>
      </trkpt>
      <trkpt lat="47.458766667" lon="-2.603233333">
        <time>2018-09-26T09:18:25Z</time>
      </trkpt>
      <trkpt lat="47.458266667" lon="-2.603666667">
        <time>2018-09-26T09:18:43Z</time>
      </trkpt>
      <trkpt lat="47.457433333" lon="-2.604183333">
        <time>2018-09-26T09:19:11Z</time>
      </trkpt>
      <trkpt lat="47.456933333" lon="-2.604566667">
        <time>2018-09-26T09:19:29Z</time>
      </trkpt>
      <trkpt lat="47.456466667" lon="-2.604833333">
        <time>2018-09-26T09:19:43Z</time>
      </trkpt>
      <trkpt lat="47.456200000" lon="-2.605083333">
        <time>2018-09-26T09:19:54Z</time>
      </trkpt>
      <trkpt lat="47.455800000" lon="-2.605333333">
        <time>2018-09-26T09:20:08Z</time>
      </trkpt>
      <trkpt lat="47.455750000" lon="-2.605433333">
        <time>2018-09-26T09:20:12Z</time>
      </trkpt>
      <trkpt lat="47.455616667" lon="-2.605466667">
        <time>2018-09-26T09:20:14Z</time>
      </trkpt>
      <trkpt lat="47.455616667" lon="-2.605516667">
        <time>2018-09-26T09:20:16Z</time>
      </trkpt>
      <trkpt lat="47.454683333" lon="-2.606050000">
        <time>2018-09-26T09:20:46Z</time>
      </trkpt>
      <trkpt lat="47.454116667" lon="-2.606600000">
        <time>2018-09-26T09:21:08Z</time>
      </trkpt>
      <trkpt lat="47.453066667" lon="-2.607233333">
        <time>2018-09-26T09:21:47Z</time>
      </trkpt>
      <trkpt lat="47.452466667" lon="-2.607700000">
        <time>2018-09-26T09:22:09Z</time>
      </trkpt>
      <trkpt lat="47.451483333" lon="-2.608616667">
        <time>2018-09-26T09:22:50Z</time>
      </trkpt>
      <trkpt lat="47.451133333" lon="-2.609016667">
        <time>2018-09-26T09:23:04Z</time>
      </trkpt>
      <trkpt lat="47.450950000" lon="-2.609150000">
        <time>2018-09-26T09:23:10Z</time>
      </trkpt>
      <trkpt lat="47.450900000" lon="-2.609250000">
        <time>2018-09-26T09:23:14Z</time>
      </trkpt>
      <trkpt lat="47.450800000" lon="-2.609283333">
        <time>2018-09-26T09:23:16Z</time>
      </trkpt>
      <trkpt lat="47.450100000" lon="-2.609933333">
        <time>2018-09-26T09:23:45Z</time>
      </trkpt>
      <trkpt lat="47.449533333" lon="-2.610683333">
        <time>2018-09-26T09:24:13Z</time>
      </trkpt>
      <trkpt lat="47.448900000" lon="-2.611366667">
        <time>2018-09-26T09:24:39Z</time>
      </trkpt>
      <trkpt lat="47.447350000" lon="-2.612683333">
        <time>2018-09-26T09:25:40Z</time>
      </trkpt>
      <trkpt lat="47.447350000" lon="-2.612733333">
        <time>2018-09-26T09:25:42Z</time>
      </trkpt>
      <trkpt lat="47.447233333" lon="-2.612783333">
        <time>2018-09-26T09:25:44Z</time>
      </trkpt>
      <trkpt lat="47.446283333" lon="-2.613683333">
        <time>2018-09-26T09:26:25Z</time>
      </trkpt>
      <trkpt lat="47.445800000" lon="-2.614250000">
        <time>2018-09-26T09:26:47Z</time>
      </trkpt>
      <trkpt lat="47.445050000" lon="-2.614983333">
        <time>2018-09-26T09:27:19Z</time>
      </trkpt>
      <trkpt lat="47.444916667" lon="-2.615183333">
        <time>2018-09-26T09:27:26Z</time>
      </trkpt>
      <trkpt lat="47.443766667" lon="-2.616350000">
        <time>2018-09-26T09:28:16Z</time>
      </trkpt>
      <trkpt lat="47.443416667" lon="-2.616600000">
        <time>2018-09-26T09:28:30Z</time>
      </trkpt>
      <trkpt lat="47.443116667" lon="-2.616900000">
        <time>2018-09-26T09:28:44Z</time>
      </trkpt>
      <trkpt lat="47.441933333" lon="-2.618366667">
        <time>2018-09-26T09:29:39Z</time>
      </trkpt>
      <trkpt lat="47.441850000" lon="-2.618416667">
        <time>2018-09-26T09:29:43Z</time>
      </trkpt>
      <trkpt lat="47.441733333" lon="-2.618633333">
        <time>2018-09-26T09:29:49Z</time>
      </trkpt>
      <trkpt lat="47.441083333" lon="-2.619466667">
        <time>2018-09-26T09:30:24Z</time>
      </trkpt>
      <trkpt lat="47.440883333" lon="-2.619583333">
        <time>2018-09-26T09:30:30Z</time>
      </trkpt>
      <trkpt lat="47.440083333" lon="-2.620250000">
        <time>2018-09-26T09:31:02Z</time>
      </trkpt>
      <trkpt lat="47.439866667" lon="-2.620466667">
        <time>2018-09-26T09:31:12Z</time>
      </trkpt>
      <trkpt lat="47.439833333" lon="-2.620566667">
        <time>2018-09-26T09:31:16Z</time>
      </trkpt>
      <trkpt lat="47.439416667" lon="-2.621000000">
        <time>2018-09-26T09:31:35Z</time>
      </trkpt>
      <trkpt lat="47.438733333" lon="-2.621900000">
        <time>2018-09-26T09:32:09Z</time>
      </trkpt>
      <trkpt lat="47.438383333" lon="-2.622300000">
        <time>2018-09-26T09:32:25Z</time>
      </trkpt>
      <trkpt lat="47.438200000" lon="-2.622433333">
        <time>2018-09-26T09:32:31Z</time>
      </trkpt>
      <trkpt lat="47.438166667" lon="-2.622533333">
        <time>2018-09-26T09:32:35Z</time>
      </trkpt>
      <trkpt lat="47.437450000" lon="-2.623383333">
        <time>2018-09-26T09:33:10Z</time>
      </trkpt>
      <trkpt lat="47.436716667" lon="-2.624050000">
        <time>2018-09-26T09:33:40Z</time>
      </trkpt>
      <trkpt lat="47.435983333" lon="-2.624850000">
        <time>2018-09-26T09:34:17Z</time>
      </trkpt>
      <trkpt lat="47.435616667" lon="-2.625200000">
        <time>2018-09-26T09:34:33Z</time>
      </trkpt>
      <trkpt lat="47.434883333" lon="-2.625700000">
        <time>2018-09-26T09:35:03Z</time>
      </trkpt>
      <trkpt lat="47.433066667" lon="-2.627500000">
        <time>2018-09-26T09:36:22Z</time>
      </trkpt>
      <trkpt lat="47.432783333" lon="-2.627716667">
        <time>2018-09-26T09:36:34Z</time>
      </trkpt>
      <trkpt lat="47.431783333" lon="-2.628766667">
        <time>2018-09-26T09:37:21Z</time>
      </trkpt>
      <trkpt lat="47.431600000" lon="-2.628866667">
        <time>2018-09-26T09:37:29Z</time>
      </trkpt>
      <trkpt lat="47.430983333" lon="-2.629466667">
        <time>2018-09-26T09:37:55Z</time>
      </trkpt>
      <trkpt lat="47.430266667" lon="-2.630366667">
        <time>2018-09-26T09:38:30Z</time>
      </trkpt>
      <trkpt lat="47.429983333" lon="-2.630666667">
        <time>2018-09-26T09:38:42Z</time>
      </trkpt>
      <trkpt lat="47.429383333" lon="-2.631133333">
        <time>2018-09-26T09:39:08Z</time>
      </trkpt>
      <trkpt lat="47.428950000" lon="-2.631383333">
        <time>2018-09-26T09:39:24Z</time>
      </trkpt>
      <trkpt lat="47.428733333" lon="-2.631450000">
        <time>2018-09-26T09:39:32Z</time>
      </trkpt>
      <trkpt lat="47.428066667" lon="-2.631966667">
        <time>2018-09-26T09:39:59Z</time>
      </trkpt>
      <trkpt lat="47.427066667" lon="-2.632900000">
        <time>2018-09-26T09:40:37Z</time>
      </trkpt>
      <trkpt lat="47.426850000" lon="-2.633033333">
        <time>2018-09-26T09:40:43Z</time>
      </trkpt>
      <trkpt lat="47.426783333" lon="-2.633183333">
        <time>2018-09-26T09:40:47Z</time>
      </trkpt>
      <trkpt lat="47.426733333" lon="-2.633183333">
        <time>2018-09-26T09:40:49Z</time>
      </trkpt>
      <trkpt lat="47.425283333" lon="-2.634633333">
        <time>2018-09-26T09:41:44Z</time>
      </trkpt>
      <trkpt lat="47.425283333" lon="-2.634683333">
        <time>2018-09-26T09:41:46Z</time>
      </trkpt>
      <trkpt lat="47.424833333" lon="-2.634983333">
        <time>2018-09-26T09:42:00Z</time>
      </trkpt>
      <trkpt lat="47.424150000" lon="-2.635616667">
        <time>2018-09-26T09:42:27Z</time>
      </trkpt>
      <trkpt lat="47.423516667" lon="-2.636300000">
        <time>2018-09-26T09:42:53Z</time>
      </trkpt>
      <trkpt lat="47.422933333" lon="-2.636833333">
        <time>2018-09-26T09:43:15Z</time>
      </trkpt>
      <trkpt lat="47.422366667" lon="-2.637266667">
        <time>2018-09-26T09:43:39Z</time>
      </trkpt>
      <trkpt lat="47.422300000" lon="-2.637266667">
        <time>2018-09-26T09:43:42Z</time>
      </trkpt>
      <trkpt lat="47.421883333" lon="-2.637533333">
        <time>2018-09-26T09:43:56Z</time>
      </trkpt>
      <trkpt lat="47.421083333" lon="-2.638416667">
        <time>2018-09-26T09:44:30Z</time>
      </trkpt>
      <trkpt lat="47.421083333" lon="-2.638466667">
        <time>2018-09-26T09:44:32Z</time>
      </trkpt>
      <trkpt lat="47.420833333" lon="-2.638600000">
        <time>2018-09-26T09:44:40Z</time>
      </trkpt>
      <trkpt lat="47.420316667" lon="-2.638983333">
        <time>2018-09-26T09:45:00Z</time>
      </trkpt>
      <trkpt lat="47.419333333" lon="-2.639850000">
        <time>2018-09-26T09:45:40Z</time>
      </trkpt>
      <trkpt lat="47.418450000" lon="-2.640733333">
        <time>2018-09-26T09:46:12Z</time>
      </trkpt>
      <trkpt lat="47.418350000" lon="-2.640916667">
        <time>2018-09-26T09:46:19Z</time>
      </trkpt>
      <trkpt lat="47.417650000" lon="-2.641600000">
        <time>2018-09-26T09:46:45Z</time>
      </trkpt>
      <trkpt lat="47.417183333" lon="-2.642133333">
        <time>2018-09-26T09:47:05Z</time>
      </trkpt>
      <trkpt lat="47.416900000" lon="-2.642300000">
        <time>2018-09-26T09:47:15Z</time>
      </trkpt>
      <trkpt lat="47.416233333" lon="-2.642550000">
        <time>2018-09-26T09:47:40Z</time>
      </trkpt>
      <trkpt lat="47.415866667" lon="-2.642583333">
        <time>2018-09-26T09:47:52Z</time>
      </trkpt>
      <trkpt lat="47.415200000" lon="-2.642450000">
        <time>2018-09-26T09:48:12Z</time>
      </trkpt>
      <trkpt lat="47.415150000" lon="-2.642383333">
        <time>2018-09-26T09:48:14Z</time>
      </trkpt>
      <trkpt lat="47.414150000" lon="-2.642000000">
        <time>2018-09-26T09:48:48Z</time>
      </trkpt>
      <trkpt lat="47.413100000" lon="-2.641466667">
        <time>2018-09-26T09:49:25Z</time>
      </trkpt>
      <trkpt lat="47.412916667" lon="-2.641316667">
        <time>2018-09-26T09:49:31Z</time>
      </trkpt>
      <trkpt lat="47.412416667" lon="-2.641066667">
        <time>2018-09-26T09:49:47Z</time>
      </trkpt>
      <trkpt lat="47.411516667" lon="-2.640500000">
        <time>2018-09-26T09:50:16Z</time>
      </trkpt>
      <trkpt lat="47.410566667" lon="-2.640100000">
        <time>2018-09-26T09:50:46Z</time>
      </trkpt>
      <trkpt lat="47.410066667" lon="-2.639983333">
        <time>2018-09-26T09:51:02Z</time>
      </trkpt>
      <trkpt lat="47.409633333" lon="-2.639833333">
        <time>2018-09-26T09:51:16Z</time>
      </trkpt>
      <trkpt lat="47.409166667" lon="-2.639533333">
        <time>2018-09-26T09:51:33Z</time>
      </trkpt>
      <trkpt lat="47.408600000" lon="-2.639316667">
        <time>2018-09-26T09:51:51Z</time>
      </trkpt>
      <trkpt lat="47.407733333" lon="-2.639216667">
        <time>2018-09-26T09:52:19Z</time>
      </trkpt>
      <trkpt lat="47.407333333" lon="-2.639016667">
        <time>2018-09-26T09:52:33Z</time>
      </trkpt>
      <trkpt lat="47.406866667" lon="-2.638616667">
        <time>2018-09-26T09:52:52Z</time>
      </trkpt>
      <trkpt lat="47.406366667" lon="-2.638400000">
        <time>2018-09-26T09:53:08Z</time>
      </trkpt>
      <trkpt lat="47.405966667" lon="-2.638133333">
        <time>2018-09-26T09:53:22Z</time>
      </trkpt>
      <trkpt lat="47.404866667" lon="-2.637166667">
        <time>2018-09-26T09:54:06Z</time>
      </trkpt>
      <trkpt lat="47.404400000" lon="-2.636833333">
        <time>2018-09-26T09:54:25Z</time>
      </trkpt>
      <trkpt lat="47.403866667" lon="-2.636383333">
        <time>2018-09-26T09:54:47Z</time>
      </trkpt>
      <trkpt lat="47.402716667" lon="-2.635233333">
        <time>2018-09-26T09:55:35Z</time>
      </trkpt>
      <trkpt lat="47.402400000" lon="-2.634800000">
        <time>2018-09-26T09:55:54Z</time>
      </trkpt>
      <trkpt lat="47.401650000" lon="-2.634050000">
        <time>2018-09-26T09:56:28Z</time>
      </trkpt>
      <trkpt lat="47.401250000" lon="-2.633516667">
        <time>2018-09-26T09:56:50Z</time>
      </trkpt>
      <trkpt lat="47.400750000" lon="-2.632983333">
        <time>2018-09-26T09:57:12Z</time>
      </trkpt>
      <trkpt lat="47.399950000" lon="-2.632033333">
        <time>2018-09-26T09:57:49Z</time>
      </trkpt>
      <trkpt lat="47.398133333" lon="-2.629416667">
        <time>2018-09-26T09:59:26Z</time>
      </trkpt>
      <trkpt lat="47.397250000" lon="-2.628016667">
        <time>2018-09-26T10:00:21Z</time>
      </trkpt>
      <trkpt lat="47.396150000" lon="-2.625850000">
        <time>2018-09-26T10:01:37Z</time>
      </trkpt>
      <trkpt lat="47.395066667" lon="-2.624016667">
        <time>2018-09-26T10:02:50Z</time>
      </trkpt>
      <trkpt lat="47.394900000" lon="-2.623550000">
        <time>2018-09-26T10:03:04Z</time>
      </trkpt>
      <trkpt lat="47.394783333" lon="-2.623400000">
        <time>2018-09-26T10:03:10Z</time>
      </trkpt>
      <trkpt lat="47.394400000" lon="-2.622666667">
        <time>2018-09-26T10:03:37Z</time>
      </trkpt>
      <trkpt lat="47.394266667" lon="-2.622316667">
        <time>2018-09-26T10:03:49Z</time>
      </trkpt>
      <trkpt lat="47.393283333" lon="-2.620400000">
        <time>2018-09-26T10:05:02Z</time>
      </trkpt>
      <trkpt lat="47.393033333" lon="-2.619766667">
        <time>2018-09-26T10:05:26Z</time>
      </trkpt>
      <trkpt lat="47.392983333" lon="-2.619733333">
        <time>2018-09-26T10:05:28Z</time>
      </trkpt>
      <trkpt lat="47.392650000" lon="-2.618916667">
        <time>2018-09-26T10:05:58Z</time>
      </trkpt>
      <trkpt lat="47.391983333" lon="-2.617733333">
        <time>2018-09-26T10:06:49Z</time>
      </trkpt>
      <trkpt lat="47.391100000" lon="-2.616300000">
        <time>2018-09-26T10:07:45Z</time>
      </trkpt>
      <trkpt lat="47.390183333" lon="-2.615016667">
        <time>2018-09-26T10:08:42Z</time>
      </trkpt>
      <trkpt lat="47.389933333" lon="-2.614716667">
        <time>2018-09-26T10:08:54Z</time>
      </trkpt>
      <trkpt lat="47.389600000" lon="-2.614483333">
        <time>2018-09-26T10:09:06Z</time>
      </trkpt>
      <trkpt lat="47.388516667" lon="-2.614050000">
        <time>2018-09-26T10:09:40Z</time>
      </trkpt>
      <trkpt lat="47.388033333" lon="-2.613750000">
        <time>2018-09-26T10:10:00Z</time>
      </trkpt>
      <trkpt lat="47.387350000" lon="-2.613216667">
        <time>2018-09-26T10:10:29Z</time>
      </trkpt>
      <trkpt lat="47.387366667" lon="-2.613166667">
        <time>2018-09-26T10:10:33Z</time>
      </trkpt>
      <trkpt lat="47.387866667" lon="-2.613100000">
        <time>2018-09-26T10:11:01Z</time>
      </trkpt>
      <trkpt lat="47.388250000" lon="-2.612933333">
        <time>2018-09-26T10:11:21Z</time>
      </trkpt>
      <trkpt lat="47.388750000" lon="-2.612516667">
        <time>2018-09-26T10:12:04Z</time>
      </trkpt>
      <trkpt lat="47.389866667" lon="-2.612033333">
        <time>2018-09-26T10:12:56Z</time>
      </trkpt>
      <trkpt lat="47.390716667" lon="-2.611550000">
        <time>2018-09-26T10:13:39Z</time>
      </trkpt>
      <trkpt lat="47.391616667" lon="-2.611200000">
        <time>2018-09-26T10:14:16Z</time>
      </trkpt>
      <trkpt lat="47.392216667" lon="-2.610816667">
        <time>2018-09-26T10:14:46Z</time>
      </trkpt>
      <trkpt lat="47.394200000" lon="-2.609116667">
        <time>2018-09-26T10:16:48Z</time>
      </trkpt>
      <trkpt lat="47.394583333" lon="-2.608950000">
        <time>2018-09-26T10:17:06Z</time>
      </trkpt>
      <trkpt lat="47.395550000" lon="-2.608316667">
        <time>2018-09-26T10:18:01Z</time>
      </trkpt>
      <trkpt lat="47.395783333" lon="-2.608250000">
        <time>2018-09-26T10:18:13Z</time>
      </trkpt>
      <trkpt lat="47.396083333" lon="-2.608083333">
        <time>2018-09-26T10:18:29Z</time>
      </trkpt>
      <trkpt lat="47.397266667" lon="-2.607250000">
        <time>2018-09-26T10:19:36Z</time>
      </trkpt>
      <trkpt lat="47.397866667" lon="-2.606666667">
        <time>2018-09-26T10:20:12Z</time>
      </trkpt>
      <trkpt lat="47.398350000" lon="-2.606283333">
        <time>2018-09-26T10:20:47Z</time>
      </trkpt>
      <trkpt lat="47.399450000" lon="-2.605516667">
        <time>2018-09-26T10:21:43Z</time>
      </trkpt>
      <trkpt lat="47.400300000" lon="-2.605066667">
        <time>2018-09-26T10:22:24Z</time>
      </trkpt>
      <trkpt lat="47.402866667" lon="-2.603350000">
        <time>2018-09-26T10:24:22Z</time>
      </trkpt>
      <trkpt lat="47.403766667" lon="-2.602683333">
        <time>2018-09-26T10:24:58Z</time>
      </trkpt>
      <trkpt lat="47.404150000" lon="-2.602333333">
        <time>2018-09-26T10:25:16Z</time>
      </trkpt>
      <trkpt lat="47.405683333" lon="-2.601266667">
        <time>2018-09-26T10:26:23Z</time>
      </trkpt>
      <trkpt lat="47.407483333" lon="-2.599733333">
        <time>2018-09-26T10:27:44Z</time>
      </trkpt>
      <trkpt lat="47.407566667" lon="-2.599716667">
        <time>2018-09-26T10:27:46Z</time>
      </trkpt>
      <trkpt lat="47.408433333" lon="-2.598983333">
        <time>2018-09-26T10:28:29Z</time>
      </trkpt>
      <trkpt lat="47.409583333" lon="-2.597766667">
        <time>2018-09-26T10:29:38Z</time>
      </trkpt>
      <trkpt lat="47.409883333" lon="-2.597550000">
        <time>2018-09-26T10:29:54Z</time>
      </trkpt>
      <trkpt lat="47.410550000" lon="-2.596833333">
        <time>2018-09-26T10:30:38Z</time>
      </trkpt>
      <trkpt lat="47.411033333" lon="-2.596383333">
        <time>2018-09-26T10:31:09Z</time>
      </trkpt>
      <trkpt lat="47.411283333" lon="-2.596283333">
        <time>2018-09-26T10:31:23Z</time>
      </trkpt>
      <trkpt lat="47.411716667" lon="-2.595883333">
        <time>2018-09-26T10:31:47Z</time>
      </trkpt>
      <trkpt lat="47.411800000" lon="-2.595750000">
        <time>2018-09-26T10:31:51Z</time>
      </trkpt>
      <trkpt lat="47.411800000" lon="-2.595666667">
        <time>2018-09-26T10:31:59Z</time>
      </trkpt>
      <trkpt lat="47.411733333" lon="-2.595616667">
        <time>2018-09-26T10:32:05Z</time>
      </trkpt>
      <trkpt lat="47.411566667" lon="-2.595066667">
        <time>2018-09-26T10:32:40Z</time>
      </trkpt>
      <trkpt lat="47.411266667" lon="-2.594466667">
        <time>2018-09-26T10:33:06Z</time>
      </trkpt>
      <trkpt lat="47.411083333" lon="-2.593916667">
        <time>2018-09-26T10:33:24Z</time>
      </trkpt>
      <trkpt lat="47.410650000" lon="-2.592900000">
        <time>2018-09-26T10:34:05Z</time>
      </trkpt>
      <trkpt lat="47.410500000" lon="-2.592450000">
        <time>2018-09-26T10:34:21Z</time>
      </trkpt>
      <trkpt lat="47.409750000" lon="-2.590800000">
        <time>2018-09-26T10:35:28Z</time>
      </trkpt>
      <trkpt lat="47.409433333" lon="-2.589916667">
        <time>2018-09-26T10:36:02Z</time>
      </trkpt>
      <trkpt lat="47.408900000" lon="-2.588783333">
        <time>2018-09-26T10:36:51Z</time>
      </trkpt>
      <trkpt lat="47.408683333" lon="-2.588100000">
        <time>2018-09-26T10:37:15Z</time>
      </trkpt>
      <trkpt lat="47.408433333" lon="-2.587583333">
        <time>2018-09-26T10:37:36Z</time>
      </trkpt>
      <trkpt lat="47.408316667" lon="-2.587200000">
        <time>2018-09-26T10:37:50Z</time>
      </trkpt>
      <trkpt lat="47.407816667" lon="-2.586116667">
        <time>2018-09-26T10:38:32Z</time>
      </trkpt>
      <trkpt lat="47.407383333" lon="-2.584983333">
        <time>2018-09-26T10:39:15Z</time>
      </trkpt>
      <trkpt lat="47.407200000" lon="-2.584616667">
        <time>2018-09-26T10:39:29Z</time>
      </trkpt>
      <trkpt lat="47.407116667" lon="-2.584266667">
        <time>2018-09-26T10:39:41Z</time>
      </trkpt>
      <trkpt lat="47.406983333" lon="-2.583916667">
        <time>2018-09-26T10:39:53Z</time>
      </trkpt>
      <trkpt lat="47.406900000" lon="-2.583816667">
        <time>2018-09-26T10:39:59Z</time>
      </trkpt>
      <trkpt lat="47.406866667" lon="-2.583650000">
        <time>2018-09-26T10:40:03Z</time>
      </trkpt>
      <trkpt lat="47.406766667" lon="-2.583483333">
        <time>2018-09-26T10:40:11Z</time>
      </trkpt>
      <trkpt lat="47.406516667" lon="-2.582816667">
        <time>2018-09-26T10:40:34Z</time>
      </trkpt>
      <trkpt lat="47.406333333" lon="-2.582450000">
        <time>2018-09-26T10:40:48Z</time>
      </trkpt>
      <trkpt lat="47.406183333" lon="-2.582033333">
        <time>2018-09-26T10:41:02Z</time>
      </trkpt>
      <trkpt lat="47.406200000" lon="-2.581983333">
        <time>2018-09-26T10:41:10Z</time>
      </trkpt>
      <trkpt lat="47.406400000" lon="-2.582000000">
        <time>2018-09-26T10:41:18Z</time>
      </trkpt>
      <trkpt lat="47.406883333" lon="-2.581800000">
        <time>2018-09-26T10:41:36Z</time>
      </trkpt>
      <trkpt lat="47.407416667" lon="-2.581683333">
        <time>2018-09-26T10:41:55Z</time>
      </trkpt>
      <trkpt lat="47.408283333" lon="-2.581683333">
        <time>2018-09-26T10:42:25Z</time>
      </trkpt>
      <trkpt lat="47.408550000" lon="-2.581633333">
        <time>2018-09-26T10:42:35Z</time>
      </trkpt>
      <trkpt lat="47.409983333" lon="-2.580683333">
        <time>2018-09-26T10:43:36Z</time>
      </trkpt>
      <trkpt lat="47.410733333" lon="-2.580133333">
        <time>2018-09-26T10:44:08Z</time>
      </trkpt>
      <trkpt lat="47.410766667" lon="-2.580050000">
        <time>2018-09-26T10:44:10Z</time>
      </trkpt>
      <trkpt lat="47.412883333" lon="-2.578416667">
        <time>2018-09-26T10:45:48Z</time>
      </trkpt>
      <trkpt lat="47.414016667" lon="-2.577616667">
        <time>2018-09-26T10:46:34Z</time>
      </trkpt>
      <trkpt lat="47.415100000" lon="-2.576933333">
        <time>2018-09-26T10:47:17Z</time>
      </trkpt>
      <trkpt lat="47.415816667" lon="-2.576283333">
        <time>2018-09-26T10:47:49Z</time>
      </trkpt>
      <trkpt lat="47.416683333" lon="-2.575666667">
        <time>2018-09-26T10:48:24Z</time>
      </trkpt>
      <trkpt lat="47.416833333" lon="-2.575500000">
        <time>2018-09-26T10:48:30Z</time>
      </trkpt>
      <trkpt lat="47.416983333" lon="-2.575433333">
        <time>2018-09-26T10:48:34Z</time>
      </trkpt>
      <trkpt lat="47.418050000" lon="-2.574566667">
        <time>2018-09-26T10:49:18Z</time>
      </trkpt>
      <trkpt lat="47.418883333" lon="-2.574166667">
        <time>2018-09-26T10:49:49Z</time>
      </trkpt>
      <trkpt lat="47.419483333" lon="-2.573733333">
        <time>2018-09-26T10:50:13Z</time>
      </trkpt>
      <trkpt lat="47.420783333" lon="-2.572650000">
        <time>2018-09-26T10:51:12Z</time>
      </trkpt>
      <trkpt lat="47.421500000" lon="-2.571966667">
        <time>2018-09-26T10:51:42Z</time>
      </trkpt>
      <trkpt lat="47.422533333" lon="-2.571166667">
        <time>2018-09-26T10:52:29Z</time>
      </trkpt>
      <trkpt lat="47.423366667" lon="-2.570650000">
        <time>2018-09-26T10:53:01Z</time>
      </trkpt>
      <trkpt lat="47.424300000" lon="-2.569950000">
        <time>2018-09-26T10:53:40Z</time>
      </trkpt>
      <trkpt lat="47.425050000" lon="-2.569250000">
        <time>2018-09-26T10:54:14Z</time>
      </trkpt>
      <trkpt lat="47.425216667" lon="-2.569033333">
        <time>2018-09-26T10:54:26Z</time>
      </trkpt>
      <trkpt lat="47.426316667" lon="-2.567983333">
        <time>2018-09-26T10:55:23Z</time>
      </trkpt>
      <trkpt lat="47.426683333" lon="-2.567566667">
        <time>2018-09-26T10:55:43Z</time>
      </trkpt>
      <trkpt lat="47.427800000" lon="-2.566550000">
        <time>2018-09-26T10:56:34Z</time>
      </trkpt>
      <trkpt lat="47.428316667" lon="-2.566200000">
        <time>2018-09-26T10:56:54Z</time>
      </trkpt>
      <trkpt lat="47.429166667" lon="-2.565433333">
        <time>2018-09-26T10:57:31Z</time>
      </trkpt>
      <trkpt lat="47.430300000" lon="-2.564650000">
        <time>2018-09-26T10:58:15Z</time>
      </trkpt>
      <trkpt lat="47.432216667" lon="-2.563033333">
        <time>2018-09-26T10:59:32Z</time>
      </trkpt>
      <trkpt lat="47.432216667" lon="-2.562983333">
        <time>2018-09-26T10:59:34Z</time>
      </trkpt>
      <trkpt lat="47.432300000" lon="-2.562950000">
        <time>2018-09-26T10:59:36Z</time>
      </trkpt>
      <trkpt lat="47.432416667" lon="-2.562783333">
        <time>2018-09-26T10:59:44Z</time>
      </trkpt>
      <trkpt lat="47.433700000" lon="-2.561733333">
        <time>2018-09-26T11:00:43Z</time>
      </trkpt>
      <trkpt lat="47.434166667" lon="-2.561283333">
        <time>2018-09-26T11:01:05Z</time>
      </trkpt>
      <trkpt lat="47.434833333" lon="-2.560750000">
        <time>2018-09-26T11:01:33Z</time>
      </trkpt>
      <trkpt lat="47.436083333" lon="-2.559416667">
        <time>2018-09-26T11:02:34Z</time>
      </trkpt>
      <trkpt lat="47.436550000" lon="-2.559016667">
        <time>2018-09-26T11:02:54Z</time>
      </trkpt>
      <trkpt lat="47.438450000" lon="-2.557100000">
        <time>2018-09-26T11:04:17Z</time>
      </trkpt>
      <trkpt lat="47.438983333" lon="-2.556433333">
        <time>2018-09-26T11:04:44Z</time>
      </trkpt>
      <trkpt lat="47.439416667" lon="-2.555966667">
        <time>2018-09-26T11:05:04Z</time>
      </trkpt>
      <trkpt lat="47.439766667" lon="-2.555700000">
        <time>2018-09-26T11:05:18Z</time>
      </trkpt>
      <trkpt lat="47.440583333" lon="-2.554916667">
        <time>2018-09-26T11:05:52Z</time>
      </trkpt>
      <trkpt lat="47.441066667" lon="-2.554333333">
        <time>2018-09-26T11:06:17Z</time>
      </trkpt>
      <trkpt lat="47.441633333" lon="-2.553866667">
        <time>2018-09-26T11:06:41Z</time>
      </trkpt>
      <trkpt lat="47.442100000" lon="-2.553400000">
        <time>2018-09-26T11:07:01Z</time>
      </trkpt>
      <trkpt lat="47.443116667" lon="-2.552550000">
        <time>2018-09-26T11:07:46Z</time>
      </trkpt>
      <trkpt lat="47.443200000" lon="-2.552416667">
        <time>2018-09-26T11:07:52Z</time>
      </trkpt>
      <trkpt lat="47.443350000" lon="-2.552333333">
        <time>2018-09-26T11:07:56Z</time>
      </trkpt>
      <trkpt lat="47.444033333" lon="-2.551633333">
        <time>2018-09-26T11:08:28Z</time>
      </trkpt>
      <trkpt lat="47.445066667" lon="-2.550750000">
        <time>2018-09-26T11:09:17Z</time>
      </trkpt>
      <trkpt lat="47.445816667" lon="-2.550200000">
        <time>2018-09-26T11:09:51Z</time>
      </trkpt>
      <trkpt lat="47.446333333" lon="-2.549700000">
        <time>2018-09-26T11:10:15Z</time>
      </trkpt>
      <trkpt lat="47.446566667" lon="-2.549400000">
        <time>2018-09-26T11:10:28Z</time>
      </trkpt>
      <trkpt lat="47.446733333" lon="-2.549300000">
        <time>2018-09-26T11:10:36Z</time>
      </trkpt>
      <trkpt lat="47.448150000" lon="-2.547716667">
        <time>2018-09-26T11:11:42Z</time>
      </trkpt>
      <trkpt lat="47.448416667" lon="-2.547450000">
        <time>2018-09-26T11:11:57Z</time>
      </trkpt>
      <trkpt lat="47.449500000" lon="-2.546850000">
        <time>2018-09-26T11:12:39Z</time>
      </trkpt>
      <trkpt lat="47.449600000" lon="-2.546866667">
        <time>2018-09-26T11:12:43Z</time>
      </trkpt>
      <trkpt lat="47.449616667" lon="-2.546966667">
        <time>2018-09-26T11:12:47Z</time>
      </trkpt>
      <trkpt lat="47.449550000" lon="-2.547050000">
        <time>2018-09-26T11:12:53Z</time>
      </trkpt>
      <trkpt lat="47.449483333" lon="-2.547300000">
        <time>2018-09-26T11:12:59Z</time>
      </trkpt>
      <trkpt lat="47.449483333" lon="-2.547566667">
        <time>2018-09-26T11:13:05Z</time>
      </trkpt>
      <trkpt lat="47.449533333" lon="-2.547733333">
        <time>2018-09-26T11:13:13Z</time>
      </trkpt>
      <trkpt lat="47.449733333" lon="-2.547966667">
        <time>2018-09-26T11:13:24Z</time>
      </trkpt>
      <trkpt lat="47.450333333" lon="-2.548483333">
        <time>2018-09-26T11:13:46Z</time>
      </trkpt>
      <trkpt lat="47.450566667" lon="-2.548766667">
        <time>2018-09-26T11:13:58Z</time>
      </trkpt>
      <trkpt lat="47.451066667" lon="-2.549250000">
        <time>2018-09-26T11:14:16Z</time>
      </trkpt>
      <trkpt lat="47.451666667" lon="-2.549766667">
        <time>2018-09-26T11:14:38Z</time>
      </trkpt>
      <trkpt lat="47.452216667" lon="-2.550116667">
        <time>2018-09-26T11:14:57Z</time>
      </trkpt>
      <trkpt lat="47.452416667" lon="-2.550333333">
        <time>2018-09-26T11:15:05Z</time>
      </trkpt>
      <trkpt lat="47.452850000" lon="-2.550650000">
        <time>2018-09-26T11:15:19Z</time>
      </trkpt>
      <trkpt lat="47.453633333" lon="-2.551350000">
        <time>2018-09-26T11:15:47Z</time>
      </trkpt>
      <trkpt lat="47.454366667" lon="-2.552183333">
        <time>2018-09-26T11:16:16Z</time>
      </trkpt>
      <trkpt lat="47.454833333" lon="-2.552500000">
        <time>2018-09-26T11:16:32Z</time>
      </trkpt>
      <trkpt lat="47.455016667" lon="-2.552566667">
        <time>2018-09-26T11:16:36Z</time>
      </trkpt>
      <trkpt lat="47.455600000" lon="-2.553016667">
        <time>2018-09-26T11:16:56Z</time>
      </trkpt>
      <trkpt lat="47.455966667" lon="-2.553400000">
        <time>2018-09-26T11:17:10Z</time>
      </trkpt>
      <trkpt lat="47.456616667" lon="-2.553833333">
        <time>2018-09-26T11:17:32Z</time>
      </trkpt>
      <trkpt lat="47.457750000" lon="-2.554816667">
        <time>2018-09-26T11:18:12Z</time>
      </trkpt>
      <trkpt lat="47.458116667" lon="-2.555066667">
        <time>2018-09-26T11:18:26Z</time>
      </trkpt>
      <trkpt lat="47.458583333" lon="-2.555500000">
        <time>2018-09-26T11:18:42Z</time>
      </trkpt>
      <trkpt lat="47.458583333" lon="-2.555550000">
        <time>2018-09-26T11:18:44Z</time>
      </trkpt>
      <trkpt lat="47.459050000" lon="-2.555850000">
        <time>2018-09-26T11:18:58Z</time>
      </trkpt>
      <trkpt lat="47.459933333" lon="-2.556700000">
        <time>2018-09-26T11:19:31Z</time>
      </trkpt>
      <trkpt lat="47.460183333" lon="-2.557033333">
        <time>2018-09-26T11:19:43Z</time>
      </trkpt>
      <trkpt lat="47.460333333" lon="-2.557150000">
        <time>2018-09-26T11:19:47Z</time>
      </trkpt>
      <trkpt lat="47.460633333" lon="-2.557650000">
        <time>2018-09-26T11:20:01Z</time>
      </trkpt>
      <trkpt lat="47.460866667" lon="-2.557966667">
        <time>2018-09-26T11:20:09Z</time>
      </trkpt>
      <trkpt lat="47.461316667" lon="-2.558400000">
        <time>2018-09-26T11:20:27Z</time>
      </trkpt>
      <trkpt lat="47.461766667" lon="-2.558950000">
        <time>2018-09-26T11:20:43Z</time>
      </trkpt>
      <trkpt lat="47.462600000" lon="-2.560116667">
        <time>2018-09-26T11:21:20Z</time>
      </trkpt>
      <trkpt lat="47.463116667" lon="-2.560716667">
        <time>2018-09-26T11:21:42Z</time>
      </trkpt>
      <trkpt lat="47.464716667" lon="-2.562316667">
        <time>2018-09-26T11:22:45Z</time>
      </trkpt>
      <trkpt lat="47.465483333" lon="-2.563233333">
        <time>2018-09-26T11:23:15Z</time>
      </trkpt>
      <trkpt lat="47.466050000" lon="-2.564000000">
        <time>2018-09-26T11:23:40Z</time>
      </trkpt>
      <trkpt lat="47.466850000" lon="-2.564816667">
        <time>2018-09-26T11:24:10Z</time>
      </trkpt>
      <trkpt lat="47.467233333" lon="-2.565300000">
        <time>2018-09-26T11:24:24Z</time>
      </trkpt>
      <trkpt lat="47.467383333" lon="-2.565416667">
        <time>2018-09-26T11:24:28Z</time>
      </trkpt>
      <trkpt lat="47.467816667" lon="-2.565966667">
        <time>2018-09-26T11:24:46Z</time>
      </trkpt>
      <trkpt lat="47.469583333" lon="-2.567933333">
        <time>2018-09-26T11:25:55Z</time>
      </trkpt>
      <trkpt lat="47.469800000" lon="-2.568233333">
        <time>2018-09-26T11:26:03Z</time>
      </trkpt>
      <trkpt lat="47.469850000" lon="-2.568233333">
        <time>2018-09-26T11:26:05Z</time>
      </trkpt>
      <trkpt lat="47.470166667" lon="-2.568700000">
        <time>2018-09-26T11:26:19Z</time>
      </trkpt>
      <trkpt lat="47.471866667" lon="-2.570650000">
        <time>2018-09-26T11:27:28Z</time>
      </trkpt>
      <trkpt lat="47.472316667" lon="-2.571016667">
        <time>2018-09-26T11:27:44Z</time>
      </trkpt>
      <trkpt lat="47.472850000" lon="-2.571750000">
        <time>2018-09-26T11:28:09Z</time>
      </trkpt>
      <trkpt lat="47.472966667" lon="-2.571800000">
        <time>2018-09-26T11:28:11Z</time>
      </trkpt>
      <trkpt lat="47.473966667" lon="-2.572833333">
        <time>2018-09-26T11:28:49Z</time>
      </trkpt>
      <trkpt lat="47.474133333" lon="-2.573100000">
        <time>2018-09-26T11:28:55Z</time>
      </trkpt>
      <trkpt lat="47.474816667" lon="-2.573816667">
        <time>2018-09-26T11:29:24Z</time>
      </trkpt>
      <trkpt lat="47.475600000" lon="-2.574783333">
        <time>2018-09-26T11:29:54Z</time>
      </trkpt>
      <trkpt lat="47.476283333" lon="-2.575800000">
        <time>2018-09-26T11:30:24Z</time>
      </trkpt>
      <trkpt lat="47.478200000" lon="-2.577816667">
        <time>2018-09-26T11:31:35Z</time>
      </trkpt>
      <trkpt lat="47.478433333" lon="-2.578000000">
        <time>2018-09-26T11:31:41Z</time>
      </trkpt>
      <trkpt lat="47.478866667" lon="-2.578150000">
        <time>2018-09-26T11:31:57Z</time>
      </trkpt>
      <trkpt lat="47.479666667" lon="-2.578283333">
        <time>2018-09-26T11:32:22Z</time>
      </trkpt>
      <trkpt lat="47.480183333" lon="-2.578250000">
        <time>2018-09-26T11:32:40Z</time>
      </trkpt>
      <trkpt lat="47.480616667" lon="-2.578133333">
        <time>2018-09-26T11:32:56Z</time>
      </trkpt>
      <trkpt lat="47.480700000" lon="-2.578066667">
        <time>2018-09-26T11:33:00Z</time>
      </trkpt>
      <trkpt lat="47.480716667" lon="-2.577983333">
        <time>2018-09-26T11:33:06Z</time>
      </trkpt>
      <trkpt lat="47.480600000" lon="-2.577883333">
        <time>2018-09-26T11:33:20Z</time>
      </trkpt>
      <trkpt lat="47.480516667" lon="-2.577683333">
        <time>2018-09-26T11:33:32Z</time>
      </trkpt>
      <trkpt lat="47.480516667" lon="-2.577566667">
        <time>2018-09-26T11:33:42Z</time>
      </trkpt>
      <trkpt lat="47.480416667" lon="-2.577533333">
        <time>2018-09-26T11:33:55Z</time>
      </trkpt>
      <trkpt lat="47.480300000" lon="-2.577350000">
        <time>2018-09-26T11:34:05Z</time>
      </trkpt>
      <trkpt lat="47.480033333" lon="-2.576600000">
        <time>2018-09-26T11:34:41Z</time>
      </trkpt>
      <trkpt lat="47.479983333" lon="-2.576350000">
        <time>2018-09-26T11:34:51Z</time>
      </trkpt>
      <trkpt lat="47.479916667" lon="-2.576250000">
        <time>2018-09-26T11:34:58Z</time>
      </trkpt>
      <trkpt lat="47.479683333" lon="-2.575450000">
        <time>2018-09-26T11:35:28Z</time>
      </trkpt>
      <trkpt lat="47.479633333" lon="-2.575116667">
        <time>2018-09-26T11:35:42Z</time>
      </trkpt>
      <trkpt lat="47.479250000" lon="-2.574266667">
        <time>2018-09-26T11:36:21Z</time>
      </trkpt>
      <trkpt lat="47.478866667" lon="-2.573300000">
        <time>2018-09-26T11:36:55Z</time>
      </trkpt>
      <trkpt lat="47.478566667" lon="-2.572366667">
        <time>2018-09-26T11:37:29Z</time>
      </trkpt>
      <trkpt lat="47.478233333" lon="-2.571616667">
        <time>2018-09-26T11:37:56Z</time>
      </trkpt>
      <trkpt lat="47.478133333" lon="-2.571483333">
        <time>2018-09-26T11:38:00Z</time>
      </trkpt>
      <trkpt lat="47.478116667" lon="-2.571366667">
        <time>2018-09-26T11:38:02Z</time>
      </trkpt>
      <trkpt lat="47.477816667" lon="-2.570700000">
        <time>2018-09-26T11:38:22Z</time>
      </trkpt>
      <trkpt lat="47.477216667" lon="-2.568983333">
        <time>2018-09-26T11:39:19Z</time>
      </trkpt>
      <trkpt lat="47.476733333" lon="-2.567483333">
        <time>2018-09-26T11:40:09Z</time>
      </trkpt>
      <trkpt lat="47.476450000" lon="-2.566383333">
        <time>2018-09-26T11:40:44Z</time>
      </trkpt>
      <trkpt lat="47.476416667" lon="-2.566383333">
        <time>2018-09-26T11:40:46Z</time>
      </trkpt>
      <trkpt lat="47.476216667" lon="-2.565866667">
        <time>2018-09-26T11:41:02Z</time>
      </trkpt>
      <trkpt lat="47.475966667" lon="-2.565033333">
        <time>2018-09-26T11:41:26Z</time>
      </trkpt>
      <trkpt lat="47.475883333" lon="-2.564616667">
        <time>2018-09-26T11:41:36Z</time>
      </trkpt>
      <trkpt lat="47.475350000" lon="-2.563050000">
        <time>2018-09-26T11:42:27Z</time>
      </trkpt>
      <trkpt lat="47.474866667" lon="-2.561250000">
        <time>2018-09-26T11:43:26Z</time>
      </trkpt>
      <trkpt lat="47.474833333" lon="-2.561250000">
        <time>2018-09-26T11:43:28Z</time>
      </trkpt>
      <trkpt lat="47.474366667" lon="-2.559816667">
        <time>2018-09-26T11:44:20Z</time>
      </trkpt>
      <trkpt lat="47.474266667" lon="-2.559633333">
        <time>2018-09-26T11:44:28Z</time>
      </trkpt>
      <trkpt lat="47.474200000" lon="-2.559316667">
        <time>2018-09-26T11:44:37Z</time>
      </trkpt>
      <trkpt lat="47.473600000" lon="-2.557600000">
        <time>2018-09-26T11:45:29Z</time>
      </trkpt>
      <trkpt lat="47.472916667" lon="-2.555200000">
        <time>2018-09-26T11:46:38Z</time>
      </trkpt>
      <trkpt lat="47.472750000" lon="-2.554483333">
        <time>2018-09-26T11:47:00Z</time>
      </trkpt>
      <trkpt lat="47.472616667" lon="-2.554166667">
        <time>2018-09-26T11:47:10Z</time>
      </trkpt>
      <trkpt lat="47.471916667" lon="-2.551700000">
        <time>2018-09-26T11:48:25Z</time>
      </trkpt>
      <trkpt lat="47.471400000" lon="-2.550000000">
        <time>2018-09-26T11:49:20Z</time>
      </trkpt>
      <trkpt lat="47.471300000" lon="-2.549850000">
        <time>2018-09-26T11:49:28Z</time>
      </trkpt>
      <trkpt lat="47.471233333" lon="-2.549533333">
        <time>2018-09-26T11:49:36Z</time>
      </trkpt>
      <trkpt lat="47.470716667" lon="-2.548133333">
        <time>2018-09-26T11:50:27Z</time>
      </trkpt>
      <trkpt lat="47.470250000" lon="-2.547016667">
        <time>2018-09-26T11:51:05Z</time>
      </trkpt>
      <trkpt lat="47.469983333" lon="-2.546250000">
        <time>2018-09-26T11:51:34Z</time>
      </trkpt>
      <trkpt lat="47.469316667" lon="-2.544866667">
        <time>2018-09-26T11:52:18Z</time>
      </trkpt>
      <trkpt lat="47.468666667" lon="-2.542933333">
        <time>2018-09-26T11:53:19Z</time>
      </trkpt>
      <trkpt lat="47.468150000" lon="-2.541800000">
        <time>2018-09-26T11:53:53Z</time>
      </trkpt>
      <trkpt lat="47.467283333" lon="-2.539616667">
        <time>2018-09-26T11:54:58Z</time>
      </trkpt>
      <trkpt lat="47.467233333" lon="-2.539566667">
        <time>2018-09-26T11:55:02Z</time>
      </trkpt>
      <trkpt lat="47.466833333" lon="-2.538533333">
        <time>2018-09-26T11:55:32Z</time>
      </trkpt>
      <trkpt lat="47.466816667" lon="-2.538400000">
        <time>2018-09-26T11:55:36Z</time>
      </trkpt>
      <trkpt lat="47.466683333" lon="-2.538150000">
        <time>2018-09-26T11:55:45Z</time>
      </trkpt>
      <trkpt lat="47.465933333" lon="-2.536033333">
        <time>2018-09-26T11:56:49Z</time>
      </trkpt>
      <trkpt lat="47.465600000" lon="-2.534933333">
        <time>2018-09-26T11:57:20Z</time>
      </trkpt>
      <trkpt lat="47.465450000" lon="-2.534633333">
        <time>2018-09-26T11:57:30Z</time>
      </trkpt>
      <trkpt lat="47.464983333" lon="-2.534233333">
        <time>2018-09-26T11:57:52Z</time>
      </trkpt>
      <trkpt lat="47.464700000" lon="-2.533850000">
        <time>2018-09-26T11:58:12Z</time>
      </trkpt>
      <trkpt lat="47.464516667" lon="-2.533433333">
        <time>2018-09-26T11:58:33Z</time>
      </trkpt>
      <trkpt lat="47.464466667" lon="-2.533266667">
        <time>2018-09-26T11:58:39Z</time>
      </trkpt>
      <trkpt lat="47.464466667" lon="-2.532833333">
        <time>2018-09-26T11:59:03Z</time>
      </trkpt>
      <trkpt lat="47.465183333" lon="-2.532650000">
        <time>2018-09-26T11:59:37Z</time>
      </trkpt>
      <trkpt lat="47.466233333" lon="-2.532600000">
        <time>2018-09-26T12:00:08Z</time>
      </trkpt>
      <trkpt lat="47.466583333" lon="-2.532616667">
        <time>2018-09-26T12:00:18Z</time>
      </trkpt>
      <trkpt lat="47.467050000" lon="-2.532850000">
        <time>2018-09-26T12:00:34Z</time>
      </trkpt>
      <trkpt lat="47.467300000" lon="-2.532900000">
        <time>2018-09-26T12:00:42Z</time>
      </trkpt>
      <trkpt lat="47.467633333" lon="-2.532900000">
        <time>2018-09-26T12:00:52Z</time>
      </trkpt>
      <trkpt lat="47.468083333" lon="-2.532783333">
        <time>2018-09-26T12:01:06Z</time>
      </trkpt>
      <trkpt lat="47.468400000" lon="-2.532766667">
        <time>2018-09-26T12:01:17Z</time>
      </trkpt>
      <trkpt lat="47.469916667" lon="-2.532400000">
        <time>2018-09-26T12:02:07Z</time>
      </trkpt>
      <trkpt lat="47.470600000" lon="-2.532133333">
        <time>2018-09-26T12:02:31Z</time>
      </trkpt>
      <trkpt lat="47.471350000" lon="-2.531716667">
        <time>2018-09-26T12:02:56Z</time>
      </trkpt>
      <trkpt lat="47.471466667" lon="-2.531700000">
        <time>2018-09-26T12:03:00Z</time>
      </trkpt>
      <trkpt lat="47.471900000" lon="-2.531416667">
        <time>2018-09-26T12:03:18Z</time>
      </trkpt>
      <trkpt lat="47.474416667" lon="-2.530333333">
        <time>2018-09-26T12:04:41Z</time>
      </trkpt>
      <trkpt lat="47.474916667" lon="-2.530066667">
        <time>2018-09-26T12:04:59Z</time>
      </trkpt>
      <trkpt lat="47.475983333" lon="-2.529650000">
        <time>2018-09-26T12:05:34Z</time>
      </trkpt>
      <trkpt lat="47.477000000" lon="-2.529383333">
        <time>2018-09-26T12:06:04Z</time>
      </trkpt>
      <trkpt lat="47.478133333" lon="-2.528900000">
        <time>2018-09-26T12:06:42Z</time>
      </trkpt>
      <trkpt lat="47.479050000" lon="-2.528366667">
        <time>2018-09-26T12:07:17Z</time>
      </trkpt>
      <trkpt lat="47.479716667" lon="-2.528133333">
        <time>2018-09-26T12:07:43Z</time>
      </trkpt>
      <trkpt lat="47.481133333" lon="-2.527416667">
        <time>2018-09-26T12:08:34Z</time>
      </trkpt>
      <trkpt lat="47.481683333" lon="-2.527016667">
        <time>2018-09-26T12:08:54Z</time>
      </trkpt>
      <trkpt lat="47.482000000" lon="-2.526866667">
        <time>2018-09-26T12:09:06Z</time>
      </trkpt>
      <trkpt lat="47.484850000" lon="-2.524950000">
        <time>2018-09-26T12:10:49Z</time>
      </trkpt>
      <trkpt lat="47.485983333" lon="-2.524383333">
        <time>2018-09-26T12:11:28Z</time>
      </trkpt>
      <trkpt lat="47.486466667" lon="-2.524083333">
        <time>2018-09-26T12:11:46Z</time>
      </trkpt>
      <trkpt lat="47.487450000" lon="-2.523650000">
        <time>2018-09-26T12:12:24Z</time>
      </trkpt>
      <trkpt lat="47.488000000" lon="-2.523250000">
        <time>2018-09-26T12:12:51Z</time>
      </trkpt>
      <trkpt lat="47.488183333" lon="-2.523166667">
        <time>2018-09-26T12:12:57Z</time>
      </trkpt>
      <trkpt lat="47.488550000" lon="-2.523166667">
        <time>2018-09-26T12:13:09Z</time>
      </trkpt>
      <trkpt lat="47.489150000" lon="-2.523316667">
        <time>2018-09-26T12:13:27Z</time>
      </trkpt>
      <trkpt lat="47.489483333" lon="-2.523466667">
        <time>2018-09-26T12:13:37Z</time>
      </trkpt>
      <trkpt lat="47.490183333" lon="-2.524266667">
        <time>2018-09-26T12:14:07Z</time>
      </trkpt>
      <trkpt lat="47.491933333" lon="-2.525700000">
        <time>2018-09-26T12:15:16Z</time>
      </trkpt>
      <trkpt lat="47.492916667" lon="-2.526300000">
        <time>2018-09-26T12:15:49Z</time>
      </trkpt>
      <trkpt lat="47.493750000" lon="-2.526966667">
        <time>2018-09-26T12:16:17Z</time>
      </trkpt>
      <trkpt lat="47.494083333" lon="-2.527166667">
        <time>2018-09-26T12:16:27Z</time>
      </trkpt>
      <trkpt lat="47.494416667" lon="-2.527483333">
        <time>2018-09-26T12:16:39Z</time>
      </trkpt>
      <trkpt lat="47.494733333" lon="-2.527666667">
        <time>2018-09-26T12:16:49Z</time>
      </trkpt>
      <trkpt lat="47.494883333" lon="-2.527666667">
        <time>2018-09-26T12:16:53Z</time>
      </trkpt>
      <trkpt lat="47.495000000" lon="-2.527600000">
        <time>2018-09-26T12:16:57Z</time>
      </trkpt>
      <trkpt lat="47.495050000" lon="-2.527483333">
        <time>2018-09-26T12:17:01Z</time>
      </trkpt>
      <trkpt lat="47.494850000" lon="-2.527016667">
        <time>2018-09-26T12:17:36Z</time>
      </trkpt>
      <trkpt lat="47.494833333" lon="-2.526850000">
        <time>2018-09-26T12:17:50Z</time>
      </trkpt>
      <trkpt lat="47.494666667" lon="-2.526600000">
        <time>2018-09-26T12:18:18Z</time>
      </trkpt>
      <trkpt lat="47.494516667" lon="-2.525983333">
        <time>2018-09-26T12:18:51Z</time>
      </trkpt>
      <trkpt lat="47.494216667" lon="-2.525216667">
        <time>2018-09-26T12:19:25Z</time>
      </trkpt>
      <trkpt lat="47.493950000" lon="-2.524433333">
        <time>2018-09-26T12:19:57Z</time>
      </trkpt>
      <trkpt lat="47.493500000" lon="-2.522833333">
        <time>2018-09-26T12:20:56Z</time>
      </trkpt>
      <trkpt lat="47.494333333" lon="-2.522316667">
        <time>2018-09-26T12:21:28Z</time>
      </trkpt>
      <trkpt lat="47.495566667" lon="-2.521833333">
        <time>2018-09-26T12:22:07Z</time>
      </trkpt>
      <trkpt lat="47.495916667" lon="-2.521650000">
        <time>2018-09-26T12:22:19Z</time>
      </trkpt>
      <trkpt lat="47.496566667" lon="-2.521183333">
        <time>2018-09-26T12:22:45Z</time>
      </trkpt>
      <trkpt lat="47.496950000" lon="-2.520783333">
        <time>2018-09-26T12:23:18Z</time>
      </trkpt>
      <trkpt lat="47.497316667" lon="-2.520566667">
        <time>2018-09-26T12:23:58Z</time>
      </trkpt>
      <trkpt lat="47.498166667" lon="-2.520316667">
        <time>2018-09-26T12:25:41Z</time>
      </trkpt>
      <trkpt lat="47.498650000" lon="-2.519983333">
        <time>2018-09-26T12:26:26Z</time>
      </trkpt>
      <trkpt lat="47.498966667" lon="-2.519666667">
        <time>2018-09-26T12:26:50Z</time>
      </trkpt>
      <trkpt lat="47.499633333" lon="-2.518833333">
        <time>2018-09-26T12:27:39Z</time>
      </trkpt>
      <trkpt lat="47.500850000" lon="-2.517500000">
        <time>2018-09-26T12:29:00Z</time>
      </trkpt>
      <trkpt lat="47.501300000" lon="-2.516916667">
        <time>2018-09-26T12:29:32Z</time>
      </trkpt>
      <trkpt lat="47.503016667" lon="-2.514933333">
        <time>2018-09-26T12:31:47Z</time>
      </trkpt>
      <trkpt lat="47.503866667" lon="-2.514033333">
        <time>2018-09-26T12:33:00Z</time>
      </trkpt>
      <trkpt lat="47.504350000" lon="-2.513416667">
        <time>2018-09-26T12:33:41Z</time>
      </trkpt>
      <trkpt lat="47.504733333" lon="-2.513033333">
        <time>2018-09-26T12:34:17Z</time>
      </trkpt>
      <trkpt lat="47.505650000" lon="-2.511816667">
        <time>2018-09-26T12:35:24Z</time>
      </trkpt>
      <trkpt lat="47.506633333" lon="-2.510650000">
        <time>2018-09-26T12:36:37Z</time>
      </trkpt>
      <trkpt lat="47.506933333" lon="-2.510233333">
        <time>2018-09-26T12:37:07Z</time>
      </trkpt>
      <trkpt lat="47.507166667" lon="-2.509516667">
        <time>2018-09-26T12:38:02Z</time>
      </trkpt>
      <trkpt lat="47.507433333" lon="-2.508866667">
        <time>2018-09-26T12:38:40Z</time>
      </trkpt>
      <trkpt lat="47.507733333" lon="-2.507666667">
        <time>2018-09-26T12:39:47Z</time>
      </trkpt>
      <trkpt lat="47.508116667" lon="-2.506400000">
        <time>2018-09-26T12:40:54Z</time>
      </trkpt>
      <trkpt lat="47.508333333" lon="-2.505483333">
        <time>2018-09-26T12:41:42Z</time>
      </trkpt>
      <trkpt lat="47.508366667" lon="-2.504850000">
        <time>2018-09-26T12:42:16Z</time>
      </trkpt>
      <trkpt lat="47.508750000" lon="-2.502316667">
        <time>2018-09-26T12:44:20Z</time>
      </trkpt>
      <trkpt lat="47.509216667" lon="-2.498416667">
        <time>2018-09-26T12:47:14Z</time>
      </trkpt>
      <trkpt lat="47.509366667" lon="-2.496750000">
        <time>2018-09-26T12:48:12Z</time>
      </trkpt>
      <trkpt lat="47.509333333" lon="-2.495933333">
        <time>2018-09-26T12:48:45Z</time>
      </trkpt>
      <trkpt lat="47.509333333" lon="-2.492350000">
        <time>2018-09-26T12:50:52Z</time>
      </trkpt>
      <trkpt lat="47.509100000" lon="-2.490350000">
        <time>2018-09-26T12:51:55Z</time>
      </trkpt>
      <trkpt lat="47.508900000" lon="-2.488883333">
        <time>2018-09-26T12:52:41Z</time>
      </trkpt>
      <trkpt lat="47.508766667" lon="-2.488183333">
        <time>2018-09-26T12:53:02Z</time>
      </trkpt>
      <trkpt lat="47.508600000" lon="-2.487650000">
        <time>2018-09-26T12:53:20Z</time>
      </trkpt>
      <trkpt lat="47.507683333" lon="-2.483966667">
        <time>2018-09-26T12:55:15Z</time>
      </trkpt>
      <trkpt lat="47.507550000" lon="-2.483516667">
        <time>2018-09-26T12:55:29Z</time>
      </trkpt>
      <trkpt lat="47.507066667" lon="-2.482333333">
        <time>2018-09-26T12:56:08Z</time>
      </trkpt>
      <trkpt lat="47.506800000" lon="-2.481566667">
        <time>2018-09-26T12:56:30Z</time>
      </trkpt>
      <trkpt lat="47.506766667" lon="-2.481566667">
        <time>2018-09-26T12:56:32Z</time>
      </trkpt>
      <trkpt lat="47.506750000" lon="-2.481433333">
        <time>2018-09-26T12:56:34Z</time>
      </trkpt>
      <trkpt lat="47.506183333" lon="-2.479900000">
        <time>2018-09-26T12:57:23Z</time>
      </trkpt>
      <trkpt lat="47.505116667" lon="-2.477283333">
        <time>2018-09-26T12:58:46Z</time>
      </trkpt>
      <trkpt lat="47.504583333" lon="-2.476333333">
        <time>2018-09-26T12:59:21Z</time>
      </trkpt>
      <trkpt lat="47.503516667" lon="-2.474583333">
        <time>2018-09-26T13:00:24Z</time>
      </trkpt>
      <trkpt lat="47.502083333" lon="-2.472433333">
        <time>2018-09-26T13:01:40Z</time>
      </trkpt>
      <trkpt lat="47.501883333" lon="-2.472216667">
        <time>2018-09-26T13:01:49Z</time>
      </trkpt>
      <trkpt lat="47.501200000" lon="-2.471233333">
        <time>2018-09-26T13:02:25Z</time>
      </trkpt>
      <trkpt lat="47.500166667" lon="-2.469883333">
        <time>2018-09-26T13:03:16Z</time>
      </trkpt>
      <trkpt lat="47.499283333" lon="-2.468566667">
        <time>2018-09-26T13:04:04Z</time>
      </trkpt>
      <trkpt lat="47.497066667" lon="-2.465083333">
        <time>2018-09-26T13:06:08Z</time>
      </trkpt>
      <trkpt lat="47.496816667" lon="-2.464483333">
        <time>2018-09-26T13:06:28Z</time>
      </trkpt>
      <trkpt lat="47.496316667" lon="-2.463100000">
        <time>2018-09-26T13:07:15Z</time>
      </trkpt>
      <trkpt lat="47.495933333" lon="-2.461883333">
        <time>2018-09-26T13:07:53Z</time>
      </trkpt>
      <trkpt lat="47.495716667" lon="-2.461100000">
        <time>2018-09-26T13:08:18Z</time>
      </trkpt>
      <trkpt lat="47.495616667" lon="-2.460483333">
        <time>2018-09-26T13:08:36Z</time>
      </trkpt>
      <trkpt lat="47.495483333" lon="-2.458900000">
        <time>2018-09-26T13:09:24Z</time>
      </trkpt>
      <trkpt lat="47.495400000" lon="-2.457366667">
        <time>2018-09-26T13:10:09Z</time>
      </trkpt>
      <trkpt lat="47.495350000" lon="-2.455366667">
        <time>2018-09-26T13:11:07Z</time>
      </trkpt>
      <trkpt lat="47.495383333" lon="-2.453933333">
        <time>2018-09-26T13:11:46Z</time>
      </trkpt>
      <trkpt lat="47.495466667" lon="-2.452300000">
        <time>2018-09-26T13:12:32Z</time>
      </trkpt>
      <trkpt lat="47.495666667" lon="-2.450100000">
        <time>2018-09-26T13:13:33Z</time>
      </trkpt>
      <trkpt lat="47.495883333" lon="-2.448266667">
        <time>2018-09-26T13:14:24Z</time>
      </trkpt>
      <trkpt lat="47.496366667" lon="-2.443150000">
        <time>2018-09-26T13:16:43Z</time>
      </trkpt>
      <trkpt lat="47.496450000" lon="-2.441433333">
        <time>2018-09-26T13:17:34Z</time>
      </trkpt>
      <trkpt lat="47.496833333" lon="-2.437166667">
        <time>2018-09-26T13:19:31Z</time>
      </trkpt>
      <trkpt lat="47.496866667" lon="-2.436416667">
        <time>2018-09-26T13:19:53Z</time>
      </trkpt>
      <trkpt lat="47.497600000" lon="-2.430216667">
        <time>2018-09-26T13:22:41Z</time>
      </trkpt>
      <trkpt lat="47.497650000" lon="-2.429416667">
        <time>2018-09-26T13:23:03Z</time>
      </trkpt>
      <trkpt lat="47.497650000" lon="-2.428350000">
        <time>2018-09-26T13:23:29Z</time>
      </trkpt>
      <trkpt lat="47.497450000" lon="-2.424516667">
        <time>2018-09-26T13:25:11Z</time>
      </trkpt>
      <trkpt lat="47.497250000" lon="-2.423216667">
        <time>2018-09-26T13:25:45Z</time>
      </trkpt>
      <trkpt lat="47.497016667" lon="-2.422050000">
        <time>2018-09-26T13:26:15Z</time>
      </trkpt>
      <trkpt lat="47.496750000" lon="-2.421183333">
        <time>2018-09-26T13:26:40Z</time>
      </trkpt>
      <trkpt lat="47.496433333" lon="-2.420366667">
        <time>2018-09-26T13:27:02Z</time>
      </trkpt>
      <trkpt lat="47.495200000" lon="-2.417700000">
        <time>2018-09-26T13:28:25Z</time>
      </trkpt>
      <trkpt lat="47.495200000" lon="-2.417633333">
        <time>2018-09-26T13:28:27Z</time>
      </trkpt>
      <trkpt lat="47.494950000" lon="-2.417183333">
        <time>2018-09-26T13:28:39Z</time>
      </trkpt>
      <trkpt lat="47.493666667" lon="-2.414350000">
        <time>2018-09-26T13:30:10Z</time>
      </trkpt>
      <trkpt lat="47.493450000" lon="-2.413800000">
        <time>2018-09-26T13:30:26Z</time>
      </trkpt>
      <trkpt lat="47.493183333" lon="-2.412850000">
        <time>2018-09-26T13:30:57Z</time>
      </trkpt>
      <trkpt lat="47.493083333" lon="-2.412300000">
        <time>2018-09-26T13:31:13Z</time>
      </trkpt>
      <trkpt lat="47.493033333" lon="-2.411816667">
        <time>2018-09-26T13:31:27Z</time>
      </trkpt>
      <trkpt lat="47.493066667" lon="-2.411316667">
        <time>2018-09-26T13:31:41Z</time>
      </trkpt>
      <trkpt lat="47.493200000" lon="-2.410416667">
        <time>2018-09-26T13:32:07Z</time>
      </trkpt>
      <trkpt lat="47.493400000" lon="-2.409500000">
        <time>2018-09-26T13:32:34Z</time>
      </trkpt>
      <trkpt lat="47.493500000" lon="-2.409183333">
        <time>2018-09-26T13:32:44Z</time>
      </trkpt>
      <trkpt lat="47.493850000" lon="-2.408433333">
        <time>2018-09-26T13:33:12Z</time>
      </trkpt>
      <trkpt lat="47.494433333" lon="-2.407350000">
        <time>2018-09-26T13:33:57Z</time>
      </trkpt>
      <trkpt lat="47.494900000" lon="-2.406816667">
        <time>2018-09-26T13:34:23Z</time>
      </trkpt>
      <trkpt lat="47.495600000" lon="-2.406166667">
        <time>2018-09-26T13:34:57Z</time>
      </trkpt>
      <trkpt lat="47.497483333" lon="-2.404683333">
        <time>2018-09-26T13:36:24Z</time>
      </trkpt>
      <trkpt lat="47.499733333" lon="-2.402750000">
        <time>2018-09-26T13:38:14Z</time>
      </trkpt>
      <trkpt lat="47.501383333" lon="-2.401183333">
        <time>2018-09-26T13:39:37Z</time>
      </trkpt>
      <trkpt lat="47.502600000" lon="-2.399916667">
        <time>2018-09-26T13:40:41Z</time>
      </trkpt>
      <trkpt lat="47.503700000" lon="-2.398566667">
        <time>2018-09-26T13:41:42Z</time>
      </trkpt>
      <trkpt lat="47.503783333" lon="-2.398533333">
        <time>2018-09-26T13:41:46Z</time>
      </trkpt>
      <trkpt lat="47.504250000" lon="-2.397816667">
        <time>2018-09-26T13:42:14Z</time>
      </trkpt>
      <trkpt lat="47.504416667" lon="-2.397400000">
        <time>2018-09-26T13:42:28Z</time>
      </trkpt>
      <trkpt lat="47.504766667" lon="-2.396066667">
        <time>2018-09-26T13:43:11Z</time>
      </trkpt>
      <trkpt lat="47.504966667" lon="-2.394966667">
        <time>2018-09-26T13:43:45Z</time>
      </trkpt>
      <trkpt lat="47.505066667" lon="-2.394183333">
        <time>2018-09-26T13:44:10Z</time>
      </trkpt>
      <trkpt lat="47.505083333" lon="-2.393600000">
        <time>2018-09-26T13:44:26Z</time>
      </trkpt>
      <trkpt lat="47.504950000" lon="-2.392300000">
        <time>2018-09-26T13:45:06Z</time>
      </trkpt>
      <trkpt lat="47.504783333" lon="-2.391016667">
        <time>2018-09-26T13:45:47Z</time>
      </trkpt>
      <trkpt lat="47.504500000" lon="-2.389433333">
        <time>2018-09-26T13:46:41Z</time>
      </trkpt>
      <trkpt lat="47.504233333" lon="-2.388283333">
        <time>2018-09-26T13:47:22Z</time>
      </trkpt>
      <trkpt lat="47.504100000" lon="-2.387500000">
        <time>2018-09-26T13:47:46Z</time>
      </trkpt>
      <trkpt lat="47.504016667" lon="-2.387233333">
        <time>2018-09-26T13:47:56Z</time>
      </trkpt>
      <trkpt lat="47.503866667" lon="-2.387000000">
        <time>2018-09-26T13:48:10Z</time>
      </trkpt>
      <trkpt lat="47.503333333" lon="-2.386633333">
        <time>2018-09-26T14:19:22Z</time>
      </trkpt>
    </trkseg>
  </trk>
</gpx>
